feature,coef
Gender,-0.021169638
chr7_151086824_A_G_genotypic,0.04740331
chr6_29631325_G_A_genotypic,-0.01776046
chr7_151086821_C_CG_genotypic,0.008013486
chr7_151086830_T_G_genotypic,-0.02869017
chr7_151086819_C_G_genotypic,0.028816978
chr7_151086816_T_G_genotypic,0.0010098802
chr6_27824097_G_A_genotypic,0.010607708
chr6_28229489_GGAGAATATCCA_G_genotypic,-0.014435095
chr15_78773215_A_G_genotypic,-0.00054960325
chr1_12882298_T_C_genotypic,0.06634905
,0.025987781584262848
,0.044795744121074677
,0.0331915020942688
,0.0323791429400444
,0.03317407891154289
,-0.03388442471623421
,0.024166228249669075
,-0.013660287484526634
,0.0008822500822134316
,-0.00023110062466003
,-0.020960966125130653
,-0.030741244554519653
,-0.01372753269970417
,0.029665270820260048
,0.03787202015519142
,0.018117021769285202
,-0.005602838471531868
,-0.012535770423710346
,0.023537101224064827
,0.014502162113785744
,-0.0055988202802836895
,0.04712425544857979
,-0.020688043907284737
,-0.016406087204813957
,0.06495999544858932
,0.025166833773255348
,0.012384396977722645
,0.012277001515030861
,0.003457851940765977
,-0.038981061428785324
,0.004343156237155199
,0.00901826098561287
,0.016259323805570602
,0.058069586753845215
,0.010776657611131668
,0.04160761833190918
,-0.03169463947415352
,-0.0413326621055603
,0.05021096393465996
,-0.01411383505910635
,0.026115894317626953
,0.00831627007573843
,0.05302146449685097
,0.026446809992194176
,-0.016020556911826134
,0.05098307132720947
,-0.001370830344967544
,0.018474968150258064
,-0.011251234449446201
,-0.032196708023548126
,0.01901257410645485
,0.02047022432088852
,-0.008058535866439342
,0.0017861619126051664
,-0.002622827887535095
,-0.05035024508833885
,-0.004655563738197088
,-0.04112430289387703
,0.03353766351938248
,-0.009170296601951122
,0.059637147933244705
,0.022196508944034576
,-0.03864520043134689
,0.029420403763651848
,-0.03169747442007065
,0.03416062891483307
,0.02357349544763565
,0.0016401230823248625
,0.02661122754216194
,0.04102915897965431
,0.07869148254394531
,0.03233444318175316
,0.024858009070158005
,-0.0020720160100609064
,0.08169811218976974
,0.016359390690922737
,0.033281147480010986
,-0.026303328573703766
,-0.020697539672255516
,-0.00397919025272131
,0.038640860468149185
,0.00023571054043713957
,0.02365550398826599
,0.0017914121272042394
,0.059325531125068665
,0.0044585117138922215
,0.023655764758586884
,0.0188393983989954
,0.04860653355717659
,0.022114353254437447
,-0.010136831551790237
,0.0026988082099705935
,0.007660071365535259
,-0.026249822229146957
,0.03581058233976364
,0.003552265465259552
,0.003979237750172615
,0.032696761190891266
,-0.025496192276477814
,0.07775655388832092
,-0.017992766574025154
,0.046111155301332474
,0.011432720348238945
,0.019698983058333397
,-0.04477950558066368
,0.012774329632520676
,0.034743085503578186
,0.06569994986057281
,0.011043760925531387
,-0.011936825700104237
,0.03928925842046738
,0.05881921574473381
,0.041049420833587646
,0.004174717236310244
,0.028077347204089165
,0.009556527249515057
,0.05687479302287102
