,loss,kld,tp,fp,tn,fn,accuracy,categorical_accuracy,categorical_hinge,precision,recall,auc,prc,val_loss,val_kld,val_tp,val_fp,val_tn,val_fn,val_accuracy,val_categorical_accuracy,val_categorical_hinge,val_precision,val_recall,val_auc,val_prc
0,0.765787128607432,0.9577920794486999,62.93333333333333,51.2,62.93333333333333,51.2,0.0005747126415371895,0.5498432656129201,0.9211055397987366,0.5498432656129201,0.5498432656129201,0.6085747917493184,0.5932572265466054,0.7569797277450562,0.6979771455128988,14.533333333333333,13.466666666666667,14.533333333333333,13.466666666666667,0.0,0.5190476139386495,0.9927522579828898,0.5190476139386495,0.5190476139386495,0.6329914629459381,0.6048227310180664
1,0.750022828578949,0.685299797852834,49.46666666666667,38.53333333333333,49.46666666666667,38.53333333333333,0.0,0.5621212104956309,0.978308645884196,0.5621212104956309,0.5621212104956309,0.7053893148899079,0.6364977260430654,0.7488676269849142,0.6834175825119019,14.866666666666667,13.133333333333333,14.866666666666667,13.133333333333333,0.0,0.5309523741404215,0.9797313451766968,0.5309523741404215,0.5309523741404215,0.6859829187393188,0.6383459071318308
2,0.7377921144167582,0.6630905111630757,51.53333333333333,36.46666666666667,51.53333333333333,36.46666666666667,0.0,0.5856060604254405,0.9563850482304891,0.5856060604254405,0.5856060604254405,0.7782187581062316,0.6863045851389568,0.7417037566502889,0.6708737850189209,15.266666666666667,12.733333333333333,15.266666666666667,12.733333333333333,0.0,0.5452380935351054,0.9671684225400289,0.5452380935351054,0.5452380935351054,0.7304273625214894,0.6622261206309
3,0.7276903669039408,0.6453959981600443,54.733333333333334,33.266666666666666,54.733333333333334,33.266666666666666,0.0,0.6219696978727977,0.9371687928835551,0.6219696978727977,0.6219696978727977,0.8269638737042745,0.7294827421506246,0.7356377283732096,0.6605900883674621,15.933333333333334,12.066666666666666,15.933333333333334,12.066666666666666,0.0,0.569047619899114,0.955626392364502,0.569047619899114,0.569047619899114,0.7678632616996766,0.6885686794916789
4,0.7189696510632833,0.6307868560155233,58.333333333333336,29.666666666666668,58.333333333333336,29.666666666666668,0.0,0.6628787815570831,0.9195579846700033,0.6628787815570831,0.6628787815570831,0.8585170030593872,0.7568525910377503,0.7306006113688152,0.6523660063743592,16.533333333333335,11.466666666666667,16.533333333333335,11.466666666666667,0.0,0.5904761930306752,0.9453274488449097,0.5904761930306752,0.5904761930306752,0.7933333396911622,0.7105209589004516
5,0.7110808928807576,0.6181337316830953,60.266666666666666,27.733333333333334,60.266666666666666,27.733333333333334,0.0,0.6848484814167023,0.9027448217074077,0.6848484814167023,0.6848484814167023,0.8722949147224426,0.7706085046132406,0.7259904623031617,0.6450379252433777,16.733333333333334,11.266666666666667,16.733333333333334,11.266666666666667,0.0,0.5976190467675527,0.9353083451588948,0.5976190467675527,0.5976190467675527,0.8047863284746806,0.7203689217567444
6,0.7035226583480835,0.606381070613861,61.4,26.6,61.4,26.6,0.0,0.6977272768815358,0.8861648837725321,0.6977272768815358,0.6977272768815358,0.8820372144381206,0.7827610810597737,0.7215857744216919,0.6384046673774719,17.066666666666666,10.933333333333334,17.066666666666666,10.933333333333334,0.0,0.6095238069693247,0.9252016584078471,0.6095238069693247,0.6095238069693247,0.815213684240977,0.7290573438008626
7,0.6964395920435588,0.5961439331372579,62.666666666666664,25.333333333333332,62.666666666666664,25.333333333333332,0.0,0.7121212104956309,0.8701570908228556,0.7121212104956309,0.7121212104956309,0.883960215250651,0.7864052931467692,0.7172863523165385,0.6323053558667501,17.733333333333334,10.266666666666667,17.733333333333334,10.266666666666667,0.0,0.6333333313465118,0.914953637123108,0.6333333313465118,0.6333333313465118,0.8191452900568644,0.7353279074033101
8,0.6890052358309428,0.5858215451240539,64.26666666666667,23.733333333333334,64.26666666666667,23.733333333333334,0.0,0.7303030292193095,0.8531837741533915,0.7303030292193095,0.7303030292193095,0.8878390073776246,0.7962940375010172,0.7129779736200968,0.6266650319099426,17.533333333333335,10.466666666666667,17.533333333333335,10.466666666666667,0.0,0.6261904696623485,0.9045460899670918,0.6261904696623485,0.6261904696623485,0.8263247927029927,0.7388181765874227
9,0.681175414721171,0.5754651188850403,66.13333333333334,21.866666666666667,66.13333333333334,21.866666666666667,0.0,0.7515151500701904,0.8354961752891541,0.7515151500701904,0.7515151500701904,0.8898112098375957,0.8015257716178894,0.7086269537607829,0.6213526169459025,18.0,10.0,18.0,10.0,0.0,0.6428571462631225,0.8938949306805929,0.6428571462631225,0.6428571462631225,0.8311111291249593,0.7402568181355794
10,0.6733742038408915,0.5658293684323629,67.33333333333333,20.666666666666668,67.33333333333333,20.666666666666668,0.0,0.7651515165964763,0.8177208383878072,0.7651515165964763,0.7651515165964763,0.8932590802510579,0.8073255181312561,0.7044156392415365,0.6168700536092122,18.466666666666665,9.533333333333333,18.466666666666665,9.533333333333333,0.0,0.6595238129297892,0.8831035494804382,0.6595238129297892,0.6595238129297892,0.8326495846112569,0.7415404121081034
11,0.665722374121348,0.5573692540327708,69.13333333333334,18.866666666666667,69.13333333333334,18.866666666666667,0.0,0.7856060624122619,0.7999136885007222,0.7856060624122619,0.7856060624122619,0.8947475592295329,0.8132524371147156,0.700448207060496,0.613460373878479,18.733333333333334,9.266666666666667,18.733333333333334,9.266666666666667,0.0,0.6690476179122925,0.8723764101664225,0.6690476179122925,0.6690476179122925,0.8307692448298136,0.7414240121841431
12,0.6579192916552226,0.5488054931163788,69.73333333333333,18.266666666666666,69.73333333333333,18.266666666666666,0.0,0.7924242456754048,0.7821807225545248,0.7924242456754048,0.7924242456754048,0.8971536119778951,0.8197912375132242,0.6965131560961405,0.6102838853995005,18.733333333333334,9.266666666666667,18.733333333333334,9.266666666666667,0.0,0.6690476139386495,0.8616379976272583,0.6690476139386495,0.6690476139386495,0.8333333373069763,0.7429946343104045
13,0.6501628875732421,0.5405741651852926,70.06666666666666,17.933333333333334,70.06666666666666,17.933333333333334,0.0,0.7962121168772379,0.7647175470987956,0.7962121168772379,0.7962121168772379,0.9001335104306539,0.8245316823323567,0.6925435344378154,0.6071001291275024,18.866666666666667,9.133333333333333,18.866666666666667,9.133333333333333,0.0,0.6738095204035441,0.8509714841842652,0.6738095204035441,0.6738095204035441,0.8317948818206787,0.7416770339012146
14,0.6420246879259746,0.5316129346688588,70.4,17.6,70.4,17.6,0.0,0.799999996026357,0.7471008896827698,0.799999996026357,0.799999996026357,0.9034573992093404,0.8316217978795369,0.688756529490153,0.6045141537984212,19.133333333333333,8.866666666666667,19.133333333333333,8.866666666666667,0.0,0.6833333293596904,0.8406969984372457,0.6833333293596904,0.6833333293596904,0.8311111092567444,0.7442320187886556
15,0.634266459941864,0.5237516939640046,70.6,17.4,70.6,17.4,0.0,0.8022727211316426,0.7300775011380514,0.8022727211316426,0.8022727211316426,0.9057281255722046,0.8367400010426839,0.6849355697631836,0.6020541191101074,19.4,8.6,19.4,8.6,0.0,0.6928571343421936,0.8305336038271586,0.6928571343421936,0.6928571343421936,0.8287179470062256,0.7459478139877319
16,0.6264353593190511,0.5160984953244527,71.2,16.8,71.2,16.8,0.0,0.8090909004211426,0.7133628010749817,0.8090909004211426,0.8090909004211426,0.906056555112203,0.8402447541554768,0.6810489614804586,0.5993302722771963,19.666666666666668,8.333333333333334,19.666666666666668,8.333333333333334,0.0,0.7023809512456258,0.8207699735959371,0.7023809512456258,0.7023809512456258,0.8270085493723551,0.7481650034586589
17,0.6182916283607482,0.5076554497083028,71.53333333333333,16.466666666666665,71.53333333333333,16.466666666666665,0.0,0.8128787875175476,0.6967247307300568,0.8128787875175476,0.8128787875175476,0.9076840837796529,0.8452540079752604,0.6773710608482361,0.5969032386938731,19.733333333333334,8.266666666666667,19.733333333333334,8.266666666666667,0.0,0.7047619024912516,0.811371378103892,0.7047619024912516,0.7047619024912516,0.8268376151720683,0.7518405000368754
18,0.6105147878328959,0.5000572661558788,72.13333333333334,15.866666666666667,72.13333333333334,15.866666666666667,0.0,0.8196969747543335,0.6807745397090912,0.8196969747543335,0.8196969747543335,0.9092254281044007,0.8494404315948486,0.6740581591924032,0.5955889205137889,19.8,8.2,19.8,8.2,0.0,0.7071428537368775,0.8027016957600911,0.7071428537368775,0.7071428537368775,0.8247863411903381,0.7533225695292155
19,0.6025209327538809,0.4923045019308726,72.46666666666667,15.533333333333333,72.46666666666667,15.533333333333333,0.0,0.8234848499298095,0.6650203168392181,0.8234848499298095,0.8234848499298095,0.9123071829477946,0.8543846487998963,0.6709241986274719,0.5949118296305339,19.733333333333334,8.266666666666667,19.733333333333334,8.266666666666667,0.0,0.7047619024912516,0.7945867657661438,0.7047619024912516,0.7047619024912516,0.8225641131401062,0.753031857808431
20,0.5947624345620474,0.4853032688299815,72.46666666666667,15.533333333333333,72.46666666666667,15.533333333333333,0.0,0.8234848459561666,0.6500054061412811,0.8234848459561666,0.8234848459561666,0.9132590889930725,0.8589515050252279,0.6681802272796631,0.5954635938008627,19.666666666666668,8.333333333333334,19.666666666666668,8.333333333333334,0.0,0.7023809472719829,0.7865053693453471,0.7023809472719829,0.7023809472719829,0.8169230779012044,0.7503254612286886
21,0.5866672396659851,0.47774723370869954,73.33333333333333,14.666666666666666,73.33333333333333,14.666666666666666,0.0,0.8333333293596904,0.6348732272783916,0.8333333293596904,0.8333333293596904,0.9142969648043314,0.8638090332349141,0.6657043337821961,0.596674911181132,19.6,8.4,19.6,8.4,0.0,0.699999996026357,0.7785827199618022,0.699999996026357,0.699999996026357,0.8111111164093018,0.7462565422058105
22,0.5788399696350097,0.4711212694644928,73.53333333333333,14.466666666666667,73.53333333333333,14.466666666666667,0.0,0.835606062412262,0.6201277772585551,0.835606062412262,0.835606062412262,0.9142988562583924,0.867553424835205,0.6631999691327413,0.598380837837855,19.6,8.4,19.6,8.4,0.0,0.699999996026357,0.7703717192014058,0.699999996026357,0.699999996026357,0.8068376104036967,0.7436251481374104
23,0.5706656575202942,0.4638780275980631,73.46666666666667,14.533333333333333,73.46666666666667,14.533333333333333,0.0,0.8348484834035238,0.6054727137088776,0.8348484834035238,0.8348484834035238,0.918728482723236,0.8748854676882426,0.6606098453203837,0.5999876419703166,19.533333333333335,8.466666666666667,19.533333333333335,8.466666666666667,0.0,0.6976190487543742,0.7624703844388326,0.6976190487543742,0.6976190487543742,0.80324786901474,0.7427593390146892
24,0.5624237656593323,0.4564116299152374,73.93333333333334,14.066666666666666,73.93333333333334,14.066666666666666,0.0,0.8401515086491903,0.590744948387146,0.8401515086491903,0.8401515086491903,0.9203207135200501,0.8811773538589478,0.6583144346872966,0.6025503198305766,19.866666666666667,8.133333333333333,19.866666666666667,8.133333333333333,0.0,0.7095238089561462,0.755140499273936,0.7095238089561462,0.7095238089561462,0.7996581196784973,0.7428593754768371
25,0.5545258442560832,0.44986250400543215,74.26666666666667,13.733333333333333,74.26666666666667,13.733333333333333,0.0,0.8439393877983093,0.5765830854574839,0.8439393877983093,0.8439393877983093,0.9206849892934164,0.88304576476415,0.6561815500259399,0.6054562966028849,19.8,8.2,19.8,8.2,0.0,0.7071428537368775,0.7483351667722066,0.7071428537368775,0.7071428537368775,0.7960683584213257,0.7431566556294759
26,0.5461256305376688,0.44245604475339256,74.73333333333333,13.266666666666667,74.73333333333333,13.266666666666667,0.0,0.8492424209912618,0.5619350175062815,0.8492424209912618,0.8492424209912618,0.9227982083956401,0.8857686559359232,0.6544741312662761,0.6092044393221537,19.733333333333334,8.266666666666667,19.733333333333334,8.266666666666667,0.0,0.7047619024912516,0.7426646113395691,0.7047619024912516,0.7047619024912516,0.7929914434750874,0.7437335252761841
27,0.5380391895771026,0.4355578660964966,75.13333333333334,12.866666666666667,75.13333333333334,12.866666666666667,0.0,0.853787875175476,0.5479628702004751,0.853787875175476,0.853787875175476,0.9230248212814331,0.8872113664944966,0.6532085577646891,0.6133063952128093,19.6,8.4,19.6,8.4,0.0,0.7,0.7388765056927998,0.7,0.7,0.789230759938558,0.7410351157188415
28,0.5301373461882274,0.4289957006772359,75.06666666666666,12.933333333333334,75.06666666666666,12.933333333333334,0.0,0.8530303041140238,0.5346342325210571,0.8530303041140238,0.8530303041140238,0.9233868360519409,0.8880673925081889,0.6527402838071187,0.6196893731753031,19.266666666666666,8.733333333333333,19.266666666666666,8.733333333333333,0.0,0.6880952437718709,0.7355319301287333,0.6880952437718709,0.6880952437718709,0.7878632426261902,0.739687995115916
29,0.5218516568342845,0.4214669644832611,75.6,12.4,75.6,12.4,0.0,0.8590909083684285,0.5211146771907806,0.8590909083684285,0.8590909083684285,0.9247557679812114,0.8927247762680054,0.6527422785758972,0.627551241715749,19.333333333333332,8.666666666666666,19.333333333333332,8.666666666666666,0.0,0.6904761950174968,0.7316673278808594,0.6904761950174968,0.6904761950174968,0.7835897286732991,0.7378629406293233
30,0.5137987275918324,0.41524150768915813,75.4,12.6,75.4,12.6,0.0,0.8568181832631429,0.5081179698308309,0.8568181832631429,0.8568181832631429,0.9263308723767598,0.8964993834495545,0.6529412786165874,0.6361500024795532,19.466666666666665,8.533333333333333,19.466666666666665,8.533333333333333,0.0,0.6952381014823914,0.727258813381195,0.6952381014823914,0.6952381014823914,0.7820512652397156,0.7384171088536581
31,0.5058342516422272,0.4093695978323619,75.66666666666667,12.333333333333334,75.66666666666667,12.333333333333334,0.0,0.8598484913508098,0.4949408014615377,0.8598484913508098,0.8598484913508098,0.9271622578303019,0.8991840879122416,0.6531071583429973,0.644014815489451,19.533333333333335,8.466666666666667,19.533333333333335,8.466666666666667,0.0,0.6976190527280172,0.7228107690811157,0.6976190527280172,0.6976190527280172,0.7818803429603577,0.7386002937952677
32,0.49821123480796814,0.40375540852546693,75.86666666666666,12.133333333333333,75.86666666666666,12.133333333333333,0.0,0.8621212164560954,0.48214345375696815,0.8621212164560954,0.8621212164560954,0.929845408598582,0.90279115041097,0.6531883637110393,0.6516461690266927,19.133333333333333,8.866666666666667,19.133333333333333,8.866666666666667,0.0,0.6833333373069763,0.7180451393127442,0.6833333373069763,0.6833333373069763,0.7811965703964233,0.7369447986284892
33,0.49041611154874165,0.3975982467333476,75.73333333333333,12.266666666666667,75.73333333333333,12.266666666666667,0.0,0.860606066385905,0.4697359323501587,0.860606066385905,0.860606066385905,0.9308115800221761,0.9065630992253622,0.6529885093371074,0.6594700614611307,19.333333333333332,8.666666666666666,19.333333333333332,8.666666666666666,0.0,0.6904761950174968,0.7127419749895731,0.6904761950174968,0.6904761950174968,0.7794871687889099,0.7388412435849507
34,0.482679804166158,0.3920510133107503,76.0,12.0,76.0,12.0,0.0,0.8636363704999288,0.45753173033396405,0.8636363704999288,0.8636363704999288,0.9303270657857259,0.9095717748006185,0.6528655966122945,0.6669825752576192,19.4,8.6,19.4,8.6,0.0,0.6928571462631226,0.7085331916809082,0.6928571462631226,0.6928571462631226,0.77931623061498,0.7401346683502197
35,0.47505795359611513,0.3861558655897776,76.06666666666666,11.933333333333334,76.06666666666666,11.933333333333334,0.0,0.864393945535024,0.44616271058718365,0.864393945535024,0.864393945535024,0.9324223359425863,0.9134499788284302,0.6529550313949585,0.6745230237642924,19.466666666666665,8.533333333333333,19.466666666666665,8.533333333333333,0.0,0.6952380975087483,0.7039697249730428,0.6952380975087483,0.6952380975087483,0.7794871767361958,0.7438409527142843
36,0.4678094824155172,0.3807339827219645,76.06666666666666,11.933333333333334,76.06666666666666,11.933333333333334,0.0,0.864393945535024,0.4353580435117086,0.864393945535024,0.864393945535024,0.9342398722966512,0.9153052727381389,0.653459374109904,0.6831175367037455,19.266666666666666,8.733333333333333,19.266666666666666,8.733333333333333,0.0,0.6880952437718709,0.6987520853678385,0.6880952437718709,0.6880952437718709,0.7793162186940511,0.7462668895721436
37,0.4607637286186218,0.3760590672492981,76.06666666666666,11.933333333333334,76.06666666666666,11.933333333333334,0.0,0.864393949508667,0.425222909450531,0.864393949508667,0.864393949508667,0.9355032483736674,0.9173637668291728,0.654828671614329,0.6938326100508372,19.4,8.6,19.4,8.6,0.0,0.6928571502367655,0.6946142037709554,0.6928571502367655,0.6928571502367655,0.7765811800956726,0.7435552636782329
38,0.45418455998102825,0.3721487085024516,76.06666666666666,11.933333333333334,76.06666666666666,11.933333333333334,0.0,0.864393949508667,0.41579626202583314,0.864393949508667,0.864393949508667,0.9368367870648702,0.9193005283673604,0.6567850828170776,0.7056394159793854,19.333333333333332,8.666666666666666,19.333333333333332,8.666666666666666,0.0,0.6904761989911398,0.6910301526387532,0.6904761989911398,0.6904761989911398,0.7743589679400126,0.7400366306304932
39,0.44723209738731384,0.3675746659437815,76.2,11.8,76.2,11.8,0.0,0.8659090995788574,0.4062282661596934,0.8659090995788574,0.8659090995788574,0.9389311631520589,0.92223193248113,0.6593365470568339,0.7183870454629262,19.466666666666665,8.533333333333333,19.466666666666665,8.533333333333333,0.0,0.6952381014823914,0.6872256875038147,0.6952381014823914,0.6952381014823914,0.7716239134470622,0.7396325389544169
40,0.44053493936856586,0.3630090812842051,76.4,11.6,76.4,11.6,0.0,0.8681818246841431,0.39714993635813395,0.8681818246841431,0.8681818246841431,0.9399684349695842,0.9245923757553101,0.6620997707049052,0.7309221804141999,19.8,8.2,19.8,8.2,0.0,0.7071428656578064,0.6847352147102356,0.7071428656578064,0.7071428656578064,0.7694017092386881,0.7376155893007914
41,0.4345457017421722,0.35908620854218803,76.33333333333333,11.666666666666666,76.33333333333333,11.666666666666666,0.0,0.8674242456754049,0.3890376170476278,0.8674242456754049,0.8674242456754049,0.9401777784029642,0.9259306271870931,0.6649731993675232,0.7434123078982036,19.666666666666668,8.333333333333334,19.666666666666668,8.333333333333334,0.0,0.7023809591929118,0.6835873007774353,0.7023809591929118,0.7023809591929118,0.7673504233360291,0.7378677368164063
42,0.4286487480004629,0.3548994114001592,76.73333333333333,11.266666666666667,76.73333333333333,11.266666666666667,0.0,0.8719697038332621,0.38117906053860984,0.8719697038332621,0.8719697038332621,0.9428429325421651,0.9280255436897278,0.6684770981470743,0.7570403814315796,19.666666666666668,8.333333333333334,19.666666666666668,8.333333333333334,0.0,0.7023809591929118,0.6831144571304322,0.7023809591929118,0.7023809591929118,0.7663247744242351,0.7379808068275452
43,0.42254486282666526,0.35032702386379244,76.93333333333334,11.066666666666666,76.93333333333334,11.066666666666666,0.0,0.8742424289385478,0.373379181822141,0.8742424289385478,0.8742424289385478,0.9425662795702616,0.9281066298484802,0.6727824886639913,0.7723089893658955,19.4,8.6,19.4,8.6,0.0,0.6928571462631226,0.6820749521255494,0.6928571462631226,0.6928571462631226,0.7618803342183431,0.7311430454254151
44,0.4167912840843201,0.3463039795557658,77.0,11.0,77.0,11.0,0.0,0.8750000079472859,0.3660870383183161,0.8750000079472859,0.8750000079472859,0.9438475131988525,0.9301627397537231,0.6764707207679749,0.785919729868571,19.466666666666665,8.533333333333333,19.466666666666665,8.533333333333333,0.0,0.6952380975087483,0.6806861678759257,0.6952380975087483,0.6952380975087483,0.7613675038019816,0.7298442800839742
45,0.4114061693350474,0.3430722415447235,76.93333333333334,11.066666666666666,76.93333333333334,11.066666666666666,0.0,0.8742424289385478,0.35925771792729694,0.8742424289385478,0.8742424289385478,0.9446951389312744,0.9319188396135966,0.6792987028757731,0.7977919816970825,19.666666666666668,8.333333333333334,19.666666666666668,8.333333333333334,0.0,0.7023809552192688,0.6758375644683838,0.7023809552192688,0.7023809552192688,0.7618803302447001,0.7264704744021098
46,0.40599006215731304,0.3394160747528076,77.2,10.8,77.2,10.8,0.0,0.8772727290789286,0.35224853456020355,0.8772727290789286,0.8772727290789286,0.9450241247812907,0.9330866217613221,0.6800444761912028,0.8045808672904968,19.666666666666668,8.333333333333334,19.666666666666668,8.333333333333334,0.0,0.7023809552192688,0.6692803422609965,0.7023809552192688,0.7023809552192688,0.7611965616544087,0.7225676735242208
47,0.40092746416727704,0.3361007352670034,77.53333333333333,10.466666666666667,77.53333333333333,10.466666666666667,0.0,0.8810606042544047,0.34551850060621897,0.8810606042544047,0.8810606042544047,0.9467558026313782,0.9352861642837524,0.6815787792205811,0.8137680649757385,19.933333333333334,8.066666666666666,19.933333333333334,8.066666666666666,0.0,0.7119047602017721,0.6622419993082682,0.7119047602017721,0.7119047602017721,0.7613674998283386,0.7262384494145712
48,0.39600850542386373,0.33289400935173036,77.53333333333333,10.466666666666667,77.53333333333333,10.466666666666667,0.0,0.8810606042544047,0.33909649948279064,0.8810606042544047,0.8810606042544047,0.9480374972025554,0.9357122619946797,0.6844273606936137,0.8259198745091756,20.133333333333333,7.866666666666666,20.133333333333333,7.866666666666666,0.0,0.7190476218859355,0.6563745101292928,0.7190476218859355,0.7190476218859355,0.7644444306691488,0.729840632279714
49,0.3917502383391062,0.33102874755859374,77.4,10.6,77.4,10.6,0.0,0.8795454541842143,0.3338230202595393,0.8795454541842143,0.8795454541842143,0.9491440773010253,0.937071708838145,0.6883828401565552,0.8404311815897624,20.133333333333333,7.866666666666666,20.133333333333333,7.866666666666666,0.0,0.7190476218859355,0.6526327689488729,0.7190476218859355,0.7190476218859355,0.763076905409495,0.7307131926218668
50,0.38727254668871564,0.3284010708332062,77.6,10.4,77.6,10.4,0.0,0.8818181792894999,0.32831491231918336,0.8818181792894999,0.8818181792894999,0.9503211339314779,0.9383447726567586,0.6937862118085225,0.8562313199043274,20.133333333333333,7.866666666666666,20.133333333333333,7.866666666666666,0.0,0.7190476218859355,0.6513510465621948,0.7190476218859355,0.7190476218859355,0.7610256314277649,0.728819994131724
51,0.38285418748855593,0.3249069660902023,77.66666666666667,10.333333333333334,77.66666666666667,10.333333333333334,0.0,0.8825757582982381,0.3228420337041219,0.8825757582982381,0.8825757582982381,0.9523122191429139,0.9408610820770263,0.6994224945704143,0.8719171206156413,20.066666666666666,7.933333333333334,20.066666666666666,7.933333333333334,0.0,0.7166666706403096,0.6510797222455342,0.7166666706403096,0.7166666706403096,0.7591452956199646,0.7270079890886942
52,0.3783334970474243,0.3212950477997462,77.73333333333333,10.266666666666667,77.73333333333333,10.266666666666667,0.0,0.8833333333333333,0.3176296462615331,0.8833333333333333,0.8833333333333333,0.9531248966852824,0.941982094446818,0.7045128226280213,0.8863792538642883,19.866666666666667,8.133333333333333,19.866666666666667,8.133333333333333,0.0,0.7095238089561462,0.6517705877621969,0.7095238089561462,0.7095238089561462,0.7579487045605977,0.722037919362386
53,0.37417075435320535,0.31779067317644755,77.86666666666666,10.133333333333333,77.86666666666666,10.133333333333333,0.0,0.8848484834035237,0.312432461977005,0.8848484834035237,0.8848484834035237,0.9537312110265096,0.9429338534673055,0.7102260152498882,0.9021339138348897,19.733333333333334,8.266666666666667,19.733333333333334,8.266666666666667,0.0,0.7047619064648946,0.6543022910753886,0.7047619064648946,0.7047619064648946,0.7576068282127381,0.7187574744224549
54,0.37010698119799296,0.31365522046883904,78.0,10.0,78.0,10.0,0.0,0.8863636334737142,0.3082525004943212,0.8863636334737142,0.8863636334737142,0.9553914388020833,0.944495705763499,0.7154556671778362,0.915605382124583,19.8,8.2,19.8,8.2,0.0,0.7071428616841634,0.65858154296875,0.7071428616841634,0.7071428616841634,0.7615384419759115,0.7225094517072042
55,0.3662440240383148,0.3088565240303675,78.26666666666667,9.733333333333333,78.26666666666667,9.733333333333333,0.0,0.889393933614095,0.3044429401556651,0.889393933614095,0.889393933614095,0.956447450319926,0.945787803332011,0.7196879466374715,0.9266393144925436,19.6,8.4,19.6,8.4,0.0,0.700000007947286,0.6611127495765686,0.700000007947286,0.700000007947286,0.7617093960444132,0.7206224640210469
56,0.362162987391154,0.30377826392650603,78.4,9.6,78.4,9.6,0.0,0.8909090876579284,0.3002029339472453,0.8909090876579284,0.8909090876579284,0.9568801561991374,0.9484166065851848,0.7253576278686523,0.9413364092508952,19.533333333333335,8.466666666666667,19.533333333333335,8.466666666666667,0.0,0.6976190527280172,0.6612200240294138,0.6976190527280172,0.6976190527280172,0.7606837511062622,0.7180315852165222
57,0.3585917532444,0.30008689959843954,78.26666666666667,9.733333333333333,78.26666666666667,9.733333333333333,0.0003787878900766373,0.889393933614095,0.2965954740842183,0.889393933614095,0.889393933614095,0.9584205071131389,0.951771867275238,0.7303495486577352,0.9541022141774496,19.666666666666668,8.333333333333334,19.666666666666668,8.333333333333334,0.0,0.7023809591929118,0.6588747342427571,0.7023809591929118,0.7023809591929118,0.761025623480479,0.7187804261843364
58,0.35420174996058146,0.2940371920665105,78.6,9.4,78.6,9.4,0.0003787878900766373,0.8931818127632141,0.292357791463534,0.8931818127632141,0.8931818127632141,0.959961223602295,0.9547329743703207,0.7341339548428854,0.9640151381492614,19.533333333333335,8.466666666666667,19.533333333333335,8.466666666666667,0.0,0.6976190567016601,0.6561565319697062,0.6976190567016601,0.6976190567016601,0.7611965696016948,0.7220171014467875
59,0.35019450386365253,0.28890633781750996,78.8,9.2,78.8,9.2,0.0003787878900766373,0.8954545418421428,0.2887008935213089,0.8954545418421428,0.8954545418421428,0.9601876258850097,0.9564658164978027,0.7389735102653503,0.9774822513262431,19.8,8.2,19.8,8.2,0.0,0.7071428656578064,0.6533800264199575,0.7071428656578064,0.7071428656578064,0.759829052289327,0.718694011370341
60,0.3463006317615509,0.2848749667406082,78.8,9.2,78.8,9.2,0.0011363636702299118,0.8954545418421428,0.28429727454980214,0.8954545418421428,0.8954545418421428,0.9615040381749471,0.9570149143536886,0.7442326347033182,0.9928474148114522,19.866666666666667,8.133333333333333,19.866666666666667,8.133333333333333,0.0,0.7095238208770752,0.651285570859909,0.7095238208770752,0.7095238208770752,0.757606840133667,0.7180338541666667
61,0.34272302786509196,0.2817605435848236,78.73333333333333,9.266666666666667,78.73333333333333,9.266666666666667,0.0011363636702299118,0.8946969707806905,0.28043314516544343,0.8946969707806905,0.8946969707806905,0.9623528401056926,0.9570452888806661,0.7510045886039733,1.0118773619333903,19.866666666666667,8.133333333333333,19.866666666666667,8.133333333333333,0.0,0.7095238129297893,0.6493351916472118,0.7095238129297893,0.7095238129297893,0.7577777862548828,0.7181512912114462
62,0.3388551652431488,0.2786387026309967,78.86666666666666,9.133333333333333,78.86666666666666,9.133333333333333,0.0011363636702299118,0.896212120850881,0.2761524379253387,0.896212120850881,0.896212120850881,0.9626988450686137,0.9577845851580302,0.7601163625717163,1.0351399580637615,19.866666666666667,8.133333333333333,19.866666666666667,8.133333333333333,0.0,0.7095238129297893,0.6494830250740051,0.7095238129297893,0.7095238129297893,0.7535042683283488,0.7130997101465861
63,0.33495902717113496,0.27476794918378195,79.0,9.0,79.0,9.0,0.0011363636702299118,0.8977272748947144,0.2721831828355789,0.8977272748947144,0.8977272748947144,0.9640660166740418,0.9594391624132792,0.7701563159624736,1.0600260416666667,20.133333333333333,7.866666666666666,20.133333333333333,7.866666666666666,0.0,0.7190476179122924,0.6503828942775727,0.7190476179122924,0.7190476179122924,0.7507692337036133,0.7118520180384318
64,0.33172693848609924,0.27171109020709994,79.0,9.0,79.0,9.0,0.0011363636702299118,0.8977272709210714,0.2693044006824493,0.8977272709210714,0.8977272709210714,0.9645162741343181,0.9604612469673157,0.777420703570048,1.0780077854792276,20.2,7.8,20.2,7.8,0.0,0.7214285691579183,0.6485777080059052,0.7214285691579183,0.7214285691579183,0.751111114025116,0.7109148184458415
65,0.3280644953250885,0.26713821391264597,78.93333333333334,9.066666666666666,78.93333333333334,9.066666666666666,0.0011363636702299118,0.8969696958859762,0.2652967095375061,0.8969696958859762,0.8969696958859762,0.9660056193669637,0.9621526797612509,0.7818639198939006,1.0886075854301454,20.2,7.8,20.2,7.8,0.0,0.7214285691579183,0.6460389614105224,0.7214285691579183,0.7214285691579183,0.7482051253318787,0.7115240812301635
66,0.3245638956626256,0.26223345200220743,79.0,9.0,79.0,9.0,0.0026515151063601174,0.8977272709210714,0.261616051197052,0.8977272709210714,0.8977272709210714,0.9670090436935425,0.9633795181910197,0.7864916801452637,1.10075390736262,20.066666666666666,7.933333333333334,20.066666666666666,7.933333333333334,0.0,0.7166666626930237,0.6457273026307424,0.7166666626930237,0.7166666626930237,0.7480341831843058,0.7118083993593852
67,0.3219395647446314,0.25884539683659874,79.06666666666666,8.933333333333334,79.06666666666666,8.933333333333334,0.0026515151063601174,0.8984848499298096,0.2590448478857676,0.8984848499298096,0.8984848499298096,0.9679779807726542,0.9652161916097005,0.7927220185597738,1.116448171933492,20.0,8.0,20.0,8.0,0.0,0.7142857074737549,0.6474544902642568,0.7142857074737549,0.7142857074737549,0.7468376119931539,0.7107194542884827
68,0.31907107631365456,0.25511013468106586,79.06666666666666,8.933333333333334,79.06666666666666,8.933333333333334,0.0030303031206130983,0.8984848459561666,0.25633639097213745,0.8984848459561666,0.8984848459561666,0.9685147921244304,0.9657113631566365,0.7989855368932088,1.1328561345736186,20.0,8.0,20.0,8.0,0.0,0.7142857114473978,0.6511108636856079,0.7142857114473978,0.7142857114473978,0.7451282024383545,0.7062877297401429
69,0.31561188797156015,0.2518576751152674,79.33333333333333,8.666666666666666,79.33333333333333,8.666666666666666,0.0030303031206130983,0.9015151460965475,0.2529853810866674,0.9015151460965475,0.9015151460965475,0.9688096086184184,0.9665554801623026,0.8047301848729451,1.148699168364207,19.866666666666667,8.133333333333333,19.866666666666667,8.133333333333333,0.0,0.7095238089561462,0.65147079428037,0.7095238089561462,0.7095238089561462,0.7475213766098022,0.7048901716868082
70,0.3121361017227173,0.24940706094106038,79.2,8.8,79.2,8.8,0.0037878789007663727,0.899999996026357,0.2503267010052999,0.899999996026357,0.899999996026357,0.9689826289812724,0.9668663700421651,0.8118317763010661,1.167731523513794,19.6,8.4,19.6,8.4,0.0,0.7,0.649715679883957,0.7,0.7,0.7500854730606079,0.7048345804214478
71,0.30942115088303884,0.24875599145889282,79.06666666666666,8.933333333333334,79.06666666666666,8.933333333333334,0.0037878789007663727,0.8984848459561666,0.24825831949710847,0.8984848459561666,0.8984848459561666,0.9693970402081807,0.9673183123270671,0.818299674987793,1.1855265498161316,19.8,8.2,19.8,8.2,0.0,0.7071428577105204,0.6439440131187439,0.7071428577105204,0.7071428577105204,0.7512820561726888,0.7096684416135152
72,0.3064064125219981,0.24672163327534993,79.2,8.8,79.2,8.8,0.0037878789007663727,0.900000003973643,0.24515709280967712,0.900000003973643,0.900000003973643,0.9704537908236186,0.9682212789853414,0.8212154944737752,1.1932565212249755,19.866666666666667,8.133333333333333,19.866666666666667,8.133333333333333,0.0,0.7095238129297893,0.6389981885751088,0.7095238129297893,0.7095238129297893,0.751111098130544,0.7126052339871725
73,0.30365084012349447,0.2429315467675527,79.46666666666667,8.533333333333333,79.46666666666667,8.533333333333333,0.0037878789007663727,0.9030303041140239,0.24234447379906973,0.9030303041140239,0.9030303041140239,0.9709214687347412,0.9689477960268656,0.8238901654879253,1.2003876209259032,20.2,7.8,20.2,7.8,0.0,0.7214285771052042,0.636729355653127,0.7214285771052042,0.7214285771052042,0.7494017004966735,0.7091654221216838
74,0.30070367256800334,0.23867850999037424,79.46666666666667,8.533333333333333,79.46666666666667,8.533333333333333,0.0037878789007663727,0.9030303041140239,0.2398503561814626,0.9030303041140239,0.9030303041140239,0.971889853477478,0.9702876885732015,0.8269787549972534,1.2091971437136333,20.266666666666666,7.733333333333333,20.266666666666666,7.733333333333333,0.0,0.7238095283508301,0.6358777801195781,0.7238095283508301,0.7238095283508301,0.7524786313374837,0.7086121877034505
75,0.2979845235745112,0.23610687057177226,79.53333333333333,8.466666666666667,79.53333333333333,8.466666666666667,0.0034090908865133922,0.9037878791491191,0.2373826652765274,0.9037878791491191,0.9037878791491191,0.9719941695531209,0.9704466263453165,0.8329252362251282,1.2256604512532552,19.733333333333334,8.266666666666667,19.733333333333334,8.266666666666667,0.0,0.7047619064648946,0.6385211785634358,0.7047619064648946,0.7047619064648946,0.7555555542310078,0.7117485245068867
76,0.2953677097956339,0.23447981476783752,79.53333333333333,8.466666666666667,79.53333333333333,8.466666666666667,0.0037878787765900294,0.903787883122762,0.2352710982163747,0.903787883122762,0.903787883122762,0.972029177347819,0.9699046691258748,0.8423710346221924,1.249298087755839,19.4,8.6,19.4,8.6,0.0,0.6928571502367655,0.6417372345924377,0.6928571502367655,0.6928571502367655,0.755384620030721,0.7094284653663635
77,0.29296611150105795,0.23357930183410644,79.66666666666667,8.333333333333334,79.66666666666667,8.333333333333334,0.0037878787765900294,0.9053030371665954,0.23296343783537546,0.9053030371665954,0.9053030371665954,0.9726355075836182,0.9702609578768412,0.8502029339472453,1.26818821032842,19.866666666666667,8.133333333333333,19.866666666666667,8.133333333333333,0.0,0.7095238169034322,0.6412282208601634,0.7095238169034322,0.7095238169034322,0.7528204997380574,0.7045032580693563
78,0.2895193527142207,0.2298581639925639,79.66666666666667,8.333333333333334,79.66666666666667,8.333333333333334,0.004924242570996285,0.9053030371665954,0.23039356271425884,0.9053030371665954,0.9053030371665954,0.973620867729187,0.9724269509315491,0.8585451006889343,1.2884684364000956,19.733333333333334,8.266666666666667,19.733333333333334,8.266666666666667,0.0,0.7047619064648946,0.6405340969562531,0.7047619064648946,0.7047619064648946,0.751111110051473,0.7038662830988566
79,0.2865807046492895,0.22650974690914155,80.0,8.0,80.0,8.0,0.005303030461072921,0.9090909163157145,0.22742250065008798,0.9090909163157145,0.9090909163157145,0.9750225027402242,0.9741555333137513,0.8674057682355245,1.309187126159668,19.866666666666667,8.133333333333333,19.866666666666667,8.133333333333333,0.0,0.7095238129297893,0.643658306201299,0.7095238129297893,0.7095238129297893,0.7514529824256897,0.7042930603027344
80,0.2845339943965276,0.22421429057916006,80.0,8.0,80.0,8.0,0.005681818351149559,0.9090909123420715,0.22546870807806652,0.9090909123420715,0.9090909123420715,0.9749715010325114,0.9739042003949483,0.8744937618573506,1.3250121553738912,19.6,8.4,19.6,8.4,0.0,0.700000003973643,0.6485929787158966,0.700000003973643,0.700000003973643,0.7499145269393921,0.7021773258845011
81,0.28231943647066754,0.22118623157342274,79.86666666666666,8.133333333333333,79.86666666666666,8.133333333333333,0.006060606241226197,0.9075757622718811,0.22342677811781567,0.9075757622718811,0.9075757622718811,0.9750929474830627,0.9740920941034953,0.8777815977732341,1.3326539476712544,19.333333333333332,8.666666666666666,19.333333333333332,8.666666666666666,0.0,0.6904761910438537,0.6480800648530324,0.6904761910438537,0.6904761910438537,0.7505982716878256,0.704296326637268
82,0.27935794095198313,0.21673360069592792,80.2,7.8,80.2,7.8,0.006060606241226197,0.9113636414210001,0.2211341311534246,0.9113636414210001,0.9113636414210001,0.9756993889808655,0.9750923315684,0.8803176403045654,1.3400598049163819,19.666666666666668,8.333333333333334,19.666666666666668,8.333333333333334,0.0,0.7023809591929118,0.6431859155495961,0.7023809591929118,0.7023809591929118,0.747863252957662,0.7037405967712402
83,0.27638963162899016,0.2130075454711914,80.06666666666666,7.933333333333334,80.06666666666666,7.933333333333334,0.006060606241226197,0.9098484953244527,0.21836464603741965,0.9098484953244527,0.9098484953244527,0.9759762366612752,0.975409475962321,0.885203488667806,1.3529009501139322,19.866666666666667,8.133333333333333,19.866666666666667,8.133333333333333,0.0,0.7095238169034322,0.6382712582747142,0.7095238169034322,0.7095238169034322,0.7494017203648885,0.7021032849947612
84,0.2744955132404963,0.21257980863253276,80.2,7.8,80.2,7.8,0.006439394131302833,0.9113636453946431,0.21621814668178557,0.9113636453946431,0.9113636453946431,0.975560704867045,0.9745159347852071,0.8917108257611592,1.3687012434005736,20.0,8.0,20.0,8.0,0.0,0.7142857154210408,0.6372175077597301,0.7142857154210408,0.7142857154210408,0.7485470136006673,0.7027449011802673
85,0.2716915438572566,0.2093272924423218,80.13333333333334,7.866666666666666,80.13333333333334,7.866666666666666,0.007575757801532745,0.9106060703595479,0.21406859457492827,0.9106060703595479,0.9106060703595479,0.9771178563435873,0.9765834331512451,0.8965907454490661,1.3795504728953043,19.866666666666667,8.133333333333333,19.866666666666667,8.133333333333333,0.0,0.7095238089561462,0.6443033119042715,0.7095238089561462,0.7095238089561462,0.7463248014450073,0.7019499699274699
86,0.2697401980559031,0.20708137998978296,80.13333333333334,7.866666666666666,80.13333333333334,7.866666666666666,0.007954545691609383,0.9106060663859049,0.21405682265758513,0.9106060663859049,0.9106060663859049,0.9770480116208394,0.978272545337677,0.9030851046244304,1.3950069745381672,19.533333333333335,8.466666666666667,19.533333333333335,8.466666666666667,0.0,0.6976190487543742,0.6526502907276154,0.6976190487543742,0.6976190487543742,0.7463247974713644,0.7033402919769287
87,0.2668478866418203,0.20319617440303167,79.93333333333334,8.066666666666666,79.93333333333334,8.066666666666666,0.007954545691609383,0.9083333373069763,0.2124088893334071,0.9083333373069763,0.9083333373069763,0.9776192943255106,0.978662661711375,0.9123749613761902,1.417384664217631,19.066666666666666,8.933333333333334,19.066666666666666,8.933333333333334,0.0,0.6809523781140645,0.6576107064882915,0.6809523781140645,0.6809523781140645,0.7427350481351217,0.698769732316335
88,0.26468734244505565,0.2010264272491137,80.13333333333334,7.866666666666666,80.13333333333334,7.866666666666666,0.007954545691609383,0.9106060703595479,0.2104216496149699,0.9106060703595479,0.9106060703595479,0.9780693093935648,0.9791900356610616,0.9220141450564067,1.4401702324549357,19.266666666666666,8.733333333333333,19.266666666666666,8.733333333333333,0.0,0.6880952437718709,0.6550881385803222,0.6880952437718709,0.6880952437718709,0.7432478586832683,0.7011725147565205
89,0.26455660760402677,0.202907732129097,80.2,7.8,80.2,7.8,0.007954545691609383,0.9113636414210001,0.21061983505884807,0.9113636414210001,0.9113636414210001,0.9779997150103251,0.978787112236023,0.9264325420061748,1.4515122413635253,19.333333333333332,8.666666666666666,19.333333333333332,8.666666666666666,0.0,0.6904761910438537,0.6494397819042206,0.6904761910438537,0.6904761910438537,0.7425641099611918,0.7003124316533407
90,0.2624542643626531,0.20113480587800345,80.4,7.6,80.4,7.6,0.007954545691609383,0.9136363704999287,0.20896322031815848,0.9136363704999287,0.9136363704999287,0.9779489556948344,0.9775106112162272,0.9250339349110921,1.4497693141301473,19.8,8.2,19.8,8.2,0.0,0.7071428616841634,0.6428804894288381,0.7071428616841634,0.7071428616841634,0.743418808778127,0.699134083588918
91,0.2586870660384496,0.19550349662701288,80.33333333333333,7.666666666666667,80.33333333333333,7.666666666666667,0.007954545691609383,0.9128787954648335,0.2059468020995458,0.9128787954648335,0.9128787954648335,0.9782950560251872,0.9782859245936076,0.9285674730936686,1.4599376440048217,19.266666666666666,8.733333333333333,19.266666666666666,8.733333333333333,0.0,0.6880952437718709,0.6459831754366557,0.6880952437718709,0.6880952437718709,0.7408547043800354,0.7001851161321004
92,0.2562616984049479,0.1910955826441447,80.53333333333333,7.466666666666667,80.53333333333333,7.466666666666667,0.008712121471762656,0.9151515245437623,0.20458354155222574,0.9151515245437623,0.9151515245437623,0.9787275115648906,0.9792128403981527,0.9390159487724304,1.4849085092544556,19.133333333333333,8.866666666666667,19.133333333333333,8.866666666666667,0.0,0.6833333333333333,0.6549858053525289,0.6833333333333333,0.6833333333333333,0.7403418739636739,0.6979482611020406
93,0.255228853225708,0.1900929778814316,80.53333333333333,7.466666666666667,80.53333333333333,7.466666666666667,0.008712121471762656,0.9151515285174052,0.2044080545504888,0.9151515285174052,0.9151515285174052,0.9798691232999166,0.9804981430371602,0.9522739013036092,1.5140075206756591,19.2,8.8,19.2,8.8,0.0,0.6857142885526021,0.662725587685903,0.6857142885526021,0.6857142885526021,0.7388034105300904,0.6956869602203369
94,0.2536513884862264,0.18798313637574512,80.6,7.4,80.6,7.4,0.00984848514199257,0.9159091035525004,0.2037084589401881,0.9159091035525004,0.9159091035525004,0.9799214522043864,0.9805330594380697,0.962511400381724,1.5335763057072958,19.066666666666666,8.933333333333334,19.066666666666666,8.933333333333334,0.0,0.6809523820877075,0.6637043595314026,0.6809523820877075,0.6809523820877075,0.7418803334236145,0.698078982035319
95,0.2510110855102539,0.18432333419720331,80.6,7.4,80.6,7.4,0.00984848514199257,0.9159090995788575,0.20117564598719279,0.9159090995788575,0.9159090995788575,0.9795581857363383,0.9805273214975992,0.9673111081123352,1.5415472825368246,19.466666666666665,8.533333333333333,19.466666666666665,8.533333333333333,0.0,0.6952381014823914,0.6577360232671102,0.6952381014823914,0.6952381014823914,0.7435897429784138,0.701245379447937
96,0.24862058560053507,0.18219272742668788,80.86666666666666,7.133333333333334,80.86666666666666,7.133333333333334,0.010606060922145843,0.9189394036928813,0.19848008553187052,0.9189394036928813,0.9189394036928813,0.9800594727198283,0.9809787154197693,0.9693027138710022,1.5466591755549113,19.4,8.6,19.4,8.6,0.0,0.6928571502367655,0.6501417477925618,0.6928571502367655,0.6928571502367655,0.7447863260904948,0.7029217759768168
97,0.24703518847624462,0.18214576641718547,81.0,7.0,81.0,7.0,0.011742424592375756,0.9204545537630717,0.19656377534071603,0.9204545537630717,0.9204545537630717,0.9803364992141723,0.9811176816622417,0.9698197841644287,1.5499726136525471,19.4,8.6,19.4,8.6,0.0,0.6928571502367655,0.6456742405891418,0.6928571502367655,0.6928571502367655,0.74564102490743,0.7027619004249572
98,0.24526910086472828,0.18156303962071738,81.0,7.0,81.0,7.0,0.011742424592375756,0.9204545537630717,0.1946142226457596,0.9204545537630717,0.9204545537630717,0.980786677201589,0.9812874078750611,0.9683237592379252,1.5486074527104696,19.6,8.4,19.6,8.4,0.0,0.700000003973643,0.6407486995061239,0.700000003973643,0.700000003973643,0.7449572642644247,0.7032596786816915
99,0.24297405481338502,0.17929861893256505,81.0,7.0,81.0,7.0,0.011742424592375756,0.9204545537630717,0.1926196446021398,0.9204545537630717,0.9204545537630717,0.9815134565035503,0.9825938701629638,0.9687731504440308,1.552888576189677,19.666666666666668,8.333333333333334,19.666666666666668,8.333333333333334,0.0,0.7023809552192688,0.6359220266342163,0.7023809552192688,0.7023809552192688,0.7463247855504354,0.704603374004364
100,0.24239488343397778,0.18082377562920252,81.13333333333334,6.866666666666666,81.13333333333334,6.866666666666666,0.01250000037252903,0.9219697117805481,0.19262080490589142,0.9219697117805481,0.9219697117805481,0.9812355995178222,0.9822342276573182,0.9752420107523601,1.5692164103190105,19.6,8.4,19.6,8.4,0.0011904762436946233,0.7,0.6387843608856201,0.7,0.7,0.7449572602907817,0.7006622950236002
101,0.2403025895357132,0.1787495637933413,81.2,6.8,81.2,6.8,0.012878788262605667,0.9227272868156433,0.1913324326276779,0.9227272868156433,0.9227272868156433,0.9819626410802206,0.9830430666605632,0.9864461223284403,1.5922328631083171,19.6,8.4,19.6,8.4,0.0011904762436946233,0.7,0.6446222444375356,0.7,0.7,0.7451282024383545,0.7018211563428243
102,0.23747628728548686,0.17458136479059855,81.2,6.8,81.2,6.8,0.01250000037252903,0.9227272828420003,0.18918147136767705,0.9227272828420003,0.9227272828420003,0.9825339118639628,0.983633013566335,0.998154362042745,1.6152314106623331,19.466666666666665,8.533333333333333,19.466666666666665,8.533333333333333,0.0011904762436946233,0.6952380895614624,0.6487342059612274,0.6952380895614624,0.6952380895614624,0.7425640900929769,0.699194860458374
103,0.23681240975856782,0.17442370255788167,80.8,7.2,80.8,7.2,0.012878788262605667,0.9181818246841431,0.18949351857105892,0.9181818246841431,0.9181818246841431,0.9825170596440633,0.9835553169250488,1.007264749209086,1.6335398197174071,19.266666666666666,8.733333333333333,19.266666666666666,8.733333333333333,0.0011904762436946233,0.688095239798228,0.6489089449246724,0.688095239798228,0.688095239798228,0.7399999936421712,0.6974555095036824
104,0.23520251909891765,0.17289532274007796,81.0,7.0,81.0,7.0,0.01401515193283558,0.9204545497894288,0.1885805035630862,0.9204545497894288,0.9204545497894288,0.9826896548271179,0.983627724647522,1.0124517679214478,1.6464985529581706,19.733333333333334,8.266666666666667,19.733333333333334,8.266666666666667,0.0011904762436946233,0.7047619024912516,0.645818422238032,0.7047619024912516,0.7047619024912516,0.7420512715975444,0.7021851738293966
105,0.23359011709690095,0.17184082170327505,81.0,7.0,81.0,7.0,0.014772727712988853,0.9204545577367147,0.1881568267941475,0.9204545577367147,0.9204545577367147,0.9828628897666931,0.9836644649505615,1.0162816445032756,1.6581715583801269,19.866666666666667,8.133333333333333,19.866666666666667,8.133333333333333,0.0011904762436946233,0.7095238089561462,0.6409161269664765,0.7095238089561462,0.7095238089561462,0.7405128240585327,0.7001020669937134
106,0.23189899325370789,0.17125138839085896,80.93333333333334,7.066666666666666,80.93333333333334,7.066666666666666,0.015530303493142128,0.9196969827016195,0.18642050176858901,0.9196969827016195,0.9196969827016195,0.9831918756167094,0.9836192965507508,1.0194178104400635,1.6666098992029825,19.8,8.2,19.8,8.2,0.0011904762436946233,0.7071428537368775,0.6404345015684764,0.7071428537368775,0.7071428537368775,0.7394871870676677,0.6993565440177918
107,0.23142116963863374,0.17313915739456812,80.8,7.2,80.8,7.2,0.015909091383218766,0.918181836605072,0.1872362236181895,0.918181836605072,0.918181836605072,0.9825859308242798,0.9832725008328755,1.021232787768046,1.669885476430257,19.466666666666665,8.533333333333333,19.466666666666665,8.533333333333333,0.0011904762436946233,0.6952380935351054,0.6459692319234213,0.6952380935351054,0.6952380935351054,0.7352136850357056,0.6937546372413635
108,0.22915918628374735,0.17119227002064388,81.13333333333334,6.866666666666666,81.13333333333334,6.866666666666666,0.017424242943525313,0.9219697117805481,0.18283051550388335,0.9219697117805481,0.9219697117805481,0.9826037406921386,0.9832185109456381,1.0298217455546061,1.6863836844762166,19.266666666666666,8.733333333333333,19.266666666666666,8.733333333333333,0.0011904762436946233,0.688095239798228,0.6548558394114177,0.688095239798228,0.688095239798228,0.7309401671091715,0.6911401549975077
109,0.22787609299023945,0.17034313827753067,81.33333333333333,6.666666666666667,81.33333333333333,6.666666666666667,0.018181818723678588,0.9242424368858337,0.18044771403074264,0.9242424368858337,0.9242424368858337,0.9834166606267293,0.9845280965169271,1.0409767230351765,1.710254923502604,19.133333333333333,8.866666666666667,19.133333333333333,8.866666666666667,0.0023809524873892466,0.6833333373069763,0.6613064209620158,0.6833333373069763,0.6833333373069763,0.7305982907613119,0.6904045979181925
110,0.22705062329769135,0.16967966953913372,81.26666666666667,6.733333333333333,81.26666666666667,6.733333333333333,0.02007575792570909,0.9234848578770956,0.17993187606334687,0.9234848578770956,0.9234848578770956,0.9833297967910767,0.9844881176948548,1.0480139136314393,1.725446883837382,19.133333333333333,8.866666666666667,19.133333333333333,8.866666666666667,0.0023809524873892466,0.6833333333333333,0.6573611299196879,0.6833333333333333,0.6833333333333333,0.7309401710828145,0.6925018390019735
111,0.2255250444014867,0.1672996943195661,81.2,6.8,81.2,6.8,0.020454545815785725,0.9227272828420003,0.18054634829362234,0.9227272828420003,0.9227272828420003,0.9836414853731791,0.9846303502718607,1.0526014685630798,1.736801815032959,19.2,8.8,19.2,8.8,0.0011904762436946233,0.6857142845789591,0.6479192495346069,0.6857142845789591,0.6857142845789591,0.7319658160209656,0.6936928669611613
112,0.22420284549395245,0.165464482208093,81.2,6.8,81.2,6.8,0.01931818202137947,0.9227272788683574,0.1817043498158455,0.9227272788683574,0.9227272788683574,0.9836590846379598,0.9844456593195597,1.0563090721766153,1.7473030010859172,19.8,8.2,19.8,8.2,0.0011904762436946233,0.7071428577105204,0.6401734312375387,0.7071428577105204,0.7071428577105204,0.7360683679580688,0.6992761890093485
113,0.22279315491517385,0.16399618685245515,81.2,6.8,81.2,6.8,0.018939394255479178,0.9227272828420003,0.18131113251050313,0.9227272828420003,0.9227272828420003,0.98381454149882,0.9843490282694499,1.0601703604062398,1.7574612061182657,19.8,8.2,19.8,8.2,0.0011904762436946233,0.7071428577105204,0.6364089012145996,0.7071428577105204,0.7071428577105204,0.7374359011650086,0.6997550368309021
114,0.22112707694371542,0.1621989329655965,81.13333333333334,6.866666666666666,81.13333333333334,6.866666666666666,0.018939394131302835,0.9219697078069051,0.18027062912782033,0.9219697078069051,0.9219697078069051,0.9834862589836121,0.9835845867792765,1.0644161065419515,1.7655918598175049,19.733333333333334,8.266666666666667,19.733333333333334,8.266666666666667,0.0011904762436946233,0.7047619064648946,0.6391753633817037,0.7047619064648946,0.7047619064648946,0.7319658160209656,0.6951975266138712
115,0.2195864329735438,0.16023827642202376,81.4,6.6,81.4,6.6,0.018939394503831863,0.925000011920929,0.17918223688999813,0.925000011920929,0.925000011920929,0.9837618350982666,0.9841125011444092,1.071885633468628,1.7815929889678954,19.6,8.4,19.6,8.4,0.0011904762436946233,0.7,0.6467617313067119,0.7,0.7,0.7302564144134521,0.6917994221051534
116,0.21851437389850617,0.16007598787546157,81.26666666666667,6.733333333333333,81.26666666666667,6.733333333333333,0.01969697028398514,0.9234848578770956,0.1776578515768051,0.9234848578770956,0.9234848578770956,0.9834686398506165,0.9842221895853679,1.0782098213831584,1.7968661149342855,19.6,8.4,19.6,8.4,0.0023809524873892466,0.7,0.6524860938390096,0.7,0.7,0.728205140431722,0.6887485265731812
117,0.21750415960947672,0.16202348122994106,81.26666666666667,6.733333333333333,81.26666666666667,6.733333333333333,0.021212121844291686,0.9234848578770956,0.175216469168663,0.9234848578770956,0.9234848578770956,0.9836245020230611,0.985014530022939,1.0827204585075378,1.8072359482447307,19.533333333333335,8.466666666666667,19.533333333333335,8.466666666666667,0.0023809524873892466,0.6976190487543742,0.6498852292696635,0.6976190487543742,0.6976190487543742,0.7307692408561707,0.6933385610580445
118,0.2155674636363983,0.16211425065994262,81.26666666666667,6.733333333333333,81.26666666666667,6.733333333333333,0.022727273032069208,0.9234848578770956,0.17297643621762593,0.9234848578770956,0.9234848578770956,0.9840743859608968,0.9853260119756063,1.0828123052914937,1.8066814104715982,19.533333333333335,8.466666666666667,19.533333333333335,8.466666666666667,0.0023809524873892466,0.6976190487543742,0.6415447990099589,0.6976190487543742,0.6976190487543742,0.7297435998916626,0.6943925221761068
119,0.21448743144671123,0.16269197662671406,81.13333333333334,6.866666666666666,81.13333333333334,6.866666666666666,0.02500000037252903,0.9219697117805481,0.1735865940650304,0.9219697117805481,0.9219697117805481,0.9835378170013428,0.9851464549700419,1.0836383382479349,1.8083789030710855,19.333333333333332,8.666666666666666,19.333333333333332,8.666666666666666,0.0023809524873892466,0.6904761950174968,0.6364694674809773,0.6904761950174968,0.6904761950174968,0.7316239436467489,0.6935912052790324
