SCC_002 SCC_002 0
SCC_007 SCC_007 0
SCC_011 SCC_011 0
SCC_016 SCC_016 0
SCC_021 SCC_021 0
SCC_025 SCC_025 0
SCC_043 SCC_043 0
SCC_044 SCC_044 0
SCC_045 SCC_045 0
SCC_046 SCC_046 0
SCC_049 SCC_049 0
SCC_050 SCC_050 0
SCC_081 SCC_081 0
SCC_088 SCC_088 0
SCC_089 SCC_089 0
SCC_2004 SCC_2004 0
SCC_2005 SCC_2005 0
SCC_2006 SCC_2006 0
SCC_2007 SCC_2007 0
SCC_2008 SCC_2008 0
SCC_2009 SCC_2009 0
SCC_2010 SCC_2010 0
SCC_2011 SCC_2011 0
SCC_2012 SCC_2012 0
SCC_2013 SCC_2013 0
SCC_2014 SCC_2014 0
SCC_2015 SCC_2015 0
SCC_2016 SCC_2016 0
SCC_2017 SCC_2017 0
SCC_2018 SCC_2018 0
SCC_2020 SCC_2020 0
SCC_2021 SCC_2021 0
SCC_2022 SCC_2022 0
SCC_2023 SCC_2023 0
SCC_2024 SCC_2024 0
SCC_2025 SCC_2025 0
SCC_2026 SCC_2026 0
SCC_2027 SCC_2027 0
SCC_2029 SCC_2029 0
SCC_2030 SCC_2030 0
SCC_2034 SCC_2034 0
SCC_2040 SCC_2040 0
SCP_019 SCP_019 1
SCP_033 SCP_033 1
SCP_036 SCP_036 1
SCP_047 SCP_047 1
SCP_054 SCP_054 1
SCP_056 SCP_056 1
SCP_059 SCP_059 1
SCP_060 SCP_060 1
SCP_061 SCP_061 1
SCP_063 SCP_063 1
SCP_064 SCP_064 1
SCP_065 SCP_065 1
SCP_077 SCP_077 1
SCP_079 SCP_079 1
SCP_084 SCP_084 1
SCP_096 SCP_096 1
SCP_097 SCP_097 1
SCP_098 SCP_098 1
SCP_102 SCP_102 1
SCP_103 SCP_103 1
SCP_105 SCP_105 1
SCP_109 SCP_109 1
SCP_110 SCP_110 1
SCP_115 SCP_115 1
SCP_116 SCP_116 1
SCP_117 SCP_117 1
SCP_118 SCP_118 1
SCP_120 SCP_120 1
SCP_124 SCP_124 1
SCP_130 SCP_130 1
SCP_131 SCP_131 1
SCP_132 SCP_132 1
SCP_133 SCP_133 1
SCP_143 SCP_143 1
SCP_2004 SCP_2004 1
SCP_2005 SCP_2005 1
SCP_2006 SCP_2006 1
SCP_2007 SCP_2007 1
SCP_2009 SCP_2009 1
SCP_2010 SCP_2010 1
SCP_2011 SCP_2011 1
SCP_2013 SCP_2013 1
SCP_2015 SCP_2015 1
SCP_2016 SCP_2016 1
SCP_2017 SCP_2017 1
SCP_2018 SCP_2018 1
SCP_2019 SCP_2019 1
SCP_2023 SCP_2023 1
SCP_2024 SCP_2024 1
SCP_928 SCP_928 1
