,loss,kld,tp,fp,tn,fn,accuracy,categorical_accuracy,categorical_hinge,precision,recall,auc,prc,val_loss,val_kld,val_tp,val_fp,val_tn,val_fn,val_accuracy,val_categorical_accuracy,val_categorical_hinge,val_precision,val_recall,val_auc,val_prc
0,0.7563499172528585,0.7982429424921672,64.26666666666667,49.86666666666667,64.26666666666667,49.86666666666667,0.0,0.563897595802943,0.9257457574208577,0.563897595802943,0.563897595802943,0.5862773776054382,0.5942895670731863,0.7335264285405477,0.7627984126408894,14.866666666666667,13.133333333333333,14.866666666666667,13.133333333333333,0.0,0.5309523820877076,0.9748250444730123,0.5309523820877076,0.5309523820877076,0.5839316288630167,0.5758163730303446
1,0.7277113278706868,0.7503224611282349,47.4,40.6,47.4,40.6,0.0,0.5386363665262858,0.9629185239473979,0.5386363665262858,0.5386363665262858,0.5608877400557201,0.5688762287298839,0.7134187618891398,0.7272479891777038,15.733333333333333,12.266666666666667,15.733333333333333,12.266666666666667,0.0,0.561904768149058,0.9495392839113871,0.561904768149058,0.561904768149058,0.6186324834823609,0.603305995464325
2,0.7023909529050191,0.7075511336326599,50.666666666666664,37.333333333333336,50.666666666666664,37.333333333333336,0.0,0.5757575750350952,0.927583126227061,0.5757575750350952,0.5757575750350952,0.6033431708812713,0.6086688061555227,0.6950075626373291,0.6951431194941203,16.466666666666665,11.533333333333333,16.466666666666665,11.533333333333333,0.0,0.5880952378114065,0.9242968320846557,0.5880952378114065,0.5880952378114065,0.6444444596767426,0.628003054857254
3,0.6791231671969096,0.6697546382745106,52.2,35.8,52.2,35.8,0.0,0.5931818207105001,0.8927394032478333,0.5931818207105001,0.5931818207105001,0.640381497144699,0.6407099068164825,0.6784455974896749,0.6666038393974304,17.0,11.0,17.0,11.0,0.0,0.6071428577105205,0.900154189268748,0.6071428577105205,0.6071428577105205,0.6659829258918762,0.6525726417700449
4,0.6577702283859252,0.6362113356590271,54.86666666666667,33.13333333333333,54.86666666666667,33.13333333333333,0.0,0.6234848539034525,0.8586784919102987,0.6234848539034525,0.6234848539034525,0.6803485492865244,0.6770230054855346,0.6634628534317016,0.6412724415461223,17.533333333333335,10.466666666666667,17.533333333333335,10.466666666666667,0.0,0.6261904835700989,0.8771072705586751,0.6261904835700989,0.6261904835700989,0.6964102804660797,0.6828571756680807
5,0.6382378101348877,0.6069883048534394,57.13333333333333,30.866666666666667,57.13333333333333,30.866666666666667,0.0,0.6492424229780833,0.8259964187939962,0.6492424229780833,0.6492424229780833,0.7213553508122762,0.7118378857771556,0.6498082796732585,0.6186877648035686,18.466666666666665,9.533333333333333,18.466666666666665,9.533333333333333,0.0,0.6595238129297892,0.8550932129224141,0.6595238129297892,0.6595238129297892,0.7234188159306844,0.7111926595369975
6,0.6207914431889852,0.5824173867702485,59.93333333333333,28.066666666666666,59.93333333333333,28.066666666666666,0.0,0.6810606042544047,0.7955393513043721,0.6810606042544047,0.6810606042544047,0.7489649534225464,0.7393823862075806,0.637247093518575,0.5986027558644612,19.133333333333333,8.866666666666667,19.133333333333333,8.866666666666667,0.0,0.6833333373069763,0.8340718428293864,0.6833333373069763,0.6833333373069763,0.750940187772115,0.7400045911471049
7,0.6043606599171957,0.5607170959313711,61.06666666666667,26.933333333333334,61.06666666666667,26.933333333333334,0.0,0.6939393897851308,0.7659846146901449,0.6939393897851308,0.6939393897851308,0.7759996294975281,0.7639052669207255,0.625697660446167,0.5808845818042755,20.0,8.0,20.0,8.0,0.0,0.7142857114473978,0.8142239650090536,0.7142857114473978,0.7142857114473978,0.7762393236160279,0.7647090752919515
8,0.5898291250069936,0.5430148303508758,63.266666666666666,24.733333333333334,63.266666666666666,24.733333333333334,0.0,0.7189393997192383,0.7391184012095133,0.7189393997192383,0.7189393997192383,0.7969827214876811,0.7829163114229838,0.615062141418457,0.5651484489440918,20.466666666666665,7.533333333333333,20.466666666666665,7.533333333333333,0.0,0.7309523781140645,0.7956473668416341,0.7309523781140645,0.7309523781140645,0.794529914855957,0.7848915735880534
9,0.5763926049073537,0.5279475212097168,64.46666666666667,23.533333333333335,64.46666666666667,23.533333333333335,0.0,0.7325757622718811,0.7137766361236573,0.7325757622718811,0.7325757622718811,0.8126302560170492,0.7981143355369568,0.6053186893463135,0.551340248187383,20.733333333333334,7.266666666666667,20.733333333333334,7.266666666666667,0.0,0.7404761910438538,0.7785238265991211,0.7404761910438538,0.7404761910438538,0.8085470159848531,0.7991517980893453
10,0.564008363087972,0.5150367816289266,66.06666666666666,21.933333333333334,66.06666666666666,21.933333333333334,0.0,0.7507575829823812,0.6902021090189616,0.7507575829823812,0.7507575829823812,0.825716781616211,0.8101014415423076,0.5963563958803813,0.5392683247725168,20.666666666666668,7.333333333333333,20.666666666666668,7.333333333333333,0.0,0.7380952358245849,0.7626730720202128,0.7380952358245849,0.7380952358245849,0.8186324993769328,0.8122318029403687
11,0.5527096927165985,0.5044494012991587,66.93333333333334,21.066666666666666,66.93333333333334,21.066666666666666,0.0,0.760606066385905,0.6688343425591786,0.760606066385905,0.760606066385905,0.8344728430112203,0.8189020196596781,0.5880622188250224,0.5285739739735921,20.666666666666668,7.333333333333333,20.666666666666668,7.333333333333333,0.0,0.7380952358245849,0.7479655226071675,0.7380952358245849,0.7380952358245849,0.8276923100153605,0.8242358406384785
12,0.5425860742727916,0.4960732698440552,67.73333333333333,20.266666666666666,67.73333333333333,20.266666666666666,0.0,0.7696969747543335,0.649364972114563,0.7696969747543335,0.7696969747543335,0.8421233097712199,0.8256670355796814,0.5804431716601054,0.5190772612889608,21.066666666666666,6.933333333333334,21.066666666666666,6.933333333333334,0.0,0.7523809512456258,0.7344756682713827,0.7523809512456258,0.7523809512456258,0.8328205307324728,0.8317968527475993
13,0.5327523072560628,0.48810948928197223,68.4,19.6,68.4,19.6,0.0,0.7772727290789286,0.6307188034057617,0.7772727290789286,0.7772727290789286,0.8484924475351969,0.8318193197250366,0.5735563437143961,0.510805090268453,21.2,6.8,21.2,6.8,0.0,0.7571428577105205,0.722350291411082,0.7571428577105205,0.7571428577105205,0.8352136929829915,0.83743896484375
14,0.5241864124933878,0.48214769959449766,68.73333333333333,19.266666666666666,68.73333333333333,19.266666666666666,0.0,0.7810606002807617,0.6145239631334941,0.7810606002807617,0.7810606002807617,0.8527827898661295,0.8369206666946412,0.5671453913052876,0.5034759302934011,21.133333333333333,6.866666666666666,21.133333333333333,6.866666666666666,0.0,0.7547619064648946,0.7110755364100139,0.7547619064648946,0.7547619064648946,0.8442735075950623,0.8453929185867309
15,0.5159933129946391,0.47675442894299824,68.8,19.2,68.8,19.2,0.0,0.7818181792894999,0.5991320411364237,0.7818181792894999,0.7818181792894999,0.8573688546816508,0.842992385228475,0.5612141132354737,0.49701560735702516,21.133333333333333,6.866666666666666,21.133333333333333,6.866666666666666,0.0,0.7547619064648946,0.7006866137186686,0.7547619064648946,0.7547619064648946,0.8475213686625163,0.8492358446121215
16,0.5086355805397034,0.47267035841941835,68.93333333333334,19.066666666666666,68.93333333333334,19.066666666666666,0.0,0.7833333293596904,0.5853293458620707,0.7833333293596904,0.7833333293596904,0.8607600251833598,0.8447921315828959,0.5557251214981079,0.49128021200497946,21.133333333333333,6.866666666666666,21.133333333333333,6.866666666666666,0.0,0.7547619144121805,0.691122845808665,0.7547619144121805,0.7547619144121805,0.8494017243385314,0.8538673837979635
17,0.5018767535686492,0.46937784751256306,68.86666666666666,19.133333333333333,68.86666666666666,19.133333333333333,0.0,0.7825757543245951,0.5727536777655283,0.7825757543245951,0.7825757543245951,0.8650333563486735,0.8501587231953939,0.5507108569145203,0.48632404605547586,21.133333333333333,6.866666666666666,21.133333333333333,6.866666666666666,0.0,0.7547619144121805,0.6824695587158203,0.7547619144121805,0.7547619144121805,0.8528205275535583,0.8565837860107421
18,0.49557594656944276,0.46657145619392393,69.2,18.8,69.2,18.8,0.0,0.7863636334737142,0.5610357304414113,0.7863636334737142,0.7863636334737142,0.866106641292572,0.8520221034685771,0.5461830377578736,0.482220991452535,21.066666666666666,6.933333333333334,21.066666666666666,6.933333333333334,0.0,0.7523809552192688,0.6746859153111776,0.7523809552192688,0.7523809552192688,0.8547008872032166,0.858903721968333
19,0.48962781627972923,0.46402002970377604,69.46666666666667,18.533333333333335,69.46666666666667,18.533333333333335,0.0,0.789393941561381,0.5502334674199422,0.789393941561381,0.789393941561381,0.8695152521133422,0.8549744049708049,0.542102062702179,0.47882218956947326,20.866666666666667,7.133333333333334,20.866666666666667,7.133333333333334,0.0,0.7452380935351054,0.6677491863568624,0.7452380935351054,0.7452380935351054,0.8562393347422282,0.8601463913917542
20,0.48405842582384745,0.46168590188026426,70.0,18.0,70.0,18.0,0.0,0.7954545458157857,0.5402339200178782,0.7954545458157857,0.7954545458157857,0.8716615200042724,0.8574166735013325,0.538434096177419,0.4760725955168406,20.866666666666667,7.133333333333334,20.866666666666667,7.133333333333334,0.0,0.7452380935351054,0.6616431077321371,0.7452380935351054,0.7452380935351054,0.8555555740992228,0.8592066208521525
21,0.4790892203648885,0.4600564022858938,70.2,17.8,70.2,17.8,0.0,0.7977272748947144,0.5313115576903026,0.7977272748947144,0.7977272748947144,0.8731314261754354,0.859448520342509,0.53505619764328,0.4736393173535665,20.6,7.4,20.6,7.4,0.0,0.7357142845789592,0.6560695211092631,0.7357142845789592,0.7357142845789592,0.8591453234354655,0.8627450903256734
22,0.47421328028043114,0.45816291570663453,70.53333333333333,17.466666666666665,70.53333333333333,17.466666666666665,0.0,0.8015151540438334,0.5227960010369619,0.8015151540438334,0.8015151540438334,0.8754324356714884,0.8628453294436137,0.5319526751836141,0.4714412748813629,20.666666666666668,7.333333333333333,20.666666666666668,7.333333333333333,0.0,0.738095239798228,0.6510000228881836,0.738095239798228,0.738095239798228,0.8577778021494548,0.8628547350565593
23,0.46979888876279197,0.45666539669036865,70.86666666666666,17.133333333333333,70.86666666666666,17.133333333333333,0.0,0.8053030371665955,0.5149095396200816,0.8053030371665955,0.8053030371665955,0.8767650802930196,0.8638246019681295,0.5290561993916829,0.46947190165519714,20.6,7.4,20.6,7.4,0.0,0.7357142845789592,0.6463281472524007,0.7357142845789592,0.7357142845789592,0.8582906166712443,0.8625617146492004
24,0.46561230619748434,0.45528482596079506,71.4,16.6,71.4,16.6,0.0,0.8113636453946431,0.507533476750056,0.8113636453946431,0.8113636453946431,0.8786176721254985,0.8661275823911031,0.526487386226654,0.4680288871129354,20.666666666666668,7.333333333333333,20.666666666666668,7.333333333333333,0.0,0.7380952358245849,0.6421955664952596,0.7380952358245849,0.7380952358245849,0.8581196665763855,0.8629382212956747
25,0.4615332067012787,0.45354229807853697,71.66666666666667,16.333333333333332,71.66666666666667,16.333333333333332,0.0,0.814393949508667,0.500664887825648,0.814393949508667,0.814393949508667,0.8807806650797526,0.8696523666381836,0.5242612500985463,0.4670592149098714,20.8,7.2,20.8,7.2,0.0,0.7428571462631226,0.6385738452275594,0.7428571462631226,0.7428571462631226,0.8577777902285258,0.8637128194173177
26,0.45773908694585164,0.45190980434417727,71.73333333333333,16.266666666666666,71.73333333333333,16.266666666666666,0.0,0.8151515245437622,0.4943520983060201,0.8151515245437622,0.8151515245437622,0.8831340114275614,0.8724398096402486,0.5222184101740519,0.46633643507957456,20.733333333333334,7.266666666666667,20.733333333333334,7.266666666666667,0.0,0.7404761950174967,0.6351831674575805,0.7404761950174967,0.7404761950174967,0.8562393267949422,0.8633356889088949
27,0.45420162081718446,0.45060648520787555,71.86666666666666,16.133333333333333,71.86666666666666,16.133333333333333,0.0,0.8166666746139526,0.48828452626864116,0.8166666746139526,0.8166666746139526,0.8839137037595113,0.872871994972229,0.5205152531464895,0.46613609790802,20.8,7.2,20.8,7.2,0.0,0.7428571462631226,0.6322887539863586,0.7428571462631226,0.7428571462631226,0.8560683806737264,0.8634812752405803
28,0.4509292701880137,0.44958181381225587,72.0,16.0,72.0,16.0,0.0,0.8181818286577861,0.48255170782407125,0.8181818286577861,0.8181818286577861,0.8855408668518067,0.8744753122329711,0.5192031502723694,0.4665438155333201,20.866666666666667,7.133333333333334,20.866666666666667,7.133333333333334,0.0,0.7452380975087484,0.6299895842870077,0.7452380975087484,0.7452380975087484,0.8541880408922832,0.8623632828394572
29,0.4478105147679647,0.44842833280563354,72.26666666666667,15.733333333333333,72.26666666666667,15.733333333333333,0.0,0.821212128798167,0.4771188577016195,0.821212128798167,0.821212128798167,0.885731569925944,0.8748893062273662,0.5183579504489899,0.4676432152589162,20.8,7.2,20.8,7.2,0.0,0.7428571462631226,0.6283872961997986,0.7428571462631226,0.7428571462631226,0.8536752184232076,0.8605380455652872
30,0.44476577639579773,0.4469047764937083,72.53333333333333,15.466666666666667,72.53333333333333,15.466666666666667,0.0,0.8242424289385478,0.4719521164894104,0.8242424289385478,0.8242424289385478,0.8875658472379049,0.8778104424476624,0.5177870253721873,0.4691612501939138,20.8,7.2,20.8,7.2,0.0,0.7428571462631226,0.6271340727806092,0.7428571462631226,0.7428571462631226,0.8517948746681213,0.8590710679690043
31,0.4418881336847941,0.4455816348393758,73.0,15.0,73.0,15.0,0.0,0.8295454581578573,0.4670006771882375,0.8295454581578573,0.8295454581578573,0.8883442083994547,0.8790726701418559,0.517377640803655,0.4710221469402313,20.666666666666668,7.333333333333333,20.666666666666668,7.333333333333333,0.0,0.738095239798228,0.6260339856147766,0.738095239798228,0.738095239798228,0.8512820601463318,0.8574389139811198
32,0.4391303817431132,0.4441961189111074,72.93333333333334,15.066666666666666,72.93333333333334,15.066666666666666,0.0,0.8287878831227621,0.4624408940474192,0.8287878831227621,0.8287878831227621,0.8891412417093912,0.8812761267026266,0.5171899100144705,0.47326810558636984,20.666666666666668,7.333333333333333,20.666666666666668,7.333333333333333,0.0,0.738095239798228,0.6252638061841329,0.738095239798228,0.738095239798228,0.8485470136006673,0.8555800358454386
33,0.43658755819002787,0.44304991761843365,73.13333333333334,14.866666666666667,73.13333333333334,14.866666666666667,0.0,0.8310606082280477,0.4581969976425171,0.8310606082280477,0.8310606082280477,0.8896948377291362,0.8826394041379293,0.5171029190222423,0.4756185551484426,20.6,7.4,20.6,7.4,0.0,0.7357142885526021,0.6245574831962586,0.7357142885526021,0.7357142885526021,0.8468376159667969,0.85334552526474
34,0.43400005300839745,0.4416431208451589,73.66666666666667,14.333333333333334,73.66666666666667,14.333333333333334,0.0,0.8371212085088094,0.4540515184402466,0.8371212085088094,0.8371212085088094,0.8906296849250793,0.8843541145324707,0.517095281680425,0.47802028656005857,20.533333333333335,7.466666666666667,20.533333333333335,7.466666666666667,0.0,0.7333333373069764,0.6240228335062663,0.7333333373069764,0.7333333373069764,0.844444457689921,0.8522165099779765
35,0.43167357047398885,0.44056334495544436,73.66666666666667,14.333333333333334,73.66666666666667,14.333333333333334,0.0,0.8371212085088094,0.4501805782318115,0.8371212085088094,0.8371212085088094,0.8913733839988709,0.8849467873573303,0.5171470065911611,0.48051679929097496,20.4,7.6,20.4,7.6,0.0,0.7285714268684387,0.623604400952657,0.7285714268684387,0.7285714268684387,0.8437606930732727,0.8518820007642111
36,0.4292697469393412,0.43914483189582826,73.73333333333333,14.266666666666667,73.73333333333333,14.266666666666667,0.0,0.8378787875175476,0.4464902102947235,0.8378787875175476,0.8378787875175476,0.8923584500948588,0.885983947912852,0.5172282298405965,0.48309706449508666,20.4,7.6,20.4,7.6,0.0,0.7285714268684387,0.6232296228408813,0.7285714268684387,0.7285714268684387,0.8422222336133321,0.8501567602157593
37,0.4270754059155782,0.43821431199709576,74.0,14.0,74.0,14.0,0.0,0.8409090876579285,0.4430418074131012,0.8409090876579285,0.8409090876579285,0.8930163939793905,0.8878783941268921,0.517402317126592,0.48589849670728047,20.4,7.6,20.4,7.6,0.0,0.7285714268684387,0.6229224960009258,0.7285714268684387,0.7285714268684387,0.8396581252415974,0.8477053046226501
38,0.42492716312408446,0.43728080789248147,74.2,13.8,74.2,13.8,0.0,0.8431818167368571,0.43960787653923034,0.8431818167368571,0.8431818167368571,0.8942462603251139,0.8880305329958598,0.5176870544751485,0.48879937728246053,20.333333333333332,7.666666666666667,20.333333333333332,7.666666666666667,0.0,0.7261904716491699,0.622806978225708,0.7261904716491699,0.7261904716491699,0.839145294825236,0.8469296932220459
39,0.4228351891040802,0.43620105981826784,74.2,13.8,74.2,13.8,0.0,0.8431818127632141,0.43643725514411924,0.8431818127632141,0.8431818127632141,0.8947648843129475,0.8872400403022767,0.5182904005050659,0.49212615489959716,20.333333333333332,7.666666666666667,20.333333333333332,7.666666666666667,0.0,0.7261904716491699,0.6230646967887878,0.7261904716491699,0.7261904716491699,0.8365812023480733,0.8442027370134989
40,0.42069775064786274,0.43484870592753094,74.33333333333333,13.666666666666666,74.33333333333333,13.666666666666666,0.0,0.8446969628334046,0.4332090437412262,0.8446969628334046,0.8446969628334046,0.8955609043439229,0.8877878149350484,0.5189991255601247,0.495630673567454,20.466666666666665,7.533333333333333,20.466666666666665,7.533333333333333,0.0,0.7309523781140645,0.6234091838200887,0.7309523781140645,0.7309523781140645,0.8357265035311381,0.84299369653066
41,0.4187354763348897,0.43352333704630536,74.46666666666667,13.533333333333333,74.46666666666667,13.533333333333333,0.0,0.846212116877238,0.43037301301956177,0.846212116877238,0.846212116877238,0.8960967779159545,0.8895045479138692,0.519879670937856,0.4994214395682017,20.466666666666665,7.533333333333333,20.466666666666665,7.533333333333333,0.0,0.7309523781140645,0.6239169716835022,0.7309523781140645,0.7309523781140645,0.8357265035311381,0.8425058801968892
42,0.41675503651301066,0.4319619278113047,74.46666666666667,13.533333333333333,74.46666666666667,13.533333333333333,0.0,0.846212116877238,0.42755579153696693,0.846212116877238,0.846212116877238,0.8964436173439025,0.8908893704414368,0.5208638787269593,0.5033295969168345,20.4,7.6,20.4,7.6,0.0,0.7285714268684387,0.6245517412821452,0.7285714268684387,0.7285714268684387,0.8352136850357056,0.8411474545796712
43,0.4150176227092743,0.4307094971338908,74.33333333333333,13.666666666666666,74.33333333333333,13.666666666666666,0.0,0.8446969668070475,0.4250832676887512,0.8446969668070475,0.8446969668070475,0.8967372298240661,0.8919470389684041,0.5217950661977132,0.507076358795166,20.4,7.6,20.4,7.6,0.0,0.7285714268684387,0.6250153541564941,0.7285714268684387,0.7285714268684387,0.8341880400975545,0.838760248819987
44,0.41311904788017273,0.4290836791197459,74.33333333333333,13.666666666666666,74.33333333333333,13.666666666666666,0.0,0.8446969628334046,0.4224999964237213,0.8446969628334046,0.8446969628334046,0.8974647005399068,0.8923871278762817,0.5225896557172139,0.5104822198549906,20.333333333333332,7.666666666666667,20.333333333333332,7.666666666666667,0.0,0.7261904756228129,0.6253363847732544,0.7261904756228129,0.7261904756228129,0.8300854841868083,0.8361283302307129
45,0.41126177708307904,0.4274967710177104,74.2,13.8,74.2,13.8,0.0,0.8431818127632141,0.4201610048611959,0.8431818127632141,0.8431818127632141,0.8982439279556275,0.8934527238210043,0.5233610312143961,0.5138522664705912,20.333333333333332,7.666666666666667,20.333333333333332,7.666666666666667,0.0,0.7261904756228129,0.6256979425748189,0.7261904756228129,0.7261904756228129,0.8275213718414307,0.8343946059544881
46,0.40967185695966085,0.42649912238121035,74.2,13.8,74.2,13.8,0.0,0.8431818087895712,0.4180929938952128,0.8431818087895712,0.8431818087895712,0.8982093334197998,0.8939805110295613,0.5239547709623973,0.5169415573279063,20.333333333333332,7.666666666666667,20.333333333333332,7.666666666666667,0.0,0.7261904756228129,0.6258082628250122,0.7261904756228129,0.7261904756228129,0.826153842608134,0.833567492167155
47,0.4080093522866567,0.42539690335591634,74.2,13.8,74.2,13.8,0.0,0.8431818087895712,0.4158423105875651,0.8431818087895712,0.8431818087895712,0.8992650071779887,0.8953328728675842,0.5244666934013367,0.5198538402716318,20.333333333333332,7.666666666666667,20.333333333333332,7.666666666666667,0.0,0.7261904756228129,0.6259806831677754,0.7261904756228129,0.7261904756228129,0.823931618531545,0.8324826796849568
48,0.406407235066096,0.42444121042887367,74.2,13.8,74.2,13.8,0.0,0.8431818087895712,0.4138136446475983,0.8431818087895712,0.8431818087895712,0.8993517716725667,0.8954381386439005,0.5251010239124299,0.5228957990805309,20.333333333333332,7.666666666666667,20.333333333333332,7.666666666666667,0.0,0.7261904756228129,0.6264151652654012,0.7261904756228129,0.7261904756228129,0.822735051314036,0.8311457872390747
49,0.40483633279800413,0.4233975311120351,74.4,13.6,74.4,13.6,0.0,0.8454545338948568,0.41172357002894083,0.8454545338948568,0.8454545338948568,0.8999746243158976,0.8960438807805379,0.5258202334245046,0.5259413699309031,20.6,7.4,20.6,7.4,0.0,0.7357142885526021,0.6270162661870321,0.7357142885526021,0.7357142885526021,0.8189743638038636,0.8288244605064392
50,0.40323859453201294,0.42212663690249125,74.46666666666667,13.533333333333333,74.46666666666667,13.533333333333333,0.0,0.846212112903595,0.40969960689544677,0.846212112903595,0.846212112903595,0.9011858185132344,0.8974688887596131,0.5267194668451946,0.5293262104193369,20.666666666666668,7.333333333333333,20.666666666666668,7.333333333333333,0.0,0.738095239798228,0.6276523510615031,0.738095239798228,0.738095239798228,0.8174359003702799,0.8270000537236532
51,0.4017098009586334,0.4210323989391327,74.46666666666667,13.533333333333333,74.46666666666667,13.533333333333333,0.0,0.846212112903595,0.4076173841953278,0.846212112903595,0.846212112903595,0.9016354163487752,0.8975024739901225,0.5275988082091013,0.5327296276887258,20.6,7.4,20.6,7.4,0.0,0.7357142845789592,0.6283283511797587,0.7357142845789592,0.7357142845789592,0.8148717919985453,0.8246666351954143
52,0.4003787636756897,0.4203689893086751,74.46666666666667,13.533333333333333,74.46666666666667,13.533333333333333,0.0,0.846212112903595,0.4056869367758433,0.846212112903595,0.846212112903595,0.9024654666582743,0.8988375425338745,0.5286443909009297,0.5363845268885294,20.6,7.4,20.6,7.4,0.0,0.7357142845789592,0.6291614135106405,0.7357142845789592,0.7357142845789592,0.8138461470603943,0.8249282399813335
53,0.39878210226694744,0.418988303343455,74.46666666666667,13.533333333333333,74.46666666666667,13.533333333333333,0.0,0.846212112903595,0.40362792611122134,0.846212112903595,0.846212112903595,0.9023963928222656,0.898248823483785,0.5296927173932393,0.5400424202283224,20.533333333333335,7.466666666666667,20.533333333333335,7.466666666666667,0.0,0.7333333333333333,0.6299117843310038,0.7333333333333333,0.7333333333333333,0.8111111124356588,0.820501975218455
54,0.39738895893096926,0.4181325634320577,74.46666666666667,13.533333333333333,74.46666666666667,13.533333333333333,0.0,0.8462121208508809,0.4015856881936391,0.8462121208508809,0.8462121208508809,0.9026039401690166,0.8986788153648376,0.5307276447614034,0.5437353471914927,20.466666666666665,7.533333333333333,20.466666666666665,7.533333333333333,0.0,0.7309523820877075,0.6305579821268718,0.7309523820877075,0.7309523820877075,0.808717946211497,0.8180436650911967
55,0.3961313426494598,0.41754395961761476,74.66666666666667,13.333333333333334,74.66666666666667,13.333333333333334,0.0,0.8484848419825236,0.3997992833455404,0.8484848419825236,0.8484848419825236,0.9038330435752868,0.9001182079315185,0.5319169918696086,0.5477128386497497,20.466666666666665,7.533333333333333,20.466666666666665,7.533333333333333,0.0,0.7309523820877075,0.6313336968421936,0.7309523820877075,0.7309523820877075,0.805470085144043,0.8149353384971618
56,0.3947983145713806,0.4167150696118673,74.6,13.4,74.6,13.4,0.0,0.8477272629737854,0.39792494972546893,0.8477272629737854,0.8477272629737854,0.904352871576945,0.9009451786677043,0.5331626375516255,0.5518114705880482,20.6,7.4,20.6,7.4,0.0,0.7357142845789592,0.6320046583811442,0.7357142845789592,0.7357142845789592,0.8037606795628865,0.8134919246037801
57,0.39344183206558225,0.4156215250492096,74.73333333333333,13.266666666666667,74.73333333333333,13.266666666666667,0.0,0.8492424130439759,0.3962066729863485,0.8492424130439759,0.8492424130439759,0.9050624450047811,0.9020008047421774,0.5345763285954793,0.5561935901641846,20.666666666666668,7.333333333333333,20.666666666666668,7.333333333333333,0.0,0.738095239798228,0.6326238314310709,0.738095239798228,0.738095239798228,0.8013675252596537,0.8119042595227559
58,0.39216957887013754,0.41462764938672386,74.8,13.2,74.8,13.2,0.0,0.849999992052714,0.3945104281107585,0.849999992052714,0.849999992052714,0.9056171854337056,0.902757481733958,0.5361121694246928,0.5608470896879832,20.6,7.4,20.6,7.4,0.0,0.7357142885526021,0.6333179871241251,0.7357142885526021,0.7357142885526021,0.7991453011830648,0.8110320210456848
59,0.39086198012034096,0.41339059472084044,74.86666666666666,13.133333333333333,74.86666666666666,13.133333333333333,0.0,0.8507575670878093,0.3928711930910746,0.8507575670878093,0.8507575670878093,0.9059286793073018,0.9033394614855449,0.5377887050310771,0.5657216310501099,20.533333333333335,7.466666666666667,20.533333333333335,7.466666666666667,0.0,0.7333333333333333,0.6340318083763122,0.7333333333333333,0.7333333333333333,0.7974359035491944,0.8102225542068482
60,0.3895862936973572,0.4120947738488515,74.86666666666666,13.133333333333333,74.86666666666666,13.133333333333333,0.0,0.8507575670878093,0.39125996033350624,0.8507575670878093,0.8507575670878093,0.9065006375312805,0.9038650751113891,0.5394790132840475,0.5706019600232443,20.466666666666665,7.533333333333333,20.466666666666665,7.533333333333333,0.0,0.7309523741404216,0.634706461429596,0.7309523741404216,0.7309523741404216,0.795726497968038,0.8079695383707682
61,0.3883928676446279,0.4109740495681763,74.8,13.2,74.8,13.2,0.0,0.8499999880790711,0.3897744397322337,0.8499999880790711,0.8499999880790711,0.906690772374471,0.9041557590166728,0.5411547263463338,0.5756012916564941,20.6,7.4,20.6,7.4,0.0,0.7357142806053162,0.6352806727091471,0.7357142806053162,0.7357142806053162,0.7938461661338806,0.805963138739268
62,0.3871759116649628,0.4099157134691874,74.93333333333334,13.066666666666666,74.93333333333334,13.066666666666666,0.0,0.8515151421229045,0.3881566743055979,0.8515151421229045,0.8515151421229045,0.9075734615325928,0.9049603700637817,0.5425713658332825,0.5802008787790934,20.6,7.4,20.6,7.4,0.0,0.7357142806053162,0.6356358647346496,0.7357142806053162,0.7357142806053162,0.7931624015172323,0.8054151733716329
63,0.3860130190849304,0.40917900403340657,74.93333333333334,13.066666666666666,74.93333333333334,13.066666666666666,0.0,0.8515151460965474,0.3866333901882172,0.8515151460965474,0.8515151460965474,0.9082824031511942,0.9063211719195048,0.5439579685529073,0.584777569770813,20.666666666666668,7.333333333333333,20.666666666666668,7.333333333333333,0.0,0.738095231850942,0.6359906355539958,0.738095231850942,0.738095231850942,0.7916239420572917,0.8034424821535746
64,0.38490727345148723,0.40850799083709716,74.93333333333334,13.066666666666666,74.93333333333334,13.066666666666666,0.0,0.8515151460965474,0.3851816197236379,0.8515151460965474,0.8515151460965474,0.908749524752299,0.9067684372266134,0.5452217817306518,0.5891235828399658,20.466666666666665,7.533333333333333,20.466666666666665,7.533333333333333,0.0,0.7309523741404216,0.636367392539978,0.7309523741404216,0.7309523741404216,0.7899145285288492,0.8016053636868795
65,0.3837929089864095,0.4078997711340586,74.93333333333334,13.066666666666666,74.93333333333334,13.066666666666666,0.0,0.8515151460965474,0.3837563018004099,0.8515151460965474,0.8515151460965474,0.9097877343495687,0.9075012604395548,0.5463746468226115,0.5931818008422851,20.4,7.6,20.4,7.6,0.0,0.7285714228947957,0.6364828626314799,0.7285714228947957,0.7285714228947957,0.7892307758331298,0.7997559388478597
66,0.38279648025830587,0.4075251281261444,74.93333333333334,13.066666666666666,74.93333333333334,13.066666666666666,0.0,0.8515151460965474,0.38243258198102315,0.8515151460965474,0.8515151460965474,0.9094594359397888,0.9067161043485006,0.5475327293078105,0.5971154967943827,20.466666666666665,7.533333333333333,20.466666666666665,7.533333333333333,0.0,0.7309523741404216,0.6366447885831197,0.7309523741404216,0.7309523741404216,0.7870085517565409,0.7972243746121724
67,0.38167582551638285,0.406861408551534,74.93333333333334,13.066666666666666,74.93333333333334,13.066666666666666,0.0,0.8515151460965474,0.38102084000905356,0.8515151460965474,0.8515151460965474,0.9100826025009155,0.9073068579037984,0.5486622850100199,0.6009812394777934,20.6,7.4,20.6,7.4,0.0,0.7357142806053162,0.6368698199590047,0.7357142806053162,0.7357142806053162,0.78581196864446,0.7968363046646119
68,0.3806934912999471,0.40639612476030984,75.0,13.0,75.0,13.0,0.0,0.8522727211316427,0.3798273225625356,0.8522727211316427,0.8522727211316427,0.9100131074587504,0.9074925978978475,0.5499575932820638,0.6051573117574056,20.733333333333334,7.266666666666667,20.733333333333334,7.266666666666667,0.0,0.7404761830965678,0.6371336301167806,0.7404761830965678,0.7404761830965678,0.7849572738011678,0.7956144213676453
69,0.37964787483215334,0.4057965576648712,75.06666666666666,12.933333333333334,75.06666666666666,12.933333333333334,0.0,0.8530303001403808,0.3784282187620799,0.8530303001403808,0.8530303001403808,0.9105159958203634,0.9079346497853596,0.5512689034144084,0.6093109210332235,20.8,7.2,20.8,7.2,0.0,0.7428571343421936,0.6373375535011292,0.7428571343421936,0.7428571343421936,0.7842735091845194,0.7934707681337992
70,0.37856250405311587,0.4050917605559031,75.0,13.0,75.0,13.0,0.0,0.8522727251052856,0.3769985953966776,0.8522727251052856,0.8522727251052856,0.9109142382939657,0.908563228448232,0.5524855295817057,0.6131943106651306,20.733333333333334,7.266666666666667,20.733333333333334,7.266666666666667,0.0,0.7404761830965678,0.6377721031506857,0.7404761830965678,0.7404761830965678,0.7818803469340007,0.7914812048276265
71,0.3775305271148682,0.4044873535633087,75.06666666666666,12.933333333333334,75.06666666666666,12.933333333333334,0.0,0.8530303001403808,0.3756467282772064,0.8530303001403808,0.8530303001403808,0.9114850521087646,0.9093246142069499,0.5536379814147949,0.6169042428334554,20.733333333333334,7.266666666666667,20.733333333333334,7.266666666666667,0.0,0.7404761830965678,0.6381597598393758,0.7404761830965678,0.7404761830965678,0.7796581149101257,0.7892330169677735
72,0.37648720542589825,0.4037712236245473,75.13333333333334,12.866666666666667,75.13333333333334,12.866666666666667,0.0,0.8537878712018331,0.37431851029396057,0.8537878712018331,0.8537878712018331,0.9120906710624694,0.9095935901006063,0.5548328638076783,0.6207296133041382,20.866666666666667,7.133333333333334,20.866666666666667,7.133333333333334,0.0,0.7452380895614624,0.6384687662124634,0.7452380895614624,0.7452380895614624,0.77709401845932,0.7866318146387736
73,0.3755516072114309,0.4032296677430471,75.13333333333334,12.866666666666667,75.13333333333334,12.866666666666667,0.0,0.8537878712018331,0.3731169641017914,0.8537878712018331,0.8537878712018331,0.9126972119013469,0.9106522123018901,0.5559889038403829,0.6244487444559733,20.866666666666667,7.133333333333334,20.866666666666667,7.133333333333334,0.0,0.7452380895614624,0.6390857378641764,0.7452380895614624,0.7452380895614624,0.7740171074867248,0.7845781644185384
74,0.3745430668195089,0.40258556803067524,75.26666666666667,12.733333333333333,75.26666666666667,12.733333333333333,0.0,0.8553030252456665,0.3718850016593933,0.8553030252456665,0.8553030252456665,0.9125237584114074,0.9103404839833578,0.5570879817008972,0.6279468417167664,20.733333333333334,7.266666666666667,20.733333333333334,7.266666666666667,0.0,0.7404761870702108,0.6399058183034261,0.7404761870702108,0.7404761870702108,0.7736752152442932,0.7839736620585124
75,0.37356839577356976,0.4019277532895406,75.2,12.8,75.2,12.8,0.0,0.8545454502105713,0.37064971526463825,0.8545454502105713,0.8545454502105713,0.9131648699442546,0.910887618859609,0.5580251495043437,0.631127925713857,20.733333333333334,7.266666666666667,20.733333333333334,7.266666666666667,0.0,0.7404761870702108,0.6406209588050842,0.7404761870702108,0.7404761870702108,0.7731624046961466,0.7820366382598877
76,0.37255927721659343,0.40126633644104004,75.26666666666667,12.733333333333333,75.26666666666667,12.733333333333333,0.0,0.8553030292193095,0.36944963534673053,0.8553030292193095,0.8553030292193095,0.9134422699610393,0.910855507850647,0.5589514931042989,0.6343755006790162,20.666666666666668,7.333333333333333,20.666666666666668,7.333333333333333,0.0,0.738095231850942,0.641265062491099,0.738095231850942,0.738095231850942,0.7726495782534282,0.7816253900527954
77,0.37168789505958555,0.40107433398564657,75.33333333333333,12.666666666666666,75.33333333333333,12.666666666666666,0.0,0.8560606082280476,0.36825403571128845,0.8560606082280476,0.8560606082280476,0.9129395445187887,0.910112182299296,0.5599716345469157,0.6379266579945883,20.4,7.6,20.4,7.6,0.0,0.7285714268684387,0.641812797387441,0.7285714268684387,0.7285714268684387,0.7709401766459147,0.7794617970784505
78,0.37082061966260277,0.40100444356600445,75.4,12.6,75.4,12.6,0.0,0.8568181832631429,0.36687671939531963,0.8568181832631429,0.8568181832631429,0.9135623415311177,0.9108530759811402,0.5610508879025777,0.6414872328440349,20.4,7.6,20.4,7.6,0.0,0.7285714268684387,0.642456324895223,0.7285714268684387,0.7285714268684387,0.7711111148198445,0.7795303622881572
79,0.36981576482454936,0.40043114026387533,75.66666666666667,12.333333333333334,75.66666666666667,12.333333333333334,0.0,0.8598484873771668,0.36553377509117124,0.8598484873771668,0.8598484873771668,0.9139779885609944,0.9111196478207906,0.5623470822970073,0.6453734159469604,20.533333333333335,7.466666666666667,20.533333333333335,7.466666666666667,0.0,0.7333333293596903,0.6431757529576619,0.7333333293596903,0.7333333293596903,0.7704273502031962,0.779609759648641
80,0.36897661288579303,0.4000353296597799,75.53333333333333,12.466666666666667,75.53333333333333,12.466666666666667,0.0,0.8583333333333333,0.36443748076756793,0.8583333333333333,0.8583333333333333,0.9143247723579406,0.9116438945134481,0.5635005831718445,0.6489756345748902,20.533333333333335,7.466666666666667,20.533333333333335,7.466666666666667,0.0,0.7333333293596903,0.6438324133555094,0.7333333293596903,0.7333333293596903,0.7688888947168986,0.7789310415585836
81,0.3681107739607493,0.39961863358815514,75.4,12.6,75.4,12.6,0.0,0.8568181832631429,0.36332743565241493,0.8568181832631429,0.8568181832631429,0.9143243233362833,0.91200745900472,0.5645431637763977,0.6521856307983398,20.533333333333335,7.466666666666667,20.533333333333335,7.466666666666667,0.0,0.7333333293596903,0.6448806762695313,0.7333333293596903,0.7333333293596903,0.7682051380475362,0.7767655253410339
82,0.36726881663004557,0.3990019102891286,75.26666666666667,12.733333333333333,75.26666666666667,12.733333333333333,0.0,0.8553030331929524,0.36245670914649963,0.8553030331929524,0.8553030331929524,0.9149297118186951,0.9127445936203002,0.565641721089681,0.6553535381952922,20.266666666666666,7.733333333333333,20.266666666666666,7.733333333333333,0.0,0.7238095204035441,0.6464537938435873,0.7238095204035441,0.7238095204035441,0.7671794851620992,0.7753923972447713
83,0.3664843440055847,0.39830232262611387,75.33333333333333,12.666666666666666,75.33333333333333,12.666666666666666,0.0,0.8560606082280476,0.36180964509646096,0.8560606082280476,0.8560606082280476,0.9152417739232381,0.9132662892341614,0.5669748624165852,0.6589897672335306,20.2,7.8,20.2,7.8,0.0,0.7214285651842753,0.6478810747464497,0.7214285651842753,0.7214285651842753,0.7642735083897908,0.773063858350118
84,0.36560949087142947,0.3974862297375997,75.33333333333333,12.666666666666666,75.33333333333333,12.666666666666666,0.0,0.8560606082280476,0.3609570642312368,0.8560606082280476,0.8560606082280476,0.9155015031496684,0.9132483760515849,0.5684557954470316,0.6629252870877583,20.133333333333333,7.866666666666666,20.133333333333333,7.866666666666666,0.0,0.7190476139386495,0.649129056930542,0.7190476139386495,0.7190476139386495,0.7625641107559205,0.7719178080558777
85,0.36481602787971495,0.3967626969019572,75.4,12.6,75.4,12.6,0.0,0.8568181832631429,0.3601874768733978,0.8568181832631429,0.8568181832631429,0.9157262365023295,0.9133277058601379,0.5698560357093811,0.6666425267855326,20.066666666666666,7.933333333333334,20.066666666666666,7.933333333333334,0.0,0.7166666626930237,0.6503007570902507,0.7166666626930237,0.7166666626930237,0.7615384697914124,0.7707815806070963
86,0.36397248109181723,0.3959138532479604,75.46666666666667,12.533333333333333,75.46666666666667,12.533333333333333,0.0,0.8575757622718811,0.35930710037549335,0.8575757622718811,0.8575757622718811,0.9163316051165263,0.9137024799982707,0.5711620291074117,0.6701982458432515,20.2,7.8,20.2,7.8,0.0,0.7214285691579183,0.6511454105377197,0.7214285691579183,0.7214285691579183,0.7605128367741902,0.7686110734939575
87,0.3631258269151052,0.39523693124453224,75.33333333333333,12.666666666666666,75.33333333333333,12.666666666666666,0.0,0.8560606082280476,0.35831629633903506,0.8560606082280476,0.8560606082280476,0.9167473355929057,0.9141030351320902,0.5725439230600993,0.6739761034647623,20.266666666666666,7.733333333333333,20.266666666666666,7.733333333333333,0.0,0.7238095204035441,0.651565404733022,0.7238095204035441,0.7238095204035441,0.7574358979860941,0.7661775668462117
88,0.3622000416119893,0.39448057413101195,75.4,12.6,75.4,12.6,0.0,0.8568181832631429,0.3571884910265605,0.8568181832631429,0.8568181832631429,0.9172318895657857,0.9146592100461324,0.5740666429201762,0.6779619296391804,20.266666666666666,7.733333333333333,20.266666666666666,7.733333333333333,0.0,0.7238095204035441,0.651908799012502,0.7238095204035441,0.7238095204035441,0.7557265043258667,0.7638027588526408
89,0.3614340205987295,0.3938190460205078,75.46666666666667,12.533333333333333,75.46666666666667,12.533333333333333,0.0,0.8575757622718811,0.35626173416773477,0.8575757622718811,0.8575757622718811,0.9171452601750691,0.9148016015688578,0.5755481441815694,0.6818740566571554,20.266666666666666,7.733333333333333,20.266666666666666,7.733333333333333,0.0,0.7238095204035441,0.652192751566569,0.7238095204035441,0.7238095204035441,0.7548718055089315,0.7628237167994182
90,0.36050949096679685,0.39288978576660155,75.53333333333333,12.466666666666667,75.53333333333333,12.466666666666667,0.0,0.8583333373069764,0.35518885056177774,0.8583333373069764,0.8583333373069764,0.9177683552106222,0.9154997746149699,0.5769755283991496,0.685718313852946,20.333333333333332,7.666666666666667,20.333333333333332,7.666666666666667,0.0,0.7261904716491699,0.6526065707206726,0.7261904716491699,0.7261904716491699,0.7548718055089315,0.7622628172238668
91,0.3597268680731455,0.392127392689387,75.6,12.4,75.6,12.4,0.0,0.8590909163157145,0.3543639719486237,0.8590909163157145,0.8590909163157145,0.9178379972775778,0.9156906922658284,0.5783174077669779,0.6894266128540039,20.333333333333332,7.666666666666667,20.333333333333332,7.666666666666667,0.0,0.7261904756228129,0.6529929598172506,0.7261904756228129,0.7261904756228129,0.7538461645444234,0.7623499870300293
92,0.3589650750160217,0.39149476687113444,75.6,12.4,75.6,12.4,0.0,0.8590909163157145,0.3534776051839193,0.8590909163157145,0.8590909163157145,0.9184611996014913,0.9163602113723754,0.5797563672065735,0.6934469262758891,20.466666666666665,7.533333333333333,20.466666666666665,7.533333333333333,0.0,0.7309523781140645,0.6530913472175598,0.7309523781140645,0.7309523781140645,0.7529914697011312,0.7610154589017232
93,0.3582203964392344,0.39093748927116395,75.6,12.4,75.6,12.4,0.0,0.8590909123420716,0.3525286396344503,0.8590909123420716,0.8590909123420716,0.9186513145764669,0.9168029348055522,0.5811295827229818,0.697298777103424,20.333333333333332,7.666666666666667,20.333333333333332,7.666666666666667,0.0,0.7261904756228129,0.653337283929189,0.7261904756228129,0.7261904756228129,0.7524786432584126,0.7606914718945821
94,0.35745979348818463,0.3903524021307627,75.6,12.4,75.6,12.4,0.0,0.8590909123420716,0.3516098221143087,0.8590909123420716,0.8590909123420716,0.9189968943595886,0.9179242690404256,0.5825426459312439,0.7011774897575378,20.333333333333332,7.666666666666667,20.333333333333332,7.666666666666667,0.0,0.7261904756228129,0.6536438822746277,0.7261904756228129,0.7261904756228129,0.7497436006863912,0.7595285971959432
95,0.35670212904612225,0.3893587211767832,75.66666666666667,12.333333333333334,75.66666666666667,12.333333333333334,0.0,0.8598484913508098,0.3508641481399536,0.8598484913508098,0.8598484913508098,0.9192407806714376,0.9175227403640747,0.5839818398157756,0.7049996495246887,20.333333333333332,7.666666666666667,20.333333333333332,7.666666666666667,0.0,0.7261904756228129,0.6543392380078633,0.7261904756228129,0.7261904756228129,0.7492307662963867,0.7590430498123169
96,0.35591254631678265,0.38827282389005024,75.73333333333333,12.266666666666667,75.73333333333333,12.266666666666667,0.0,0.860606066385905,0.35008976260821023,0.860606066385905,0.860606066385905,0.919638435045878,0.9180922309557596,0.5851710438728333,0.708335526784261,20.333333333333332,7.666666666666667,20.333333333333332,7.666666666666667,0.0,0.7261904756228129,0.6549593408902487,0.7261904756228129,0.7261904756228129,0.7487179478009541,0.7580687165260315
97,0.3550822416941325,0.38716839949289955,75.73333333333333,12.266666666666667,75.73333333333333,12.266666666666667,0.0,0.860606066385905,0.34929552872975667,0.860606066385905,0.860606066385905,0.9200539588928223,0.9185065786043803,0.5862181663513184,0.7113497416178386,20.333333333333332,7.666666666666667,20.333333333333332,7.666666666666667,0.0,0.7261904756228129,0.6556705554326375,0.7261904756228129,0.7261904756228129,0.7480341911315918,0.7567194263140361
98,0.35439621011416117,0.38625720342000325,75.73333333333333,12.266666666666667,75.73333333333333,12.266666666666667,0.0,0.860606066385905,0.3487521469593048,0.860606066385905,0.860606066385905,0.9203999916712443,0.9186882615089417,0.5873574574788412,0.7145301421483358,20.266666666666666,7.733333333333333,20.266666666666666,7.733333333333333,0.0,0.7238095204035441,0.6565306782722473,0.7238095204035441,0.7238095204035441,0.7464957396189372,0.7533521930376689
99,0.3536709606647491,0.3853793760140737,75.8,12.2,75.8,12.2,0.0,0.8613636414210002,0.34804429213205973,0.8613636414210002,0.8613636414210002,0.9201232433319092,0.9179684042930603,0.588645609219869,0.7181937297185262,20.266666666666666,7.733333333333333,20.266666666666666,7.733333333333333,0.0,0.7238095204035441,0.6570959289868673,0.7238095204035441,0.7238095204035441,0.7451282262802124,0.752443257967631
100,0.35308669408162435,0.3849471628665924,75.8,12.2,75.8,12.2,0.0,0.8613636414210002,0.3472810943921407,0.8613636414210002,0.8613636414210002,0.9205032149950664,0.9183806935946147,0.5900692741076151,0.7221630970637004,20.333333333333332,7.666666666666667,20.333333333333332,7.666666666666667,0.0,0.7261904756228129,0.657759980360667,0.7261904756228129,0.7261904756228129,0.7442735195159912,0.751801606019338
101,0.35229772528012593,0.38395679990450543,75.8,12.2,75.8,12.2,0.0,0.8613636414210002,0.3465557257334391,0.8613636414210002,0.8613636414210002,0.9206591486930847,0.9187034964561462,0.5914986689885458,0.7260880788167318,20.333333333333332,7.666666666666667,20.333333333333332,7.666666666666667,0.0,0.7261904756228129,0.6589266737302144,0.7261904756228129,0.7261904756228129,0.7429059942563375,0.7504912614822388
102,0.351512477795283,0.38289963603019717,75.8,12.2,75.8,12.2,0.0,0.8613636414210002,0.34578742980957033,0.8613636414210002,0.8613636414210002,0.9213525255521139,0.9191824316978454,0.5926974932352702,0.7295284867286682,20.266666666666666,7.733333333333333,20.266666666666666,7.733333333333333,0.0,0.7238095204035441,0.6601818879445394,0.7238095204035441,0.7238095204035441,0.7427350481351217,0.7501324772834778
103,0.35088624159495035,0.3822633763154348,75.73333333333333,12.266666666666667,75.73333333333333,12.266666666666667,0.0,0.860606066385905,0.34522350430488585,0.860606066385905,0.860606066385905,0.9216460267702739,0.9195365150769551,0.5940744916598002,0.7333155949910481,20.066666666666666,7.933333333333334,20.066666666666666,7.933333333333334,0.0,0.7166666626930237,0.6613469203313191,0.7166666626930237,0.7166666626930237,0.7413675308227539,0.7489037632942199
104,0.3502703507741292,0.3816314001878103,75.8,12.2,75.8,12.2,0.0,0.8613636414210002,0.3445693055788676,0.8613636414210002,0.8613636414210002,0.921975310643514,0.9201309363047282,0.595710571606954,0.7377434611320496,20.0,8.0,20.0,8.0,0.0,0.7142857114473978,0.6620368758837382,0.7142857114473978,0.7142857114473978,0.741196584701538,0.7479956865310669
105,0.34954864978790284,0.38073648810386657,75.8,12.2,75.8,12.2,0.0,0.8613636414210002,0.3438487788041433,0.8613636414210002,0.8613636414210002,0.9229615608851115,0.9210254867871602,0.5970909873644511,0.7415987094243367,20.0,8.0,20.0,8.0,0.0,0.7142857114473978,0.6626990556716919,0.7142857114473978,0.7142857114473978,0.7413675308227539,0.7467576424280803
106,0.34892541766166685,0.38014003237088523,75.73333333333333,12.266666666666667,75.73333333333333,12.266666666666667,0.0,0.860606066385905,0.3432715694109599,0.860606066385905,0.860606066385905,0.922736664613088,0.9208263436953227,0.5981904864311218,0.7449396808942159,20.0,8.0,20.0,8.0,0.0,0.7142857114473978,0.6629114111264547,0.7142857114473978,0.7142857114473978,0.7393162608146667,0.7452818791071574
107,0.34814781149228413,0.37930423418680825,75.8,12.2,75.8,12.2,0.0,0.8613636414210002,0.3425051053365072,0.8613636414210002,0.8613636414210002,0.9236368060111999,0.9215960343678792,0.5993817329406739,0.7483529249827067,20.066666666666666,7.933333333333334,20.066666666666666,7.933333333333334,0.0,0.7166666626930237,0.6632317503293356,0.7166666626930237,0.7166666626930237,0.7372649709383646,0.7442246874173483
108,0.3475417753060659,0.37877007722854616,75.86666666666666,12.133333333333333,75.86666666666666,12.133333333333333,0.0,0.8621212164560954,0.3418567478656769,0.8621212164560954,0.8621212164560954,0.9239654779434204,0.9220127503077189,0.6008784810702006,0.7523799618085225,20.0,8.0,20.0,8.0,0.0,0.7142857114473978,0.6637649734814962,0.7142857114473978,0.7142857114473978,0.7379487355550131,0.7444397290547689
109,0.3468919734160105,0.3779376784960429,75.8,12.2,75.8,12.2,0.0,0.8613636414210002,0.3412693719069163,0.8613636414210002,0.8613636414210002,0.9242430607477824,0.921922254562378,0.6024825652440389,0.7566616694132487,20.0,8.0,20.0,8.0,0.0,0.7142857114473978,0.6644601027170817,0.7142857114473978,0.7142857114473978,0.7360683838526408,0.743604310353597
110,0.34622424840927124,0.37714181542396547,75.8,12.2,75.8,12.2,0.0,0.8613636414210002,0.3405633052190145,0.8613636414210002,0.8613636414210002,0.92445068359375,0.9218760291735332,0.6039601882298787,0.7607316970825195,20.133333333333333,7.866666666666666,20.133333333333333,7.866666666666666,0.0,0.7190476179122924,0.6651158531506857,0.7190476179122924,0.7190476179122924,0.7358974337577819,0.7438281416893006
111,0.3456396162509918,0.37670416037241616,75.86666666666666,12.133333333333333,75.86666666666666,12.133333333333333,0.0,0.8621212164560954,0.3397875626881917,0.8621212164560954,0.8621212164560954,0.9247965971628825,0.9222561518351237,0.605261226495107,0.7644332965215047,20.133333333333333,7.866666666666666,20.133333333333333,7.866666666666666,0.0,0.7190476179122924,0.6657725652058919,0.7190476179122924,0.7190476179122924,0.7343589623769124,0.7432817339897155
112,0.3449332058429718,0.37595318754514057,75.8,12.2,75.8,12.2,0.0,0.8613636414210002,0.3390577177206675,0.8613636414210002,0.8613636414210002,0.9256799141565959,0.9232278148333232,0.6065117120742798,0.767974030971527,20.133333333333333,7.866666666666666,20.133333333333333,7.866666666666666,0.0,0.7190476179122924,0.6664440711339314,0.7190476179122924,0.7190476179122924,0.7338461478551229,0.7423485318819681
113,0.3442685981591543,0.37525009115537006,75.8,12.2,75.8,12.2,0.0,0.8613636414210002,0.3383541544278463,0.8613636414210002,0.8613636414210002,0.925801142056783,0.9235153396924337,0.6079342603683472,0.771834933757782,20.133333333333333,7.866666666666666,20.133333333333333,7.866666666666666,0.0,0.7190476179122924,0.6672595302263896,0.7190476179122924,0.7190476179122924,0.7340170900026958,0.7406458099683125
114,0.34362929662068686,0.3746519903341929,75.73333333333333,12.266666666666667,75.73333333333333,12.266666666666667,0.0,0.860606066385905,0.3376238663991292,0.860606066385905,0.860606066385905,0.9261992573738098,0.9238551537195842,0.6094385663668315,0.7759513020515442,20.133333333333333,7.866666666666666,20.133333333333333,7.866666666666666,0.0,0.7190476179122924,0.6680759867032369,0.7190476179122924,0.7190476179122924,0.7324786305427551,0.7390284458796184
115,0.34303799271583557,0.37418460647265117,75.73333333333333,12.266666666666667,75.73333333333333,12.266666666666667,0.0,0.860606066385905,0.3368474801381429,0.860606066385905,0.860606066385905,0.9264761964480083,0.9243538538614909,0.6111186345418295,0.7804472168286641,20.133333333333333,7.866666666666666,20.133333333333333,7.866666666666666,0.0,0.7190476179122924,0.6686951041221618,0.7190476179122924,0.7190476179122924,0.731453001499176,0.7377578496932984
116,0.34237157106399535,0.3736547549565633,75.73333333333333,12.266666666666667,75.73333333333333,12.266666666666667,0.0,0.860606066385905,0.3359362602233887,0.860606066385905,0.860606066385905,0.9268745104471843,0.9247180342674255,0.6128260374069214,0.784840194384257,20.133333333333333,7.866666666666666,20.133333333333333,7.866666666666666,0.0,0.7190476179122924,0.6693468610445659,0.7190476179122924,0.7190476179122924,0.7309401830037435,0.7371831138928732
117,0.3418760637442271,0.3733734667301178,75.73333333333333,12.266666666666667,75.73333333333333,12.266666666666667,0.0,0.860606066385905,0.3353477974732717,0.860606066385905,0.860606066385905,0.9272553006807963,0.9251408060391744,0.6142474214235941,0.7886039813359579,20.133333333333333,7.866666666666666,20.133333333333333,7.866666666666666,0.0,0.7190476179122924,0.6698843359947204,0.7190476179122924,0.7190476179122924,0.7300854802131653,0.7364101052284241
118,0.3412479201952616,0.3729032397270203,75.86666666666666,12.133333333333333,75.86666666666666,12.133333333333333,0.0,0.8621212164560954,0.3345425764719645,0.8621212164560954,0.8621212164560954,0.9275496085484822,0.9251918276151021,0.6155157128969828,0.7920350432395935,20.2,7.8,20.2,7.8,0.0,0.7214285691579183,0.670492430528005,0.7214285691579183,0.7214285691579183,0.730427352587382,0.7386457085609436
119,0.3406407296657562,0.3725143293539683,75.93333333333334,12.066666666666666,75.93333333333334,12.066666666666666,0.0,0.8628787914911906,0.3339467088381449,0.8628787914911906,0.8628787914911906,0.9274272044499715,0.9246790687243144,0.616682231426239,0.7953071395556132,20.133333333333333,7.866666666666666,20.133333333333333,7.866666666666666,0.0,0.7190476179122924,0.670982829729716,0.7190476179122924,0.7190476179122924,0.7288888971010844,0.7384932597478231
