,loss,kld,tp,fp,tn,fn,accuracy,categorical_accuracy,categorical_hinge,precision,recall,auc,prc,val_loss,val_kld,val_tp,val_fp,val_tn,val_fn,val_accuracy,val_categorical_accuracy,val_categorical_hinge,val_precision,val_recall,val_auc,val_prc
0,0.7414440631866455,0.7158432881037394,67.53333333333333,46.6,67.53333333333333,46.6,0.0,0.5926071027914683,0.8839251677195231,0.5926071027914683,0.5926071027914683,0.6469756007194519,0.6521529873212178,0.7230277021725973,0.7660481492678325,15.6,12.4,15.6,12.4,0.0,0.5571428537368774,0.9490082581837972,0.5571428537368774,0.5571428537368774,0.6100854694843292,0.5985591351985932
1,0.7320587078730265,0.7665316383043925,48.86666666666667,39.13333333333333,48.86666666666667,39.13333333333333,0.0,0.555303031206131,0.9486747980117798,0.555303031206131,0.555303031206131,0.6015067805846532,0.5894886950651804,0.7152809580167134,0.7517207066218058,16.133333333333333,11.866666666666667,16.133333333333333,11.866666666666667,0.0,0.5761904716491699,0.9401008168856303,0.5761904716491699,0.5761904716491699,0.6376068413257598,0.6156384309132894
2,0.7230384031931559,0.7506749192873637,49.86666666666667,38.13333333333333,49.86666666666667,38.13333333333333,0.0,0.5666666666666667,0.9375551541646322,0.5666666666666667,0.5666666666666667,0.6422069132328033,0.6142022391160329,0.7079157352447509,0.7382677833239237,16.666666666666668,11.333333333333334,16.666666666666668,11.333333333333334,0.0,0.5952380935351054,0.931358520189921,0.5952380935351054,0.5952380935351054,0.6634188135464986,0.6396285514036815
3,0.7144733826319377,0.7356826464335123,51.8,36.2,51.8,36.2,0.0,0.5886363645394643,0.9267430702845255,0.5886363645394643,0.5886363645394643,0.6573744475841522,0.6341567715009053,0.700909701983134,0.725415579477946,17.066666666666666,10.933333333333334,17.066666666666666,10.933333333333334,0.0,0.6095238089561462,0.922861651579539,0.6095238089561462,0.6095238089561462,0.6711111227671306,0.6495447178681691
4,0.7061800400416056,0.7213121891021729,54.06666666666667,33.93333333333333,54.06666666666667,33.93333333333333,0.0,0.6143939395745596,0.9160252412160238,0.6143939395745596,0.6143939395745596,0.6694529076417287,0.6420575976371765,0.6942146301269532,0.7131262580553691,17.6,10.4,17.6,10.4,0.0,0.6285714288552602,0.914560838540395,0.6285714288552602,0.6285714288552602,0.6801709532737732,0.6622407992680868
5,0.6981223662694295,0.7074438810348511,55.46666666666667,32.53333333333333,55.46666666666667,32.53333333333333,0.0,0.630303031206131,0.9053026914596558,0.630303031206131,0.630303031206131,0.6789660632610321,0.6520053048928579,0.6877546230951945,0.7013371547063192,17.6,10.4,17.6,10.4,0.0,0.6285714288552602,0.9062886714935303,0.6285714288552602,0.6285714288552602,0.6926495869954427,0.6738820552825928
6,0.6903695225715637,0.6942243456840516,55.46666666666667,32.53333333333333,55.46666666666667,32.53333333333333,0.0,0.630303031206131,0.894703495502472,0.630303031206131,0.630303031206131,0.6921938200791676,0.6630723814169566,0.6814758817354838,0.6899719556172689,17.666666666666668,10.333333333333334,17.666666666666668,10.333333333333334,0.0,0.630952384074529,0.8979695121447245,0.630952384074529,0.630952384074529,0.7070085525512695,0.6821387350559235
7,0.6829860409100851,0.6819170157114665,55.4,32.6,55.4,32.6,0.0,0.6295454601446787,0.8842704971631368,0.6295454601446787,0.6295454601446787,0.7120207150777181,0.6757582187652588,0.6753829638163249,0.6790162404378255,17.733333333333334,10.266666666666667,17.733333333333334,10.266666666666667,0.0,0.6333333373069763,0.8896749377250671,0.6333333373069763,0.6333333373069763,0.7126495718955994,0.6897698620955149
8,0.6757391770680745,0.6699653506278992,55.733333333333334,32.266666666666666,55.733333333333334,32.266666666666666,0.0,0.6333333373069763,0.8736614942550659,0.6333333373069763,0.6333333373069763,0.7313481430212657,0.6872353394826253,0.6695105910301209,0.6685641328493754,17.8,10.2,17.8,10.2,0.0,0.6357142885526021,0.8814649025599162,0.6357142885526021,0.6357142885526021,0.7164102594057719,0.6910172323385875
9,0.6687416712443034,0.6586213191350301,55.8,32.2,55.8,32.2,0.0,0.6340909123420715,0.8632595698038737,0.6340909123420715,0.6340909123420715,0.7333528359731039,0.6895069718360901,0.663858950138092,0.6586158196131389,17.866666666666667,10.133333333333333,17.866666666666667,10.133333333333333,0.0,0.6380952397982279,0.8733400742212931,0.6380952397982279,0.6380952397982279,0.7333333432674408,0.6984482169151306
10,0.6620768030484517,0.6480993668238322,56.46666666666667,31.533333333333335,56.46666666666667,31.533333333333335,0.0,0.6416666686534882,0.853038469950358,0.6416666686534882,0.6416666686534882,0.7471138258775075,0.7012900074323019,0.6584107160568238,0.6490777293841045,17.933333333333334,10.066666666666666,17.933333333333334,10.066666666666666,0.0,0.6404761910438538,0.865360144774119,0.6404761910438538,0.6404761910438538,0.7423931717872619,0.7086402614911397
11,0.6555399974187215,0.6378429969151814,56.8,31.2,56.8,31.2,0.0,0.6454545478026072,0.8428404927253723,0.6454545478026072,0.6454545478026072,0.7536668141682943,0.7083121418952942,0.6531540473302205,0.6400014917055766,17.933333333333334,10.066666666666666,17.933333333333334,10.066666666666666,0.0,0.6404761910438538,0.8574711243311565,0.6404761910438538,0.6404761910438538,0.748376069466273,0.7137879172960917
12,0.649258569876353,0.6282375832398732,57.6,30.4,57.6,30.4,0.0,0.6545454601446787,0.8327539642651876,0.6545454601446787,0.6545454601446787,0.760659122467041,0.7136172354221344,0.6480927069981893,0.6312865495681763,18.066666666666666,9.933333333333334,18.066666666666666,9.933333333333334,0.0,0.6452380935351054,0.849766755104065,0.6452380935351054,0.6452380935351054,0.753162395954132,0.7171185771624248
13,0.6431876460711161,0.6190144141515096,58.13333333333333,29.866666666666667,58.13333333333333,29.866666666666667,0.0,0.6606060643990834,0.8229427655537923,0.6606060643990834,0.6606060643990834,0.7648005684216818,0.7193490942319234,0.6431938767433166,0.6229360183080037,18.466666666666665,9.533333333333333,18.466666666666665,9.533333333333333,0.0,0.6595238089561463,0.842193082968394,0.6595238089561463,0.6595238089561463,0.7611965815226237,0.731955107053121
14,0.6374035716056824,0.6105491856733958,59.06666666666667,28.933333333333334,59.06666666666667,28.933333333333334,0.0,0.6712121268113455,0.8133730292320251,0.6712121268113455,0.6712121268113455,0.7715241233507792,0.7313772598902385,0.6384502053260803,0.6149254560470581,18.4,9.6,18.4,9.6,0.0,0.6571428577105204,0.8347788135210673,0.6571428577105204,0.6571428577105204,0.7676923235257467,0.7364627957344055
15,0.6316617528597513,0.6021444737911225,59.2,28.8,59.2,28.8,0.0,0.6727272788683574,0.803766377766927,0.6727272788683574,0.6727272788683574,0.7741178790728251,0.7366717060407003,0.6338579257329305,0.607222870985667,18.533333333333335,9.466666666666667,18.533333333333335,9.466666666666667,0.0,0.661904760201772,0.8275435368220011,0.661904760201772,0.661904760201772,0.7721367696921031,0.7412768999735514
16,0.6261571923891703,0.5943431675434112,60.6,27.4,60.6,27.4,0.0,0.6886363645394643,0.7943848967552185,0.6886363645394643,0.6886363645394643,0.7826566537221272,0.7439326624075572,0.6293874224026997,0.599799919128418,18.666666666666668,9.333333333333334,18.666666666666668,9.333333333333334,0.0,0.6666666666666666,0.8204171975453695,0.6666666666666666,0.6666666666666666,0.7842735091845194,0.7558152159055074
17,0.6208659450213114,0.5869545936584473,61.2,26.8,61.2,26.8,0.0,0.6954545478026072,0.7853347659111023,0.6954545478026072,0.6954545478026072,0.7847697337468466,0.7520853340625763,0.6250219623247782,0.5926083147525787,18.733333333333334,9.266666666666667,18.733333333333334,9.266666666666667,0.0,0.669047619899114,0.8133742133776347,0.669047619899114,0.669047619899114,0.7870085557301839,0.761099616686503
18,0.6157392024993896,0.579970367749532,61.53333333333333,26.466666666666665,61.53333333333333,26.466666666666665,0.0,0.6992424269517262,0.7763992389043172,0.6992424269517262,0.6992424269517262,0.7857425769170125,0.7551105300585429,0.6208006501197815,0.5857640186945597,18.8,9.2,18.8,9.2,0.0,0.6714285751183827,0.8064818978309631,0.6714285751183827,0.6714285751183827,0.7894017140070597,0.7703225493431092
19,0.6107394377390544,0.573352438211441,62.2,25.8,62.2,25.8,0.0,0.7068181852499644,0.7676117300987244,0.7068181852499644,0.7068181852499644,0.7890798409779867,0.7607712109883626,0.6167354345321655,0.579215693473816,18.933333333333334,9.066666666666666,18.933333333333334,9.066666666666666,0.0,0.6761904776096344,0.7998029549916585,0.6761904776096344,0.6761904776096344,0.7943589846293132,0.7781843264897664
20,0.6059417168299357,0.5671165764331818,62.0,26.0,62.0,26.0,0.0,0.7045454521973927,0.759154216448466,0.7045454521973927,0.7045454521973927,0.7889434615770976,0.7632836679617564,0.6128190596898396,0.5729494690895081,19.266666666666666,8.733333333333333,19.266666666666666,8.733333333333333,0.0,0.6880952338377635,0.7933448990186055,0.6880952338377635,0.6880952338377635,0.7958974480628968,0.7802026987075805
21,0.601182468732198,0.5609635949134827,61.8,26.2,61.8,26.2,0.0,0.7022727231184641,0.7506792545318604,0.7022727231184641,0.7022727231184641,0.7927343368530273,0.7673150142033894,0.6090298573176066,0.5669568737347921,19.266666666666666,8.733333333333333,19.266666666666666,8.733333333333333,0.0,0.6880952338377635,0.7870447874069214,0.6880952338377635,0.6880952338377635,0.796752146879832,0.7830898722012838
22,0.596740996837616,0.5554935932159424,61.93333333333333,26.066666666666666,61.93333333333333,26.066666666666666,0.0,0.7037878731886545,0.7427003264427186,0.7037878731886545,0.7037878731886545,0.7906561175982157,0.7679192662239075,0.6053330659866333,0.5611734549204509,19.333333333333332,8.666666666666666,19.333333333333332,8.666666666666666,0.0,0.6904761850833893,0.7808600783348083,0.6904761850833893,0.6904761850833893,0.7974358995755514,0.7850833614667256
23,0.5922889232635498,0.5500855843226115,62.0,26.0,62.0,26.0,0.0,0.7045454502105712,0.7347034692764283,0.7045454502105712,0.7045454502105712,0.7975782752037048,0.7741662780443828,0.6017505923906962,0.555702167749405,19.466666666666665,8.533333333333333,19.466666666666665,8.533333333333333,0.0,0.6952380875746409,0.7748187065124512,0.6952380875746409,0.6952380875746409,0.8090598344802856,0.7940617640813191
24,0.5879950165748596,0.5450603028138479,62.8,25.2,62.8,25.2,0.0,0.7136363625526428,0.7268644054730733,0.7136363625526428,0.7136363625526428,0.8045812129974366,0.7842597683270772,0.5982746561368306,0.5504847685496013,19.466666666666665,8.533333333333333,19.466666666666665,8.533333333333333,0.0,0.6952380875746409,0.7689399321873983,0.6952380875746409,0.6952380875746409,0.8095726529757182,0.7965678612391154
25,0.5838566184043884,0.5404015799363454,62.8,25.2,62.8,25.2,0.0,0.7136363625526428,0.7193281451861063,0.7136363625526428,0.7136363625526428,0.8058945496877035,0.7886835853258769,0.5948947350184123,0.5454874535401663,19.533333333333335,8.466666666666667,19.533333333333335,8.466666666666667,0.0,0.6976190427939097,0.7632107416788737,0.6976190427939097,0.6976190427939097,0.814017097155253,0.8034121910730998
26,0.5799019694328308,0.5361330350240071,62.93333333333333,25.066666666666666,62.93333333333333,25.066666666666666,0.0,0.7151515126228333,0.7120360453923543,0.7151515126228333,0.7151515126228333,0.8066586256027222,0.7908449133237203,0.5916105389595032,0.5407186806201935,19.533333333333335,8.466666666666667,19.533333333333335,8.466666666666667,0.0,0.6976190427939097,0.7576433300971985,0.6976190427939097,0.6976190427939097,0.8242735107739766,0.8143602808316549
27,0.5759357770284017,0.5319300333658854,62.86666666666667,25.133333333333333,62.86666666666667,25.133333333333333,0.0,0.7143939375877381,0.7047939976056417,0.7143939375877381,0.7143939375877381,0.8092235366503397,0.7924391547838847,0.5884455283482869,0.5362526416778565,19.333333333333332,8.666666666666666,19.333333333333332,8.666666666666666,0.0,0.6904761890570322,0.7522597074508667,0.6904761890570322,0.6904761890570322,0.8372649629910787,0.8197917580604553
28,0.572179396947225,0.5281448841094971,62.86666666666667,25.133333333333333,62.86666666666667,25.133333333333333,0.0,0.714393941561381,0.6978490352630615,0.714393941561381,0.714393941561381,0.8261897365252177,0.8010857184727986,0.5853790879249573,0.5321504275004069,19.4,8.6,19.4,8.6,0.0,0.6928571403026581,0.7469858209292094,0.6928571403026581,0.6928571403026581,0.8411965886751811,0.8229352871576945
29,0.5685159206390381,0.5246847490469615,63.0,25.0,63.0,25.0,0.0,0.7159090916315715,0.6910328984260559,0.7159090916315715,0.7159090916315715,0.8329071839650471,0.8025952855745951,0.5824095765749614,0.5282565494378407,19.6,8.4,19.6,8.4,0.0,0.6999999940395355,0.7419050971666972,0.6999999940395355,0.6999999940395355,0.8420512874921163,0.8221771597862244
30,0.5649449785550436,0.5213887453079223,62.733333333333334,25.266666666666666,62.733333333333334,25.266666666666666,0.0,0.7128787875175476,0.684418531258901,0.7128787875175476,0.7128787875175476,0.8337753574053447,0.8051862398783366,0.5795264482498169,0.5244831204414367,19.666666666666668,8.333333333333334,19.666666666666668,8.333333333333334,0.0,0.7023809452851614,0.7369874318440756,0.7023809452851614,0.7023809452851614,0.842393167813619,0.822552490234375
31,0.5614134271939596,0.518194568157196,62.93333333333333,25.066666666666666,62.93333333333333,25.066666666666666,0.0,0.7151515126228333,0.6779015779495239,0.7151515126228333,0.7151515126228333,0.8356224179267884,0.8081601540247599,0.5767433444658915,0.5208213130633036,20.2,7.8,20.2,7.8,0.0,0.7214285631974539,0.7322742819786072,0.7214285631974539,0.7214285631974539,0.8415384729703267,0.824949844678243
32,0.5580845395723979,0.5152469933032989,64.0,24.0,64.0,24.0,0.0,0.7272727211316427,0.6717418869336446,0.7272727211316427,0.7272727211316427,0.833354655901591,0.8116387446721395,0.5739931027094524,0.5171824971834819,20.733333333333334,7.266666666666667,20.733333333333334,7.266666666666667,0.0,0.7404761830965678,0.7276250521341959,0.7404761830965678,0.7404761830965678,0.8418803413709005,0.8267575860023498
33,0.554793632030487,0.5124149898687999,66.06666666666666,21.933333333333334,66.06666666666666,21.933333333333334,0.0,0.7507575710614522,0.665713890393575,0.7507575710614522,0.7507575710614522,0.8457935492197672,0.821138882637024,0.5712936997413636,0.5136603752772013,20.666666666666668,7.333333333333333,20.666666666666668,7.333333333333333,0.0,0.738095231850942,0.7230695048967998,0.738095231850942,0.738095231850942,0.8422222137451172,0.8284487207730611
34,0.5515733619530996,0.5097654322783153,66.06666666666666,21.933333333333334,66.06666666666666,21.933333333333334,0.0,0.7507575710614522,0.6597519079844157,0.7507575710614522,0.7507575710614522,0.8469532688458761,0.8236191868782043,0.5686574578285217,0.5102084477742513,20.666666666666668,7.333333333333333,20.666666666666668,7.333333333333333,0.0,0.738095231850942,0.718642246723175,0.738095231850942,0.738095231850942,0.8451281984647115,0.8327391425768534
35,0.5484671652317047,0.5071907639503479,66.06666666666666,21.933333333333334,66.06666666666666,21.933333333333334,0.0,0.7507575710614522,0.6540514389673869,0.7507575710614522,0.7507575710614522,0.8481286446253459,0.8255703687667847,0.5660721103350321,0.5068277378877004,20.733333333333334,7.266666666666667,20.733333333333334,7.266666666666667,0.0,0.7404761870702108,0.714311154683431,0.7404761870702108,0.7404761870702108,0.8494017203648885,0.8371822714805603
36,0.5454487343629201,0.5048452456792195,66.13333333333334,21.866666666666667,66.13333333333334,21.866666666666667,0.0,0.7515151460965475,0.648523743947347,0.7515151460965475,0.7515151460965475,0.8498419165611267,0.8267887314160665,0.5635521888732911,0.5035289406776429,20.8,7.2,20.8,7.2,0.0,0.7428571383158366,0.7101046482721964,0.7428571383158366,0.7428571383158366,0.8514530022939046,0.8387126962343852
37,0.5424603303273519,0.5024250547091166,66.13333333333334,21.866666666666667,66.13333333333334,21.866666666666667,0.0,0.7515151460965475,0.6430949886639913,0.7515151460965475,0.7515151460965475,0.8502220153808594,0.8272462010383606,0.5611090699831645,0.5004110117753346,20.666666666666668,7.333333333333333,20.666666666666668,7.333333333333333,0.0,0.738095231850942,0.7060153643290202,0.738095231850942,0.738095231850942,0.8514530022939046,0.8389850576718648
38,0.5396152357260386,0.500350934267044,66.4,21.6,66.4,21.6,0.0,0.7545454502105713,0.6378664533297221,0.7545454502105713,0.7545454502105713,0.8499270081520081,0.8283411065737406,0.5587573051452637,0.49748538533846537,20.6,7.4,20.6,7.4,0.0,0.7357142766316732,0.7021012465159099,0.7357142766316732,0.7357142766316732,0.8547008593877157,0.8471068660418193
39,0.536784428358078,0.498232102394104,66.4,21.6,66.4,21.6,0.0,0.7545454502105713,0.6327628691991171,0.7545454502105713,0.7545454502105713,0.8489599545796712,0.8304046471913655,0.5564952731132508,0.49472949107487996,20.6,7.4,20.6,7.4,0.0,0.7357142766316732,0.6983807206153869,0.7357142766316732,0.7357142766316732,0.8540170987447103,0.8484098792076111
40,0.5341067254543305,0.49643709063529967,66.4,21.6,66.4,21.6,0.0,0.7545454502105713,0.6278500199317932,0.7545454502105713,0.7545454502105713,0.8503600279490153,0.831546425819397,0.5542998671531677,0.4921724538008372,20.6,7.4,20.6,7.4,0.0,0.7357142766316732,0.694793184598287,0.7357142766316732,0.7357142766316732,0.8533333381017049,0.8491910934448242
41,0.5313658058643341,0.4945318261782328,66.4,21.6,66.4,21.6,0.0,0.7545454502105713,0.6229228099187215,0.7545454502105713,0.7545454502105713,0.8532506426175436,0.8346297224362691,0.55213942527771,0.48973060846328736,20.466666666666665,7.533333333333333,20.466666666666665,7.533333333333333,0.0,0.7309523741404216,0.691263739267985,0.7309523741404216,0.7309523741404216,0.8555555621782939,0.8522924900054931
42,0.5287516792615254,0.4928291340668996,66.66666666666667,21.333333333333332,66.66666666666667,21.333333333333332,0.0,0.7575757543245951,0.618217400709788,0.7575757543245951,0.7575757543245951,0.8540265043576558,0.8384599884351095,0.5500383734703064,0.4873978316783905,20.4,7.6,20.4,7.6,0.0,0.7285714228947957,0.6878328084945678,0.7285714228947957,0.7285714228947957,0.8557265082995097,0.8549288670221965
43,0.526186074813207,0.4913094202677409,66.6,21.4,66.6,21.4,0.0,0.7568181753158569,0.6135350108146668,0.7568181753158569,0.7568181753158569,0.8561531662940979,0.8435944795608521,0.5479591369628907,0.48514580527941387,20.466666666666665,7.533333333333333,20.466666666666665,7.533333333333333,0.0,0.7309523781140645,0.6844461957613627,0.7309523781140645,0.7309523781140645,0.8574359178543091,0.8555301904678345
44,0.5237851560115814,0.4900606652100881,66.6,21.4,66.6,21.4,0.0,0.7568181753158569,0.6091633160909017,0.7568181753158569,0.7568181753158569,0.8547454555829366,0.8418015003204345,0.5459277113278707,0.48286754290262857,20.466666666666665,7.533333333333333,20.466666666666665,7.533333333333333,0.0,0.7309523781140645,0.6811551769574483,0.7309523781140645,0.7309523781140645,0.856410268942515,0.8553044915199279
45,0.5213166415691376,0.488539199034373,66.0,22.0,66.0,22.0,0.0,0.7499999920527141,0.6047311385472616,0.7499999920527141,0.7499999920527141,0.858264418443044,0.8444486459096273,0.5439513047536214,0.4805407504240672,20.533333333333335,7.466666666666667,20.533333333333335,7.466666666666667,0.0,0.7333333293596903,0.6779515663782756,0.7333333293596903,0.7333333293596903,0.8567521532376607,0.8558655619621277
46,0.5189335962136586,0.48705634474754333,66.0,22.0,66.0,22.0,0.0,0.7499999920527141,0.6004957358042399,0.7499999920527141,0.7499999920527141,0.8574354966481527,0.8441267530123393,0.5420595566431682,0.47832451860109965,20.533333333333335,7.466666666666667,20.533333333333335,7.466666666666667,0.0,0.7333333293596903,0.6749244252840678,0.7333333293596903,0.7333333293596903,0.8570940295855204,0.8565197587013245
47,0.5166466474533081,0.4856337825457255,66.0,22.0,66.0,22.0,0.0,0.7499999920527141,0.5964024980862935,0.7499999920527141,0.7499999920527141,0.8577132860819499,0.8445626695950826,0.5402494390805562,0.4762377123037974,20.6,7.4,20.6,7.4,0.0,0.7357142806053162,0.6720850666364034,0.7357142806053162,0.7357142806053162,0.8558974464734396,0.8564406752586364
48,0.5143335402011872,0.48413687745730083,65.73333333333333,22.266666666666666,65.73333333333333,22.266666666666666,0.0,0.7469696879386902,0.5924083193143209,0.7469696879386902,0.7469696879386902,0.8584411859512329,0.8442648887634278,0.5385150790214539,0.47429964343706765,20.533333333333335,7.466666666666667,20.533333333333335,7.466666666666667,0.0,0.7333333293596903,0.6694075703620911,0.7333333293596903,0.7333333293596903,0.856410268942515,0.8564186811447143
49,0.5121241410573324,0.4828656474749247,66.4,21.6,66.4,21.6,0.0,0.7545454462369283,0.5885252098242442,0.7545454462369283,0.7545454462369283,0.8603248953819275,0.8459481358528137,0.536799410978953,0.4724524716536204,20.466666666666665,7.533333333333333,20.466666666666665,7.533333333333333,0.0,0.7309523741404216,0.6667666912078858,0.7309523741404216,0.7309523741404216,0.8564102649688721,0.8565584937731425
50,0.5099480907122295,0.4816490848859151,66.4,21.6,66.4,21.6,0.0,0.7545454462369283,0.5847228308518727,0.7545454462369283,0.7545454462369283,0.8607421398162842,0.8467419385910034,0.5351085384686788,0.4705813725789388,20.533333333333335,7.466666666666667,20.533333333333335,7.466666666666667,0.0,0.7333333253860473,0.6641866008440653,0.7333333253860473,0.7333333253860473,0.8560683886210124,0.8569578011830647
51,0.5077994525432586,0.4804557124773661,66.4,21.6,66.4,21.6,0.0,0.7545454462369283,0.5809615890185038,0.7545454462369283,0.7545454462369283,0.8614524920781453,0.847488526503245,0.5334887782732646,0.4688435733318329,20.533333333333335,7.466666666666667,20.533333333333335,7.466666666666667,0.0,0.7333333253860473,0.6617387175559998,0.7333333253860473,0.7333333253860473,0.8557265082995097,0.8583546082178751
52,0.5057690481344859,0.4794768730799357,66.4,21.6,66.4,21.6,0.0,0.7545454462369283,0.5773674050966898,0.7545454462369283,0.7545454462369283,0.860602863629659,0.8470359404881795,0.531920297940572,0.4671904365221659,20.533333333333335,7.466666666666667,20.533333333333335,7.466666666666667,0.0,0.7333333253860473,0.6593625624974568,0.7333333253860473,0.7333333253860473,0.8582906087239583,0.8600852489471436
53,0.503731503089269,0.47852088610331217,66.4,21.6,66.4,21.6,0.0,0.7545454462369283,0.5737611015637716,0.7545454462369283,0.7545454462369283,0.860275145371755,0.84671657482783,0.5303998470306397,0.46565609773000083,20.466666666666665,7.533333333333333,20.466666666666665,7.533333333333333,0.0,0.7309523701667786,0.6570658008257548,0.7309523701667786,0.7309523701667786,0.8584615508715312,0.8604211926460266
54,0.5017711063226064,0.477591069539388,66.6,21.4,66.6,21.4,0.0,0.7568181753158569,0.570346842209498,0.7568181753158569,0.7568181753158569,0.8619704842567444,0.8476924180984498,0.5289206425348918,0.4641971826553345,20.466666666666665,7.533333333333333,20.466666666666665,7.533333333333333,0.0,0.7309523701667786,0.6548666795094807,0.7309523701667786,0.7309523701667786,0.8560683806737264,0.8604347705841064
55,0.49986422061920166,0.4768017530441284,66.6,21.4,66.6,21.4,0.0,0.7568181753158569,0.5669867257277171,0.7568181753158569,0.7568181753158569,0.8617617130279541,0.8477703094482422,0.5274936934312184,0.4628658413887024,20.533333333333335,7.466666666666667,20.533333333333335,7.466666666666667,0.0,0.7333333253860473,0.6527940551439921,0.7333333253860473,0.7333333253860473,0.8562393188476562,0.8601869384447733
56,0.49798233310381573,0.476022078593572,67.0,21.0,67.0,21.0,0.0,0.7613636374473571,0.5637044847011566,0.7613636374473571,0.7613636374473571,0.8636822462081909,0.8500806808471679,0.5261260092258453,0.46161136229832966,20.6,7.4,20.6,7.4,0.0,0.7357142766316732,0.6508381843566895,0.7357142766316732,0.7357142766316732,0.8562393188476562,0.8606429974238078
57,0.4961009701093038,0.4751418570677439,67.0,21.0,67.0,21.0,0.0,0.7613636374473571,0.560539436340332,0.7613636374473571,0.7613636374473571,0.8627660671869913,0.8498257279396058,0.5248396277427674,0.46044842203458153,20.6,7.4,20.6,7.4,0.0,0.7357142806053162,0.649043349424998,0.7357142806053162,0.7357142806053162,0.8550427357355753,0.8605897545814514
58,0.49433256189028424,0.47446803251902264,66.93333333333334,21.066666666666666,66.93333333333334,21.066666666666666,0.0,0.760606058438619,0.5575131058692933,0.760606058438619,0.760606058438619,0.862071696917216,0.8494351983070374,0.5235999087492625,0.4593420465787252,20.6,7.4,20.6,7.4,0.0,0.7357142806053162,0.6473492026329041,0.7357142806053162,0.7357142806053162,0.8550427357355753,0.8607763886451721
59,0.4925628443559011,0.47360124985376995,66.93333333333334,21.066666666666666,66.93333333333334,21.066666666666666,0.0,0.760606058438619,0.5545468032360077,0.760606058438619,0.760606058438619,0.8656037092208863,0.8545740127563477,0.5224059383074443,0.4583029091358185,20.666666666666668,7.333333333333333,20.666666666666668,7.333333333333333,0.0,0.7380952358245849,0.6457202951113383,0.7380952358245849,0.7380952358245849,0.8538461645444234,0.8605188449223836
60,0.49088264306386314,0.4729030231634776,66.93333333333334,21.066666666666666,66.93333333333334,21.066666666666666,0.0,0.760606058438619,0.5517310321331024,0.760606058438619,0.760606058438619,0.8665723323822021,0.8549721479415894,0.5212802410125732,0.4573265314102173,20.666666666666668,7.333333333333333,20.666666666666668,7.333333333333333,0.0,0.7380952358245849,0.6442086458206177,0.7380952358245849,0.7380952358245849,0.8538461645444234,0.8610989888509114
61,0.4891413946946462,0.47192784746487937,66.93333333333334,21.066666666666666,66.93333333333334,21.066666666666666,0.0,0.760606058438619,0.5488833506902059,0.760606058438619,0.760606058438619,0.8677664756774902,0.8544800440470378,0.5202400843302409,0.45644142826398215,20.666666666666668,7.333333333333333,20.666666666666668,7.333333333333333,0.0,0.7380952358245849,0.6428235689798991,0.7380952358245849,0.7380952358245849,0.8545299172401428,0.8610957781473796
62,0.48753187457720437,0.47114232579867044,67.0,21.0,67.0,21.0,0.0,0.7613636374473571,0.5461889187494914,0.7613636374473571,0.7613636374473571,0.8656553546587626,0.8530272722244263,0.5192557553450267,0.45567623774210614,20.533333333333335,7.466666666666667,20.533333333333335,7.466666666666667,0.0,0.7333333293596903,0.6415383458137512,0.7333333293596903,0.7333333293596903,0.8543589790662129,0.8613677938779195
63,0.48585744500160216,0.4701904316743215,67.2,20.8,67.2,20.8,0.0,0.7636363625526428,0.5434600035349528,0.7636363625526428,0.7636363625526428,0.8676247477531434,0.8540782888730367,0.5182952185471853,0.4549931188424428,20.533333333333335,7.466666666666667,20.533333333333335,7.466666666666667,0.0,0.7333333293596903,0.6402982791264852,0.7333333293596903,0.7333333293596903,0.8547008554140727,0.8613654454549153
64,0.484288489818573,0.46949199636777245,67.2,20.8,67.2,20.8,0.0,0.7636363625526428,0.5408287207285564,0.7636363625526428,0.7636363625526428,0.86750435034434,0.8543306748072307,0.5173424859841664,0.4543205479780833,20.4,7.6,20.4,7.6,0.0,0.7285714228947957,0.6390679359436036,0.7285714228947957,0.7285714228947957,0.8547008554140727,0.8613218466440836
65,0.48269070784250895,0.4686979611714681,67.46666666666667,20.533333333333335,67.46666666666667,20.533333333333335,0.0,0.7666666626930236,0.5382064878940582,0.7666666626930236,0.7666666626930236,0.8663085103034973,0.8533652663230896,0.5164346277713776,0.45372543136278787,20.4,7.6,20.4,7.6,0.0,0.7285714228947957,0.6379154841105144,0.7285714228947957,0.7285714228947957,0.8547008514404297,0.8608198801676432
66,0.48117127219835915,0.46804428895314537,67.46666666666667,20.533333333333335,67.46666666666667,20.533333333333335,0.0,0.7666666626930236,0.5356644213199615,0.7666666626930236,0.7666666626930236,0.8676783998807271,0.8554726759592692,0.5155425091584523,0.4531429986159007,20.4,7.6,20.4,7.6,0.0,0.7285714228947957,0.6367804686228434,0.7285714228947957,0.7285714228947957,0.8548717975616456,0.8613978505134583
67,0.47964690725008646,0.46738666892051695,67.46666666666667,20.533333333333335,67.46666666666667,20.533333333333335,0.0,0.7666666626930236,0.5330995877583822,0.7666666626930236,0.7666666626930236,0.8685938676198324,0.857232681910197,0.5146796643733978,0.4526564717292786,20.4,7.6,20.4,7.6,0.0,0.7285714228947957,0.6356989026069642,0.7285714228947957,0.7285714228947957,0.8541880369186401,0.8619795481363932
68,0.4781737784544627,0.46677817702293395,67.46666666666667,20.533333333333335,67.46666666666667,20.533333333333335,0.0,0.7666666626930236,0.5306486785411835,0.7666666626930236,0.7666666626930236,0.8685591340065002,0.8569340070088705,0.5139108677705129,0.45237542589505514,20.4,7.6,20.4,7.6,0.0,0.7285714228947957,0.6347721815109253,0.7285714228947957,0.7285714228947957,0.8535042762756347,0.8630396604537964
69,0.4767381151517232,0.46625158985455833,67.46666666666667,20.533333333333335,67.46666666666667,20.533333333333335,0.0,0.7666666626930236,0.5282258987426758,0.7666666626930236,0.7666666626930236,0.8682475288709005,0.8568895538647969,0.5132265289624532,0.45227946639060973,20.4,7.6,20.4,7.6,0.0,0.7285714228947957,0.6340285539627075,0.7285714228947957,0.7285714228947957,0.8523076931635539,0.8625927050908406
70,0.4752440710862478,0.46549804011980694,67.46666666666667,20.533333333333335,67.46666666666667,20.533333333333335,0.0,0.7666666626930236,0.5258141954739889,0.7666666626930236,0.7666666626930236,0.8685932954152426,0.8563278953234355,0.5125949144363403,0.4521991729736328,20.4,7.6,20.4,7.6,0.0,0.7285714228947957,0.6333824515342712,0.7285714228947957,0.7285714228947957,0.8523076931635539,0.8635572115580241
71,0.47385944922765094,0.46487322052319846,67.46666666666667,20.533333333333335,67.46666666666667,20.533333333333335,0.0,0.7666666626930236,0.5235637704531352,0.7666666626930236,0.7666666626930236,0.8679692546526591,0.857591970761617,0.5119575361410776,0.4520966649055481,20.4,7.6,20.4,7.6,0.0,0.7285714228947957,0.6327182133992513,0.7285714228947957,0.7285714228947957,0.8499145269393921,0.8626788020133972
72,0.47248257597287496,0.46427966554959615,67.46666666666667,20.533333333333335,67.46666666666667,20.533333333333335,0.0,0.7666666626930236,0.5213313122590383,0.7666666626930236,0.7666666626930236,0.8693763136863708,0.858448572953542,0.5113417108853658,0.45203472177187604,20.4,7.6,20.4,7.6,0.0,0.7285714228947957,0.6320810159047444,0.7285714228947957,0.7285714228947957,0.8485470096270243,0.8615564942359925
73,0.4711721658706665,0.463720707098643,67.46666666666667,20.533333333333335,67.46666666666667,20.533333333333335,0.0,0.7666666626930236,0.5191859702269236,0.7666666626930236,0.7666666626930236,0.8681626240412395,0.858825929959615,0.5107254425684611,0.45195223291714987,20.4,7.6,20.4,7.6,0.0,0.7285714228947957,0.6314371188481649,0.7285714228947957,0.7285714228947957,0.84888889392217,0.8617513616879781
74,0.46977546413739524,0.4630295157432556,67.66666666666667,20.333333333333332,67.66666666666667,20.333333333333332,0.0,0.7689393877983093,0.5169487118721008,0.7689393877983093,0.7689393877983093,0.8707436243693034,0.8599486629168193,0.5101298193136851,0.4519170840581258,20.333333333333332,7.666666666666667,20.333333333333332,7.666666666666667,0.0,0.7261904716491699,0.6308487216631572,0.7261904716491699,0.7261904716491699,0.8476923147837321,0.8614453713099162
75,0.4684926807880402,0.4625013510386149,67.86666666666666,20.133333333333333,67.86666666666666,20.133333333333333,0.0,0.771212116877238,0.5148649315039316,0.771212116877238,0.771212116877238,0.8703639507293701,0.8597734173138937,0.5095409353574117,0.4518850604693095,20.333333333333332,7.666666666666667,20.333333333333332,7.666666666666667,0.0,0.7261904716491699,0.6302626689275106,0.7261904716491699,0.7261904716491699,0.8478632569313049,0.8619661291440328
76,0.46718259652455646,0.46194926301638284,68.46666666666667,19.533333333333335,68.46666666666667,19.533333333333335,0.0,0.7780303041140239,0.5127206981182099,0.7780303041140239,0.7780303041140239,0.8714024662971497,0.860650877157847,0.5089956521987915,0.4518629948298136,20.333333333333332,7.666666666666667,20.333333333333332,7.666666666666667,0.0,0.7261904716491699,0.6297212799390157,0.7261904716491699,0.7261904716491699,0.8480341990788778,0.861674177646637
77,0.46592121918996177,0.46138985951741535,68.86666666666666,19.133333333333333,68.86666666666666,19.133333333333333,0.0,0.7825757582982381,0.5106292426586151,0.7825757582982381,0.7825757582982381,0.8709864298502604,0.8612003366152445,0.5084866126378377,0.45189818541208904,20.333333333333332,7.666666666666667,20.333333333333332,7.666666666666667,0.0,0.7261904716491699,0.6292502363522847,0.7261904716491699,0.7261904716491699,0.8475213766098022,0.860768719514211
78,0.46465818881988524,0.46081719001134236,68.86666666666666,19.133333333333333,68.86666666666666,19.133333333333333,0.0,0.7825757582982381,0.5085772295792897,0.7825757582982381,0.7825757582982381,0.8706605394681295,0.861581031481425,0.5080424050490061,0.4520535329977671,20.333333333333332,7.666666666666667,20.333333333333332,7.666666666666667,0.0,0.7261904716491699,0.6288904825846354,0.7261904716491699,0.7261904716491699,0.8470085620880127,0.8610315442085266
79,0.46345576842625935,0.4603040277957916,68.86666666666666,19.133333333333333,68.86666666666666,19.133333333333333,0.0,0.7825757582982381,0.5065960745016734,0.7825757582982381,0.7825757582982381,0.8717161178588867,0.8625903288523357,0.5076603273550669,0.45230885942777,20.4,7.6,20.4,7.6,0.0,0.7285714228947957,0.6285997112592061,0.7285714228947957,0.7285714228947957,0.8471795002619426,0.8605945388476054
80,0.4622273087501526,0.45966007908185325,68.86666666666666,19.133333333333333,68.86666666666666,19.133333333333333,0.0,0.7825757582982381,0.5045962611834208,0.7825757582982381,0.7825757582982381,0.871510100364685,0.8629194974899292,0.5072923183441163,0.4525731325149536,20.4,7.6,20.4,7.6,0.0,0.7285714228947957,0.6282851020495097,0.7285714228947957,0.7285714228947957,0.846666677792867,0.8606564601262411
81,0.46102278828620913,0.459034005800883,68.86666666666666,19.133333333333333,68.86666666666666,19.133333333333333,0.0,0.7825757582982381,0.5025634487469991,0.7825757582982381,0.7825757582982381,0.8736217896143595,0.8640780846277872,0.5069535613059998,0.45291198293368023,20.4,7.6,20.4,7.6,0.0,0.7285714228947957,0.6279833515485128,0.7285714228947957,0.7285714228947957,0.8459829171498616,0.8610090851783753
82,0.4599056561787923,0.4585803290208181,68.93333333333334,19.066666666666666,68.93333333333334,19.066666666666666,0.0,0.7833333333333333,0.5006841917832693,0.7833333333333333,0.7833333333333333,0.871891713142395,0.8627343853314717,0.5066372275352478,0.4532674630482992,20.266666666666666,7.733333333333333,20.266666666666666,7.733333333333333,0.0,0.7238095204035441,0.6276990135510763,0.7238095204035441,0.7238095204035441,0.8425641099611918,0.8602444966634114
83,0.45870267748832705,0.4579394320646922,68.93333333333334,19.066666666666666,68.93333333333334,19.066666666666666,0.0,0.7833333333333333,0.4986116965611776,0.7833333333333333,0.7833333333333333,0.8725673635800679,0.8630133310953776,0.5063566962877909,0.45372257232666013,20.266666666666666,7.733333333333333,20.266666666666666,7.733333333333333,0.0,0.7238095204035441,0.6274906396865845,0.7238095204035441,0.7238095204035441,0.8420512914657593,0.8605898936589559
84,0.457613879442215,0.45752575198809303,69.33333333333333,18.666666666666668,69.33333333333333,18.666666666666668,0.0,0.7878787914911906,0.49672457774480183,0.7878787914911906,0.7878787914911906,0.8721349040667216,0.8652858138084412,0.5061407347520193,0.4543159564336141,20.266666666666666,7.733333333333333,20.266666666666666,7.733333333333333,0.0,0.7238095204035441,0.6274354457855225,0.7238095204035441,0.7238095204035441,0.8411965886751811,0.8602816025416057
85,0.4564388612906138,0.45691486199696857,69.33333333333333,18.666666666666668,69.33333333333333,18.666666666666668,0.0,0.7878787914911906,0.4948023736476898,0.7878787914911906,0.7878787914911906,0.8726550459861755,0.8655314127604167,0.5059395472208659,0.454951548576355,20.2,7.8,20.2,7.8,0.0,0.7214285651842753,0.6274412989616394,0.7214285651842753,0.7214285651842753,0.8411965886751811,0.8597296516100565
86,0.4553980509440104,0.4565353810787201,69.33333333333333,18.666666666666668,69.33333333333333,18.666666666666668,0.0,0.7878787914911906,0.4930689016977946,0.7878787914911906,0.7878787914911906,0.8723434368769328,0.8666085402170817,0.5057092308998108,0.45552510817845665,20.133333333333333,7.866666666666666,20.133333333333333,7.866666666666666,0.0,0.7190476139386495,0.6274280826250712,0.7190476139386495,0.7190476139386495,0.8398290673891703,0.8589953978856405
87,0.45426996747652687,0.4560381591320038,69.4,18.6,69.4,18.6,0.0,0.7886363665262858,0.49119221170743305,0.7886363665262858,0.7886363665262858,0.8730345447858174,0.8679932316144308,0.5054601013660431,0.45605408151944477,20.133333333333333,7.866666666666666,20.133333333333333,7.866666666666666,0.0,0.7190476139386495,0.6273157477378846,0.7190476139386495,0.7190476139386495,0.8384615500768026,0.858367379506429
88,0.45320162177085876,0.45558313131332395,69.4,18.6,69.4,18.6,0.0,0.7886363665262858,0.48943593899408977,0.7886363665262858,0.7886363665262858,0.8741777857144674,0.8695600986480713,0.5052993456522624,0.45670741200447085,20.066666666666666,7.933333333333334,20.066666666666666,7.933333333333334,0.0,0.7166666626930237,0.6272780537605286,0.7166666626930237,0.7166666626930237,0.8384615500768026,0.8587810079256694
89,0.4521461387475332,0.45506438811620076,69.4,18.6,69.4,18.6,0.0,0.7886363665262858,0.48769160310427345,0.7886363665262858,0.7886363665262858,0.8750433166821797,0.8699091792106628,0.5051525652408599,0.45744808912277224,20.0,8.0,20.0,8.0,0.0,0.7142857114473978,0.6272628664970398,0.7142857114473978,0.7142857114473978,0.8370940287907919,0.8581843932469686
90,0.45110877553621925,0.4546087284882863,69.4,18.6,69.4,18.6,0.0,0.7886363665262858,0.48598978320757547,0.7886363665262858,0.7886363665262858,0.8751996874809265,0.8703270157178243,0.5050121327241262,0.45826119383176167,19.866666666666667,8.133333333333333,19.866666666666667,8.133333333333333,0.0,0.7095238089561462,0.6272562543551127,0.7095238089561462,0.7095238089561462,0.8364102681477864,0.8571531097094218
91,0.45014896591504416,0.4543392519156138,69.66666666666667,18.333333333333332,69.66666666666667,18.333333333333332,0.0,0.7916666666666666,0.4843490421772003,0.7916666666666666,0.7916666666666666,0.8740219632784526,0.8696277340253195,0.504860379298528,0.459135780731837,19.733333333333334,8.266666666666667,19.733333333333334,8.266666666666667,0.0,0.7047619024912516,0.6272445122400919,0.7047619024912516,0.7047619024912516,0.8357265035311381,0.8563854336738587
92,0.4491108596324921,0.4539509395758311,69.86666666666666,18.133333333333333,69.86666666666666,18.133333333333333,0.0,0.7939393917719523,0.48271453579266865,0.7939393917719523,0.7939393917719523,0.8746814330418905,0.8699700395266216,0.5047470947106679,0.46009913086891174,19.733333333333334,8.266666666666667,19.733333333333334,8.266666666666667,0.0,0.7047619024912516,0.6272642413775126,0.7047619024912516,0.7047619024912516,0.835897441705068,0.8561477780342102
93,0.4481653690338135,0.45375846028327943,69.86666666666666,18.133333333333333,69.86666666666666,18.133333333333333,0.0,0.7939393917719523,0.48114539782206217,0.7939393917719523,0.7939393917719523,0.8747478524843851,0.8699441432952881,0.5046458303928375,0.4611057182153066,19.733333333333334,8.266666666666667,19.733333333333334,8.266666666666667,0.0,0.7047619024912516,0.627350123723348,0.7047619024912516,0.7047619024912516,0.8357264955838521,0.8554829279581706
94,0.44723568558692933,0.4536255260308584,70.46666666666667,17.533333333333335,70.46666666666667,17.533333333333335,0.0,0.8007575750350953,0.4795582413673401,0.8007575750350953,0.8007575750350953,0.875020972887675,0.8699357668558757,0.5045958439509074,0.4622138539950053,19.733333333333334,8.266666666666667,19.733333333333334,8.266666666666667,0.0,0.7047619024912516,0.6275400082270305,0.7047619024912516,0.7047619024912516,0.8357265035311381,0.8551333149274191
95,0.4462907294432322,0.45337774554888405,70.46666666666667,17.533333333333335,70.46666666666667,17.533333333333335,0.0,0.8007575750350953,0.4780184110005697,0.8007575750350953,0.8007575750350953,0.8758742570877075,0.8729647954305013,0.5046054601669312,0.4634164750576019,19.733333333333334,8.266666666666667,19.733333333333334,8.266666666666667,0.0,0.7047619024912516,0.6278062423070272,0.7047619024912516,0.7047619024912516,0.8355555574099223,0.8550980091094971
96,0.4454359253247579,0.4532758315404256,70.46666666666667,17.533333333333335,70.46666666666667,17.533333333333335,0.0,0.8007575750350953,0.47659090360005696,0.8007575750350953,0.8007575750350953,0.8753722826639811,0.8741343140602111,0.504639184474945,0.46464967727661133,19.733333333333334,8.266666666666667,19.733333333333334,8.266666666666667,0.0,0.7047619024912516,0.6281217892964681,0.7047619024912516,0.7047619024912516,0.8355555653572082,0.8555046598116557
97,0.44449468652407326,0.4529452542463938,70.46666666666667,17.533333333333335,70.46666666666667,17.533333333333335,0.0,0.8007575750350953,0.4750915964444478,0.8007575750350953,0.8007575750350953,0.8764101147651673,0.8747108459472657,0.5047128478686015,0.4658920248349508,19.733333333333334,8.266666666666667,19.733333333333334,8.266666666666667,0.0,0.7047619024912516,0.6284877022107442,0.7047619024912516,0.7047619024912516,0.8355555653572082,0.8540683031082154
98,0.44362142284711203,0.4526667098204295,70.4,17.6,70.4,17.6,0.0,0.799999996026357,0.47370554208755494,0.799999996026357,0.799999996026357,0.8753377596537272,0.8738151987393697,0.5048061807950338,0.4671664734681447,19.733333333333334,8.266666666666667,19.733333333333334,8.266666666666667,0.0,0.7047619024912516,0.6288213849067688,0.7047619024912516,0.7047619024912516,0.8333333412806193,0.8532773852348328
99,0.4427439530690511,0.452320396900177,70.86666666666666,17.133333333333333,70.86666666666666,17.133333333333333,0.0,0.8053030292193095,0.47229854861895243,0.8053030292193095,0.8053030292193095,0.8765128930409749,0.8751517693201701,0.504929248491923,0.46850069363911945,19.733333333333334,8.266666666666667,19.733333333333334,8.266666666666667,0.0,0.7047619024912516,0.6291680375734965,0.7047619024912516,0.7047619024912516,0.832649580637614,0.8532538294792176
100,0.44186585744222007,0.45193543831507366,70.86666666666666,17.133333333333333,70.86666666666666,17.133333333333333,0.0,0.8053030292193095,0.4709141155083974,0.8053030292193095,0.8053030292193095,0.8780027310053508,0.8756317694981893,0.5050786097844442,0.46987813512484233,19.733333333333334,8.266666666666667,19.733333333333334,8.266666666666667,0.0,0.7047619024912516,0.629489541053772,0.7047619024912516,0.7047619024912516,0.8297435998916626,0.8519022226333618
101,0.4410124977429708,0.45162731409072876,71.4,16.6,71.4,16.6,0.0,0.8113636334737142,0.46944329142570496,0.8113636334737142,0.8113636334737142,0.8785210490226746,0.8771410743395488,0.5052148401737213,0.4712836464246114,19.666666666666668,8.333333333333334,19.666666666666668,8.333333333333334,0.0,0.7023809472719829,0.6297743479410808,0.7023809472719829,0.7023809472719829,0.8283760786056519,0.849978526433309
102,0.44018890857696535,0.4514045814673106,71.4,16.6,71.4,16.6,0.0,0.8113636334737142,0.4680439352989197,0.8113636334737142,0.8113636334737142,0.8793171207110088,0.8795954823493958,0.505357293287913,0.4727360924084981,19.666666666666668,8.333333333333334,19.666666666666668,8.333333333333334,0.0,0.7023809472719829,0.6299942970275879,0.7023809472719829,0.7023809472719829,0.8270085533459981,0.8496002078056335
103,0.43938184579213463,0.45122152169545493,71.73333333333333,16.266666666666666,71.73333333333333,16.266666666666666,0.0,0.8151515126228333,0.4666432023048401,0.8151515126228333,0.8151515126228333,0.8801480650901794,0.8804233312606812,0.505528724193573,0.47425132989883423,19.666666666666668,8.333333333333334,19.666666666666668,8.333333333333334,0.0,0.7023809472719829,0.6302481015523275,0.7023809472719829,0.7023809472719829,0.8263247927029927,0.848254410425822
104,0.4385639528433482,0.4509513735771179,71.73333333333333,16.266666666666666,71.73333333333333,16.266666666666666,0.0,0.8151515126228333,0.46525558829307556,0.8151515126228333,0.8151515126228333,0.8806504050890605,0.8809941569964092,0.5057262162367503,0.47582915822664895,19.666666666666668,8.333333333333334,19.666666666666668,8.333333333333334,0.0,0.7023809472719829,0.6305551807085673,0.7023809472719829,0.7023809472719829,0.8241025686264039,0.8474629084269206
105,0.4377508759498596,0.45070460240046184,71.86666666666666,16.133333333333333,71.86666666666666,16.133333333333333,0.0,0.8166666626930237,0.46387892166773476,0.8166666626930237,0.8166666626930237,0.8802863121032715,0.880933940410614,0.5059401571750641,0.4774218102296193,19.666666666666668,8.333333333333334,19.666666666666668,8.333333333333334,0.0,0.7023809472719829,0.6308947245279948,0.7023809472719829,0.7023809472719829,0.8241025686264039,0.8467156767845154
106,0.4369494616985321,0.45046361088752745,72.13333333333334,15.866666666666667,72.13333333333334,15.866666666666667,0.0,0.8196969668070475,0.4625324289004008,0.8196969668070475,0.8196969668070475,0.8805807113647461,0.8811515649159749,0.5061961074670156,0.4791059950987498,19.666666666666668,8.333333333333334,19.666666666666668,8.333333333333334,0.0,0.7023809472719829,0.6312670826911926,0.7023809472719829,0.7023809472719829,0.8237606843312582,0.8469580252965291
107,0.43614550232887267,0.45017600854237877,72.13333333333334,15.866666666666667,72.13333333333334,15.866666666666667,0.0,0.8196969668070475,0.4611754020055135,0.8196969668070475,0.8196969668070475,0.8806327263514201,0.8812620441118876,0.5064594805240631,0.4807844638824463,19.733333333333334,8.266666666666667,19.733333333333334,8.266666666666667,0.0,0.7047619024912516,0.6315751552581788,0.7047619024912516,0.7047619024912516,0.8237606843312582,0.846173624197642
108,0.43539653619130453,0.449955540895462,72.13333333333334,15.866666666666667,72.13333333333334,15.866666666666667,0.0,0.8196969668070475,0.45986044804255166,0.8196969668070475,0.8196969668070475,0.8796989957491557,0.8814699093500773,0.5067952156066895,0.48258994817733764,19.733333333333334,8.266666666666667,19.733333333333334,8.266666666666667,0.0,0.7047619024912516,0.6319267670313518,0.7047619024912516,0.7047619024912516,0.8235897421836853,0.8455040613810222
109,0.4346383492151896,0.44958823124567665,72.26666666666667,15.733333333333333,72.26666666666667,15.733333333333333,0.0,0.8212121168772379,0.4585652033487956,0.8212121168772379,0.8212121168772379,0.8804261565208436,0.8816152056058247,0.507189561923345,0.4844486971696218,19.6,8.4,19.6,8.4,0.0,0.699999996026357,0.632365616162618,0.699999996026357,0.699999996026357,0.8234188000361125,0.8456579009691875
110,0.4338720917701721,0.4491338888804118,72.4,15.6,72.4,15.6,0.0,0.8227272669474284,0.45721961855888366,0.8227272669474284,0.8227272669474284,0.8798359274864197,0.8815370122591655,0.5076018710931142,0.4863452355066935,19.6,8.4,19.6,8.4,0.0,0.699999996026357,0.6328183849652608,0.699999996026357,0.699999996026357,0.8218803405761719,0.8443285663922627
111,0.4331679046154022,0.44877134362856547,73.0,15.0,73.0,15.0,0.0,0.8295454462369283,0.45603331724802654,0.8295454462369283,0.8295454462369283,0.8810828447341919,0.8831706762313842,0.5080780804157257,0.48841634194056194,19.6,8.4,19.6,8.4,0.0,0.699999996026357,0.6333931485811869,0.699999996026357,0.699999996026357,0.8200000047683715,0.8427915652592977
112,0.4323726157347361,0.44827805360158285,73.0,15.0,73.0,15.0,0.0,0.8295454462369283,0.45470328132311505,0.8295454462369283,0.8295454462369283,0.881914226214091,0.8841761589050293,0.5084807535012563,0.4903783738613129,19.666666666666668,8.333333333333334,19.666666666666668,8.333333333333334,0.0,0.7023809472719829,0.6338677843411763,0.7023809472719829,0.7023809472719829,0.8181196570396423,0.8418821374575297
113,0.4316752036412557,0.448048202196757,73.0,15.0,73.0,15.0,0.0,0.8295454462369283,0.4534822583198547,0.8295454462369283,0.8295454462369283,0.8814117550849915,0.8837244669596355,0.5089032808939616,0.4924039840698242,19.666666666666668,8.333333333333334,19.666666666666668,8.333333333333334,0.0,0.7023809472719829,0.634365713596344,0.7023809472719829,0.7023809472719829,0.8179487109184265,0.8410325169563293
114,0.430951193968455,0.4478398303190867,73.0,15.0,73.0,15.0,0.0,0.8295454462369283,0.45215665896733603,0.8295454462369283,0.8295454462369283,0.8820874691009521,0.8844260215759278,0.5092631757259369,0.4943264365196228,19.666666666666668,8.333333333333334,19.666666666666668,8.333333333333334,0.0,0.7023809472719829,0.634830637772878,0.7023809472719829,0.7023809472719829,0.8148717919985453,0.8390596270561218
115,0.43023364146550497,0.4476899822552999,73.0,15.0,73.0,15.0,0.0,0.8295454462369283,0.4508659323056539,0.8295454462369283,0.8295454462369283,0.8838866551717123,0.8854983448982239,0.5097146272659302,0.49642276962598164,19.666666666666668,8.333333333333334,19.666666666666668,8.333333333333334,0.0,0.7023809472719829,0.6353696823120117,0.7023809472719829,0.7023809472719829,0.8135042707125346,0.8385555982589722
116,0.4295181155204773,0.44744057257970177,73.4,14.6,73.4,14.6,0.0,0.8340909004211425,0.4495920499165853,0.8340909004211425,0.8340909004211425,0.883659823735555,0.8857415715853373,0.5102238496144612,0.4985882123311361,19.666666666666668,8.333333333333334,19.666666666666668,8.333333333333334,0.0,0.7023809472719829,0.6358870943387349,0.7023809472719829,0.7023809472719829,0.8128205060958862,0.838113796710968
117,0.42879802783330284,0.44712391098340354,73.4,14.6,73.4,14.6,0.0,0.8340909004211425,0.44825915098190305,0.8340909004211425,0.8340909004211425,0.8840927124023438,0.8859588185946147,0.5107191046078999,0.5007802347342173,19.6,8.4,19.6,8.4,0.0,0.699999996026357,0.6363237222035726,0.699999996026357,0.699999996026357,0.8126495679219564,0.8375200510025025
118,0.4281311909357707,0.4470128377278646,73.4,14.6,73.4,14.6,0.0,0.8340909004211425,0.4469656010468801,0.8340909004211425,0.8340909004211425,0.8845450401306152,0.8859316190083821,0.5112234632174174,0.5030289053916931,19.6,8.4,19.6,8.4,0.0,0.699999996026357,0.6367577234903972,0.699999996026357,0.699999996026357,0.8128205060958862,0.8391381144523621
119,0.42751748164494835,0.44702949523925783,73.4,14.6,73.4,14.6,0.0,0.8340909004211425,0.44569676121075946,0.8340909004211425,0.8340909004211425,0.8834718704223633,0.8850792129834493,0.5117830832799276,0.5053662260373434,19.6,8.4,19.6,8.4,0.0,0.699999996026357,0.6372600674629212,0.699999996026357,0.699999996026357,0.8111111084620158,0.8372244715690613
