,loss,kld,tp,fp,tn,fn,accuracy,categorical_accuracy,categorical_hinge,precision,recall,auc,prc,val_loss,val_kld,val_tp,val_fp,val_tn,val_fn,val_accuracy,val_categorical_accuracy,val_categorical_hinge,val_precision,val_recall,val_auc,val_prc
0,0.7220233082771301,0.7231500109036764,65.2,48.93333333333333,65.2,48.93333333333333,0.0,0.5706635355949402,0.9180617372194926,0.5706635355949402,0.5706635355949402,0.6210325400034586,0.6276072820027669,0.7184459209442139,0.6873119115829468,16.066666666666666,11.933333333333334,16.066666666666666,11.933333333333334,0.0,0.5738095243771871,0.9846841017405192,0.5738095243771871,0.5738095243771871,0.6059829155604045,0.5904908537864685
1,0.7065320809682211,0.6633160034815471,56.266666666666666,31.733333333333334,56.266666666666666,31.733333333333334,0.0,0.6393939415613811,0.9609982013702393,0.6393939415613811,0.6393939415613811,0.7051260471343994,0.6714329560597737,0.7070314009984334,0.6665289203325907,16.333333333333332,11.666666666666666,16.333333333333332,11.666666666666666,0.0,0.5833333353201549,0.9632162928581238,0.5833333353201549,0.5833333353201549,0.7017094016075134,0.6484581728776296
2,0.6923526883125305,0.6378909071286519,58.666666666666664,29.333333333333332,58.666666666666664,29.333333333333332,0.0,0.6666666626930237,0.9333530346552531,0.6666666626930237,0.6666666626930237,0.7907459417978923,0.73921111424764,0.696275798479716,0.64751695394516,17.666666666666668,10.333333333333334,17.666666666666668,10.333333333333334,0.0,0.6309523741404216,0.9422567367553711,0.6309523741404216,0.6309523741404216,0.7613675157229106,0.7012277603149414
3,0.679181698958079,0.6153373082478841,61.8,26.2,61.8,26.2,0.0,0.7022727330525717,0.9066647450129192,0.7022727330525717,0.7022727330525717,0.8300981203715007,0.7825376033782959,0.6861228386561076,0.6300811727841695,18.333333333333332,9.666666666666666,18.333333333333332,9.666666666666666,0.0,0.6547618985176087,0.9219503442446391,0.6547618985176087,0.6547618985176087,0.7950427293777466,0.7415605028470357
4,0.6665128747622172,0.5944571336110432,65.13333333333334,22.866666666666667,65.13333333333334,22.866666666666667,0.0,0.7401515205701192,0.8803073207537333,0.7401515205701192,0.7401515205701192,0.8503550966580709,0.8136474609375,0.6765432000160218,0.6141116340955098,18.933333333333334,9.066666666666666,18.933333333333334,9.066666666666666,0.0,0.6761904716491699,0.9023976922035217,0.6761904716491699,0.6761904716491699,0.8211965799331665,0.7860788981119792
5,0.6547119339307149,0.575938340028127,67.06666666666666,20.933333333333334,67.06666666666666,20.933333333333334,0.0,0.7621212124824523,0.8551338712374369,0.7621212124824523,0.7621212124824523,0.8524167935053507,0.8260063290596008,0.667397391796112,0.5992579897244771,19.066666666666666,8.933333333333334,19.066666666666666,8.933333333333334,0.0,0.6809523781140645,0.8834879358609518,0.6809523781140645,0.6809523781140645,0.834700866540273,0.8066020687421163
6,0.6436915715535482,0.55950395266215,67.2,20.8,67.2,20.8,0.0,0.7636363665262859,0.8312112847963969,0.7636363665262859,0.7636363665262859,0.856677790482839,0.8367946783701579,0.6586562991142273,0.585490596294403,19.2,8.8,19.2,8.8,0.0,0.6857142806053161,0.8652698596318563,0.6857142806053161,0.6857142806053161,0.8451282103856405,0.8182854413986206
7,0.6332310438156128,0.5447598099708557,67.4,20.6,67.4,20.6,0.0,0.7659090916315715,0.8081538160641988,0.7659090916315715,0.7659090916315715,0.8584621349970499,0.8380832473436991,0.6503050804138184,0.5727680802345276,19.133333333333333,8.866666666666667,19.133333333333333,8.866666666666667,0.0,0.6833333293596904,0.8478121757507324,0.6833333293596904,0.6833333293596904,0.8471794843673706,0.824155310789744
8,0.6232698559761047,0.5315053621927898,67.2,20.8,67.2,20.8,0.0,0.7636363665262859,0.7859888792037963,0.7636363665262859,0.7636363665262859,0.8595674355824788,0.8442326982816061,0.6423844496409098,0.5610793590545654,19.133333333333333,8.866666666666667,19.133333333333333,8.866666666666667,0.0,0.6833333293596904,0.831294838587443,0.6833333293596904,0.6833333293596904,0.8497435847918192,0.8280995885531107
9,0.6135747750600179,0.5191999653975169,67.26666666666667,20.733333333333334,67.26666666666667,20.733333333333334,0.0,0.7643939415613811,0.7644930005073547,0.7643939415613811,0.7643939415613811,0.8637457887331644,0.8536809762318929,0.6348209222157796,0.5502879579861959,19.2,8.8,19.2,8.8,0.0,0.6857142806053161,0.8156098484992981,0.6857142806053161,0.6857142806053161,0.8521367470423381,0.8352328538894653
10,0.6046724557876587,0.5088347216447194,67.2,20.8,67.2,20.8,0.0,0.7636363665262859,0.7445068279902141,0.7636363665262859,0.7636363665262859,0.8613024314244588,0.8540313283602396,0.6275292078653971,0.5402178247769673,19.4,8.6,19.4,8.6,0.0,0.6928571383158366,0.8006074070930481,0.6928571383158366,0.6928571383158366,0.8550427198410034,0.8406039516131083
11,0.595902955532074,0.4990350047747294,67.4,20.6,67.4,20.6,0.0,0.7659090956052145,0.7251896540323893,0.7659090956052145,0.7659090956052145,0.8676030158996582,0.8615381002426148,0.6204614281654358,0.5306981921195983,19.6,8.4,19.6,8.4,0.0,0.699999996026357,0.7862391988436381,0.699999996026357,0.699999996026357,0.8557264884312947,0.8420684536298116
12,0.5878398060798645,0.4910497268040975,67.53333333333333,20.466666666666665,67.53333333333333,20.466666666666665,0.0,0.7674242456754049,0.7071481188138325,0.7674242456754049,0.7674242456754049,0.8661499818166097,0.861109181245168,0.6136544028917948,0.52186359167099,19.733333333333334,8.266666666666667,19.733333333333334,8.266666666666667,0.0,0.7047618985176086,0.772597591082255,0.7047618985176086,0.7047618985176086,0.856581199169159,0.8452896674474081
13,0.5798193256060282,0.4834576427936554,67.6,20.4,67.6,20.4,0.0,0.7681818207105001,0.6894529342651368,0.7681818207105001,0.7681818207105001,0.8659403165181477,0.8586016496022543,0.6071654319763183,0.5136714597543081,20.066666666666666,7.933333333333334,20.066666666666666,7.933333333333334,0.0,0.7166666626930237,0.759818168481191,0.7166666626930237,0.7166666626930237,0.8552136778831482,0.8479281743367513
14,0.572377606232961,0.4771042784055074,67.66666666666667,20.333333333333332,67.66666666666667,20.333333333333332,0.0,0.7689393997192383,0.6730790654818217,0.7689393997192383,0.7689393997192383,0.8652126709620158,0.8574129819869996,0.6009061535199484,0.5059094826380411,20.066666666666666,7.933333333333334,20.066666666666666,7.933333333333334,0.0,0.7166666626930237,0.7476786533991496,0.7166666626930237,0.7166666626930237,0.8581196586290996,0.8501285870869955
15,0.5650733431180318,0.4711535155773163,67.53333333333333,20.466666666666665,67.53333333333333,20.466666666666665,0.0,0.7674242456754049,0.6574796160062154,0.7674242456754049,0.7674242456754049,0.8686617890993754,0.8627300341924031,0.5948931415875752,0.49861820340156554,20.2,7.8,20.2,7.8,0.0,0.7214285691579183,0.736219604810079,0.7214285691579183,0.7214285691579183,0.8579487204551697,0.8520601034164429
16,0.5580466548601787,0.4658314685026805,67.93333333333334,20.066666666666666,67.93333333333334,20.066666666666666,0.0,0.7719696998596192,0.6425648689270019,0.7719696998596192,0.7719696998596192,0.8711890697479248,0.8680790781974792,0.5891054073969523,0.4919569949309031,20.333333333333332,7.666666666666667,20.333333333333332,7.666666666666667,0.0,0.7261904716491699,0.7253967523574829,0.7261904716491699,0.7261904716491699,0.8606837630271912,0.8556785821914673
17,0.5513779044151306,0.46147055824597677,68.13333333333334,19.866666666666667,68.13333333333334,19.866666666666667,0.0,0.7742424249649048,0.6285122076670329,0.7742424249649048,0.7742424249649048,0.8708582679430644,0.8687543511390686,0.583483902613322,0.4856869379679362,20.4,7.6,20.4,7.6,0.0,0.7285714268684387,0.7150839845339457,0.7285714268684387,0.7285714268684387,0.8617094000180562,0.8576810439427693
18,0.545176887512207,0.45809466441472374,68.13333333333334,19.866666666666667,68.13333333333334,19.866666666666667,0.0,0.7742424249649048,0.6154344995816549,0.7742424249649048,0.7742424249649048,0.8664822538693746,0.8636932651201884,0.5780285517374675,0.47965071400006615,20.4,7.6,20.4,7.6,0.0,0.7285714228947957,0.7052755077679952,0.7285714228947957,0.7285714228947957,0.8618803381919861,0.8582475821177165
19,0.5388879855473836,0.45460350116093956,68.13333333333334,19.866666666666667,68.13333333333334,19.866666666666667,0.0,0.7742424249649048,0.6026258945465088,0.7742424249649048,0.7742424249649048,0.870930302143097,0.8676622986793519,0.5727754513422648,0.4738847494125366,20.4,7.6,20.4,7.6,0.0,0.7285714228947957,0.6959970871607463,0.7285714228947957,0.7285714228947957,0.8613675157229106,0.8592116832733154
20,0.5331318855285645,0.4519872029622396,68.13333333333334,19.866666666666667,68.13333333333334,19.866666666666667,0.0,0.7742424249649048,0.5908897837003072,0.7742424249649048,0.7742424249649048,0.8712403933207195,0.8675080140431722,0.5677505413691203,0.46849841674168907,20.266666666666666,7.733333333333333,20.266666666666666,7.733333333333333,0.0,0.7238095164299011,0.6872912883758545,0.7238095164299011,0.7238095164299011,0.8629059791564941,0.8638652801513672
21,0.5275355517864228,0.4497027357419332,68.4,19.6,68.4,19.6,0.0,0.7772727290789286,0.57962566614151,0.7772727290789286,0.7772727290789286,0.8702359120051066,0.8663887063662211,0.5630229274431865,0.46365037361780803,20.2,7.8,20.2,7.8,0.0,0.7214285612106324,0.6792908708254496,0.7214285612106324,0.7214285612106324,0.861880342165629,0.8648802359898885
22,0.5221426983674368,0.44763086835543314,68.4,19.6,68.4,19.6,0.0,0.7772727290789286,0.5690340081850688,0.7772727290789286,0.7772727290789286,0.870408833026886,0.8686617612838745,0.5586414059003194,0.4593491156895955,20.266666666666666,7.733333333333333,20.266666666666666,7.733333333333333,0.0,0.7238095164299011,0.6720454494158427,0.7238095164299011,0.7238095164299011,0.8620512882868449,0.864235786596934
23,0.5170591215292613,0.44594226280848187,68.4,19.6,68.4,19.6,0.0,0.7772727290789286,0.5592010021209717,0.7772727290789286,0.7772727290789286,0.8709116220474243,0.8694461385409037,0.5545476833979289,0.45558353066444396,20.333333333333332,7.666666666666667,20.333333333333332,7.666666666666667,0.0,0.726190467675527,0.6654324332873026,0.726190467675527,0.726190467675527,0.8591453115145365,0.8627185463905335
24,0.5123777627944947,0.44475128054618834,68.4,19.6,68.4,19.6,0.0,0.7772727290789286,0.550111448764801,0.7772727290789286,0.7772727290789286,0.8714801788330078,0.8709714015324911,0.5507085998853047,0.4523196597894033,20.333333333333332,7.666666666666667,20.333333333333332,7.666666666666667,0.0,0.726190467675527,0.6593972206115722,0.726190467675527,0.726190467675527,0.8545299371083578,0.8624156634012858
25,0.5077500581741333,0.44362788995107016,68.4,19.6,68.4,19.6,0.0,0.7772727290789286,0.5413705825805664,0.7772727290789286,0.7772727290789286,0.8742562135060629,0.872033973534902,0.5472996473312378,0.44984882275263466,20.4,7.6,20.4,7.6,0.0,0.7285714228947957,0.6542690952618917,0.7285714228947957,0.7285714228947957,0.8504273692766825,0.8609074274698894
26,0.5033901770909627,0.44268264770507815,68.4,19.6,68.4,19.6,0.0,0.7772727290789286,0.5332766652107239,0.7772727290789286,0.7772727290789286,0.8781041026115417,0.8748617211977641,0.5442419727643331,0.4480040013790131,20.4,7.6,20.4,7.6,0.0,0.7285714228947957,0.6498732844988505,0.7285714228947957,0.7285714228947957,0.8505983074506124,0.86246364514033
27,0.49920600454012554,0.4416951457659403,68.4,19.6,68.4,19.6,0.0,0.7772727290789286,0.5257104833920797,0.7772727290789286,0.7772727290789286,0.877342168490092,0.8746342857678732,0.541497552394867,0.44653877218564353,20.4,7.6,20.4,7.6,0.0,0.7285714228947957,0.6460226138432821,0.7285714228947957,0.7285714228947957,0.8507692535718282,0.8638254563013713
28,0.49521056811014813,0.44084922075271604,68.53333333333333,19.466666666666665,68.53333333333333,19.466666666666665,0.0,0.778787883122762,0.5184352477391561,0.778787883122762,0.778787883122762,0.8789357463518779,0.8766875306765238,0.5390550454457601,0.44555357098579407,20.4,7.6,20.4,7.6,0.0,0.7285714228947957,0.6426883538564047,0.7285714228947957,0.7285714228947957,0.8490598559379577,0.8637337327003479
29,0.4913589636484782,0.4398724973201752,68.86666666666666,19.133333333333333,68.86666666666666,19.133333333333333,0.0,0.7825757622718811,0.5115570942560832,0.7825757622718811,0.7825757622718811,0.8792285998662313,0.8777969678243002,0.5368308345476787,0.44480703671773275,20.266666666666666,7.733333333333333,20.266666666666666,7.733333333333333,0.0,0.7238095164299011,0.6396074533462525,0.7238095164299011,0.7238095164299011,0.8494017322858175,0.8634783228238424
30,0.4876920282840729,0.4390033940474192,70.0,18.0,70.0,18.0,0.0,0.7954545497894288,0.5049087047576905,0.7954545497894288,0.7954545497894288,0.8774799426396688,0.8768220186233521,0.5348089059193929,0.4444261848926544,20.266666666666666,7.733333333333333,20.266666666666666,7.733333333333333,0.0,0.7238095164299011,0.6367620388666789,0.7238095164299011,0.7238095164299011,0.8497436086336771,0.8635459184646607
31,0.48405033548672993,0.4380736788113912,70.33333333333333,17.666666666666668,70.33333333333333,17.666666666666668,0.0,0.7992424289385478,0.49830841422080996,0.7992424289385478,0.7992424289385478,0.8798346122105917,0.8795068740844727,0.5330139954884847,0.4445402503013611,20.133333333333333,7.866666666666666,20.133333333333333,7.866666666666666,0.0,0.7190476099650065,0.6343361775080363,0.7190476099650065,0.7190476099650065,0.8447863419850667,0.8611125866572062
32,0.48083866039911904,0.43783454100290936,70.33333333333333,17.666666666666668,70.33333333333333,17.666666666666668,0.0,0.7992424289385478,0.4923514544963837,0.7992424289385478,0.7992424289385478,0.878276006380717,0.8794804851214091,0.5314159035682678,0.44507311582565307,20.133333333333333,7.866666666666666,20.133333333333333,7.866666666666666,0.0,0.7190476099650065,0.6322558681170146,0.7190476099650065,0.7190476099650065,0.8449572801589966,0.8607571919759115
33,0.4774320145448049,0.43696696758270265,70.66666666666667,17.333333333333332,70.66666666666667,17.333333333333332,0.0,0.8030303041140239,0.48620335658391317,0.8030303041140239,0.8030303041140239,0.8795054992039998,0.8797261913617452,0.5300808548927307,0.4461425324281057,20.066666666666666,7.933333333333334,20.066666666666666,7.933333333333334,0.0,0.7166666587193807,0.6306076208750407,0.7166666587193807,0.7166666587193807,0.8408547043800354,0.8595090349515279
34,0.4743309577306112,0.43647056420644126,70.66666666666667,17.333333333333332,70.66666666666667,17.333333333333332,0.0,0.8030303041140239,0.48065292636553447,0.8030303041140239,0.8030303041140239,0.8817941427230835,0.8826711575190226,0.5291253844896953,0.44791567921638487,20.066666666666666,7.933333333333334,20.066666666666666,7.933333333333334,0.0,0.7166666587193807,0.6293638586997986,0.7166666587193807,0.7166666587193807,0.8350427468617757,0.856581163406372
35,0.4712708393732707,0.43563570181528727,71.46666666666667,16.533333333333335,71.46666666666667,16.533333333333335,0.0,0.8121212085088094,0.47512094179789227,0.8121212085088094,0.8121212085088094,0.8826576511065165,0.8835926691691081,0.5285407980283101,0.45045838753382367,20.133333333333333,7.866666666666666,20.133333333333333,7.866666666666666,0.0,0.7190476099650065,0.628551451365153,0.7190476099650065,0.7190476099650065,0.8317948778470358,0.8551392316818237
36,0.4685028235117594,0.4351982315381368,72.8,15.2,72.8,15.2,0.0,0.8272727211316426,0.4699917475382487,0.8272727211316426,0.8272727211316426,0.8807744304339091,0.885945467154185,0.5282487273216248,0.4535949011643728,20.066666666666666,7.933333333333334,20.066666666666666,7.933333333333334,0.0,0.7166666587193807,0.6281253814697265,0.7166666587193807,0.7166666587193807,0.8251282095909118,0.8521991809209187
37,0.46558751662572223,0.434300430615743,73.53333333333333,14.466666666666667,73.53333333333333,14.466666666666667,0.0,0.835606054464976,0.4646318773428599,0.835606054464976,0.835606054464976,0.8848235050837199,0.8879451751708984,0.5280771176020305,0.4570571462313334,19.933333333333334,8.066666666666666,19.933333333333334,8.066666666666666,0.0,0.7119047522544861,0.6278806646664937,0.7119047522544861,0.7119047522544861,0.823931626478831,0.8513713598251342
38,0.46301911075909935,0.4339612205823263,73.66666666666667,14.333333333333334,73.66666666666667,14.333333333333334,0.0,0.8371212085088094,0.45984164079030354,0.8371212085088094,0.8371212085088094,0.8833693186442058,0.8869159976641338,0.5281196077664693,0.4609205981095632,19.933333333333334,8.066666666666666,19.933333333333334,8.066666666666666,0.0,0.7119047522544861,0.6278425971666972,0.7119047522544861,0.7119047522544861,0.8230769236882528,0.8509389758110046
39,0.46037521163622536,0.43326820532480875,73.66666666666667,14.333333333333334,73.66666666666667,14.333333333333334,0.0,0.8371212085088094,0.45512912472089134,0.8371212085088094,0.8371212085088094,0.8837498267491658,0.8873804211616516,0.5283264478047689,0.4651666820049286,19.866666666666667,8.133333333333333,19.866666666666667,8.133333333333333,0.0,0.7095238010088603,0.6278356552124024,0.7095238010088603,0.7095238010088603,0.8230769236882528,0.8517709612846375
40,0.45789122382799785,0.43279929558436075,73.66666666666667,14.333333333333334,73.66666666666667,14.333333333333334,0.0,0.8371212085088094,0.4503760794798533,0.8371212085088094,0.8371212085088094,0.886120347181956,0.8870395342508952,0.5286194642384847,0.4695968468983968,19.866666666666667,8.133333333333333,19.866666666666667,8.133333333333333,0.0,0.7095238010088603,0.6278257608413697,0.7095238010088603,0.7095238010088603,0.8162393212318421,0.848898979028066
41,0.4556231121222178,0.43266613880793253,73.66666666666667,14.333333333333334,73.66666666666667,14.333333333333334,0.0,0.8371212085088094,0.445934663216273,0.8371212085088094,0.8371212085088094,0.8858266711235047,0.8876168131828308,0.5291930993398031,0.4745503028233846,19.733333333333334,8.266666666666667,19.733333333333334,8.266666666666667,0.0,0.7047618985176086,0.6279864152272542,0.7047618985176086,0.7047618985176086,0.8133333404858907,0.8462178309758505
42,0.45335951646169026,0.4322155157725016,73.8,14.2,73.8,14.2,0.0,0.8386363585789999,0.4416484157244364,0.8386363585789999,0.8386363585789999,0.8854274789492289,0.8894436240196228,0.5300394376118978,0.4800965428352356,19.733333333333334,8.266666666666667,19.733333333333334,8.266666666666667,0.0,0.7047618985176086,0.628376817703247,0.7047618985176086,0.7047618985176086,0.8109401822090149,0.8450220823287964
43,0.4511581261952718,0.4318088471889496,73.93333333333334,14.066666666666666,73.93333333333334,14.066666666666666,0.0,0.8401515086491903,0.4373072604338328,0.8401515086491903,0.8401515086491903,0.8875714421272278,0.8906959851582845,0.5309228897094727,0.4858082354068756,19.6,8.4,19.6,8.4,0.0,0.699999992052714,0.6287898739178975,0.699999992052714,0.699999992052714,0.8083760778109232,0.8438642303148906
44,0.4490357577800751,0.4316596806049347,74.0,14.0,74.0,14.0,0.0,0.8409090836842855,0.43309768438339236,0.8409090836842855,0.8409090836842855,0.8893235762914021,0.8918799797693888,0.5318591833114624,0.49164996345837914,19.6,8.4,19.6,8.4,0.0,0.699999992052714,0.6295002420743306,0.699999992052714,0.699999992052714,0.8058119773864746,0.8422709703445435
45,0.4470839579900106,0.43172680934270224,74.0,14.0,74.0,14.0,0.0,0.8409090836842855,0.4292619009812673,0.8409090836842855,0.8409090836842855,0.8884042541186015,0.8918844580650329,0.5328856110572815,0.4976989388465881,19.6,8.4,19.6,8.4,0.0,0.699999992052714,0.6303221583366394,0.699999992052714,0.699999992052714,0.8051282167434692,0.840528937180837
46,0.4451382974783579,0.431635441382726,74.0,14.0,74.0,14.0,0.0,0.8409090836842855,0.42567478815714516,0.8409090836842855,0.8409090836842855,0.8877807100613911,0.8918952226638794,0.5340678652127584,0.5039978265762329,19.466666666666665,8.533333333333333,19.466666666666665,8.533333333333333,0.0,0.6952380855878194,0.6312893112500508,0.6952380855878194,0.6952380855878194,0.8041025757789612,0.8378092924753825
47,0.44322996934254966,0.43153369029363,74.2,13.8,74.2,13.8,0.0,0.8431818087895712,0.4220591723918915,0.8431818087895712,0.8431818087895712,0.8898083130518596,0.8927506327629089,0.5352851549784342,0.5103077391783396,19.4,8.6,19.4,8.6,0.0,0.6928571303685506,0.6324071129163106,0.6928571303685506,0.6928571303685506,0.8023931701978048,0.8355993191401164
48,0.441466756661733,0.4314675033092499,74.2,13.8,74.2,13.8,0.0,0.8431818087895712,0.41887072126070657,0.8431818087895712,0.8431818087895712,0.8894758582115173,0.8942402521769206,0.5366817911465963,0.5169893105824789,19.333333333333332,8.666666666666666,19.333333333333332,8.666666666666666,0.0,0.6904761751492818,0.6335439006487529,0.6904761751492818,0.6904761751492818,0.7994871854782104,0.8343434969584147
49,0.4398680547873179,0.43178916374842324,74.2,13.8,74.2,13.8,0.0,0.8431818087895712,0.41565232872962954,0.8431818087895712,0.8431818087895712,0.8894257227579753,0.8942561149597168,0.5380529244740804,0.5236943662166595,19.333333333333332,8.666666666666666,19.333333333333332,8.666666666666666,0.0,0.6904761751492818,0.6345832745234171,0.6904761751492818,0.6904761751492818,0.7994871854782104,0.8335363388061523
50,0.4382050434748332,0.43187493880589806,74.2,13.8,74.2,13.8,0.0,0.8431818087895712,0.41265925963719685,0.8431818087895712,0.8431818087895712,0.8901173949241639,0.8947327494621277,0.5395601550738017,0.530647623538971,19.333333333333332,8.666666666666666,19.333333333333332,8.666666666666666,0.0,0.6904761751492818,0.6358907143274943,0.6904761751492818,0.6904761751492818,0.8001709461212159,0.8346630891164144
51,0.43674699862798055,0.43236151337623596,74.2,13.8,74.2,13.8,0.0,0.8431818087895712,0.409865939617157,0.8431818087895712,0.8431818087895712,0.8889921466509502,0.8935972929000855,0.5409160892168681,0.5372944156328837,19.266666666666666,8.733333333333333,19.266666666666666,8.733333333333333,0.0,0.688095223903656,0.6373411695162455,0.688095223903656,0.688095223903656,0.8010256489117941,0.833244772752126
52,0.4351956288019816,0.4327026903629303,74.2,13.8,74.2,13.8,0.0,0.8431818087895712,0.4072776714960734,0.8431818087895712,0.8431818087895712,0.8906898856163025,0.8945475697517395,0.5423263827959697,0.5439645151297251,19.266666666666666,8.733333333333333,19.266666666666666,8.733333333333333,0.0,0.688095223903656,0.6390213131904602,0.688095223903656,0.688095223903656,0.8010256449381511,0.8324590047200521
53,0.43388728896776835,0.43353916009267174,74.2,13.8,74.2,13.8,0.0,0.8431818087895712,0.4048356254895528,0.8431818087895712,0.8431818087895712,0.8899630268414815,0.8942689935366313,0.5437966068585713,0.5507124384244283,19.066666666666666,8.933333333333334,19.066666666666666,8.933333333333334,0.0,0.6809523661931356,0.6407847722371419,0.6809523661931356,0.6809523661931356,0.8001709461212159,0.831184987227122
54,0.43251186807950337,0.43407920002937317,74.33333333333333,13.666666666666666,74.33333333333333,13.666666666666666,0.0,0.8446969628334046,0.40256959199905396,0.8446969628334046,0.8446969628334046,0.8911396821339925,0.8948563933372498,0.5454169154167176,0.5577033360799154,19.066666666666666,8.933333333333334,19.066666666666666,8.933333333333334,0.0,0.6809523661931356,0.6425266345342,0.6809523661931356,0.6809523661931356,0.7994871815045674,0.8298936168352763
55,0.4312161107858022,0.43457586963971456,74.33333333333333,13.666666666666666,74.33333333333333,13.666666666666666,0.0,0.8446969628334046,0.4003458241621653,0.8446969628334046,0.8446969628334046,0.8918670932451884,0.895391567548116,0.5470594048500061,0.5646929085254669,19.0,9.0,19.0,9.0,0.0,0.6785714109738668,0.6440289894739787,0.6785714109738668,0.6785714109738668,0.7986324826876322,0.82874649365743
56,0.4300074954827627,0.4351234495639801,74.33333333333333,13.666666666666666,74.33333333333333,13.666666666666666,0.0,0.8446969628334046,0.3982840379079183,0.8446969628334046,0.8446969628334046,0.8922117869059245,0.8956035931905111,0.5488720695177715,0.571979941924413,18.866666666666667,9.133333333333333,18.866666666666667,9.133333333333333,0.0,0.6738095045089721,0.6455274224281311,0.6738095045089721,0.6738095045089721,0.7979487220446269,0.8284082333246867
57,0.42887060244878134,0.4356864929199219,74.33333333333333,13.666666666666666,74.33333333333333,13.666666666666666,0.0,0.8446969628334046,0.3963038464387258,0.8446969628334046,0.8446969628334046,0.891034189860026,0.8949763059616089,0.5506910840670268,0.5791725993156434,18.866666666666667,9.133333333333333,18.866666666666667,9.133333333333333,0.0,0.6738095045089721,0.6471207618713379,0.6738095045089721,0.6738095045089721,0.7986324826876322,0.8282174706459046
58,0.42781083981196083,0.4362299621105194,74.33333333333333,13.666666666666666,74.33333333333333,13.666666666666666,0.0,0.8446969628334046,0.39446064631144206,0.8446969628334046,0.8446969628334046,0.8922810316085815,0.8952846924463908,0.5525486946105957,0.5862974544366201,18.866666666666667,9.133333333333333,18.866666666666667,9.133333333333333,0.0,0.6738095045089721,0.6486478408177694,0.6738095045089721,0.6738095045089721,0.798974359035492,0.8266738017400106
59,0.42666296164194745,0.43651201327641803,74.33333333333333,13.666666666666666,74.33333333333333,13.666666666666666,0.0,0.8446969628334046,0.3926559587319692,0.8446969628334046,0.8446969628334046,0.8925419688224793,0.8952268719673157,0.5544365286827088,0.5934821347395579,18.8,9.2,18.8,9.2,0.0,0.6714285532633464,0.6498645385106404,0.6714285532633464,0.6714285532633464,0.7986324826876322,0.82512047290802
60,0.42568402290344237,0.43721994360287986,74.4,13.6,74.4,13.6,0.0,0.8454545418421427,0.3907165209452311,0.8454545418421427,0.8454545418421427,0.8929227987925211,0.895472510655721,0.5562809348106384,0.6005720794200897,18.666666666666668,9.333333333333334,18.666666666666668,9.333333333333334,0.0,0.6666666467984518,0.6509567499160767,0.6666666467984518,0.6666666467984518,0.7984615405400594,0.8245612700780233
61,0.4248028934001923,0.43815749883651733,74.4,13.6,74.4,13.6,0.0,0.8454545418421427,0.388863875468572,0.8454545418421427,0.8454545418421427,0.890930978457133,0.8950966477394104,0.5580807805061341,0.6075353105862935,18.666666666666668,9.333333333333334,18.666666666666668,9.333333333333334,0.0,0.6666666467984518,0.6518342137336731,0.6666666467984518,0.6666666467984518,0.7993162433306377,0.8249346256256104
62,0.42377161184946693,0.4387346347173055,74.4,13.6,74.4,13.6,0.0,0.8454545418421427,0.3868833363056183,0.8454545418421427,0.8454545418421427,0.8936673482259114,0.8966543277104696,0.5597593069076539,0.6140354911486308,18.666666666666668,9.333333333333334,18.666666666666668,9.333333333333334,0.0,0.6666666467984518,0.6525864044825236,0.6666666467984518,0.6666666467984518,0.7993162393569946,0.825363028049469
63,0.42295290231704713,0.4394605219364166,74.4,13.6,74.4,13.6,0.0,0.8454545418421427,0.3851280172665914,0.8454545418421427,0.8454545418421427,0.8930612762769063,0.8962008237838746,0.5615817387898763,0.6207201679547628,18.666666666666668,9.333333333333334,18.666666666666668,9.333333333333334,0.0,0.6666666467984518,0.6532422661781311,0.6666666467984518,0.6666666467984518,0.8,0.8256598631540935
64,0.4220371206601461,0.4397493620713552,74.4,13.6,74.4,13.6,0.0,0.8454545418421427,0.3833843926588694,0.8454545418421427,0.8454545418421427,0.89406312306722,0.8969170173009237,0.5634881218274435,0.627511219183604,18.666666666666668,9.333333333333334,18.666666666666668,9.333333333333334,0.0,0.6666666467984518,0.6536843419075012,0.6666666467984518,0.6666666467984518,0.8001709381739298,0.8266882300376892
65,0.42133723696072894,0.44022714495658877,74.4,13.6,74.4,13.6,0.0,0.8454545418421427,0.3818204879760742,0.8454545418421427,0.8454545418421427,0.8914184093475341,0.8967499335606893,0.5654172698656718,0.6341487844785054,18.666666666666668,9.333333333333334,18.666666666666668,9.333333333333334,0.0,0.6666666467984518,0.6543007930119832,0.6666666467984518,0.6666666467984518,0.8003418723742167,0.827166203657786
66,0.42047734061876935,0.4402159810066223,74.46666666666667,13.533333333333333,74.46666666666667,13.533333333333333,0.0,0.8462121208508809,0.3802298903465271,0.8462121208508809,0.8462121208508809,0.8946017543474833,0.8989927689234416,0.567149297396342,0.6401574373245239,18.666666666666668,9.333333333333334,18.666666666666668,9.333333333333334,0.0,0.6666666467984518,0.6550525188446045,0.6666666467984518,0.6666666467984518,0.801025636990865,0.8267757495244344
67,0.4196720083554586,0.44031225244204203,74.46666666666667,13.533333333333333,74.46666666666667,13.533333333333333,0.0,0.8462121208508809,0.3788333356380463,0.8462121208508809,0.8462121208508809,0.8948427756627401,0.8988320509592692,0.5688792586326599,0.6462177117665608,18.733333333333334,9.266666666666667,18.733333333333334,9.266666666666667,0.0,0.6690475980440775,0.6557236035664876,0.6690475980440775,0.6690475980440775,0.8013675133387248,0.82682257493337
68,0.4189846754074097,0.44065759778022767,74.53333333333333,13.466666666666667,74.53333333333333,13.466666666666667,0.0,0.8469696958859761,0.37756898005803424,0.8469696958859761,0.8469696958859761,0.8943760673205058,0.898144523302714,0.570603080590566,0.6523218711217245,18.733333333333334,9.266666666666667,18.733333333333334,9.266666666666667,0.0,0.6690475980440775,0.6564322511355082,0.6690475980440775,0.6690475980440775,0.801196571191152,0.8259856303532919
69,0.41821059783299763,0.44085265398025514,74.53333333333333,13.466666666666667,74.53333333333333,13.466666666666667,0.0,0.8469696958859761,0.37620615363121035,0.8469696958859761,0.8469696958859761,0.8957432428995769,0.8987800002098083,0.5723359664281209,0.6584108193715413,18.733333333333334,9.266666666666667,18.733333333333334,9.266666666666667,0.0,0.6690475980440775,0.6571260531743367,0.6690475980440775,0.6690475980440775,0.801196571191152,0.8263172030448913
70,0.41766820549964906,0.44138016502062477,74.53333333333333,13.466666666666667,74.53333333333333,13.466666666666667,0.0,0.8469696958859761,0.3750760555267334,0.8469696958859761,0.8469696958859761,0.8937879363695781,0.8983395655949911,0.5741025606791178,0.6645354747772216,18.733333333333334,9.266666666666667,18.733333333333334,9.266666666666667,0.0,0.6690475980440775,0.6577833573023478,0.6690475980440775,0.6690475980440775,0.801196571191152,0.8271031777064005
71,0.4169700086116791,0.4416609466075897,74.53333333333333,13.466666666666667,74.53333333333333,13.466666666666667,0.0,0.8469696958859761,0.37385481397310893,0.8469696958859761,0.8469696958859761,0.8959679325421651,0.8998762806256612,0.5756949305534362,0.6701913913091023,18.733333333333334,9.266666666666667,18.733333333333334,9.266666666666667,0.0,0.6690475980440775,0.658282470703125,0.6690475980440775,0.6690475980440775,0.8020512700080872,0.8274275223414104
72,0.4163746992746989,0.4420288920402527,74.53333333333333,13.466666666666667,74.53333333333333,13.466666666666667,0.0,0.8469696958859761,0.37275731563568115,0.8469696958859761,0.8469696958859761,0.896434466044108,0.9002790013949077,0.5772392948468527,0.6756404797236125,18.733333333333334,9.266666666666667,18.733333333333334,9.266666666666667,0.0,0.6690475980440775,0.6588474988937378,0.6690475980440775,0.6690475980440775,0.8027350306510925,0.8281304637591044
73,0.4158059060573578,0.4422806183497111,74.53333333333333,13.466666666666667,74.53333333333333,13.466666666666667,0.0,0.8469696958859761,0.3718785067399343,0.8469696958859761,0.8469696958859761,0.8960561275482177,0.9001442154248556,0.5787666281064351,0.680942444006602,18.6,9.4,18.6,9.4,0.0,0.6642856955528259,0.6595738172531128,0.6642856955528259,0.6642856955528259,0.8015384515126546,0.8259763320287069
74,0.41529593666394554,0.4425724228223165,74.4,13.6,74.4,13.6,0.0,0.8454545458157857,0.37106380065282185,0.8454545458157857,0.8454545458157857,0.8939563155174255,0.898085888226827,0.5802846272786458,0.6861757198969524,18.6,9.4,18.6,9.4,0.0,0.6642856955528259,0.6603678504625956,0.6642856955528259,0.6642856955528259,0.8008546908696492,0.8243084987004597
75,0.4147372583548228,0.4426375726858775,74.46666666666667,13.533333333333333,74.46666666666667,13.533333333333333,0.0,0.8462121208508809,0.37031136751174926,0.8462121208508809,0.8462121208508809,0.8951207240422566,0.8982709248860677,0.5819304903348287,0.6916563034057617,18.6,9.4,18.6,9.4,0.0,0.6642856955528259,0.6610886136690776,0.6642856955528259,0.6642856955528259,0.8020512739817302,0.8253569801648458
76,0.41412063042322794,0.44268463253974916,74.46666666666667,13.533333333333333,74.46666666666667,13.533333333333333,0.0,0.8462121208508809,0.369331947962443,0.8462121208508809,0.8462121208508809,0.8967640121777852,0.9004531304041544,0.5834800283114115,0.6969117403030396,18.6,9.4,18.6,9.4,0.0,0.6642856955528259,0.6616535147031148,0.6642856955528259,0.6642856955528259,0.8020512739817302,0.8252838412920634
77,0.41350834965705874,0.4427839994430542,74.46666666666667,13.533333333333333,74.46666666666667,13.533333333333333,0.0,0.8462121208508809,0.36838831305503844,0.8462121208508809,0.8462121208508809,0.8974383354187012,0.901425015926361,0.5848118583361308,0.7016132871309916,18.6,9.4,18.6,9.4,0.0,0.6642856955528259,0.6623105406761169,0.6642856955528259,0.6642856955528259,0.801025636990865,0.8234180331230163
78,0.41301093300183617,0.44315547943115235,74.46666666666667,13.533333333333333,74.46666666666667,13.533333333333333,0.0,0.8462121208508809,0.367546687523524,0.8462121208508809,0.8462121208508809,0.897732408841451,0.9011260390281677,0.5859501679738363,0.7058214823404948,18.6,9.4,18.6,9.4,0.0,0.6642856955528259,0.6627646366755168,0.6642856955528259,0.6642856955528259,0.8005128184954325,0.8220956126848856
79,0.41260748108228046,0.4437061369419098,74.4,13.6,74.4,13.6,0.0,0.8454545458157857,0.36674723625183103,0.8454545458157857,0.8454545458157857,0.8968130747477213,0.9003012498219808,0.5869671781857808,0.7096451918284098,18.6,9.4,18.6,9.4,0.0,0.6642856955528259,0.6630788365999858,0.6642856955528259,0.6642856955528259,0.7984615365664164,0.8208276192347209
80,0.41208334962526955,0.44395676255226135,74.46666666666667,13.533333333333333,74.46666666666667,13.533333333333333,0.0,0.8462121208508809,0.36591214736302696,0.8462121208508809,0.8462121208508809,0.898356823126475,0.901173222064972,0.5880249222119649,0.7133458455403646,18.6,9.4,18.6,9.4,0.0,0.6642856955528259,0.6634570082028707,0.6642856955528259,0.6642856955528259,0.797777775923411,0.8193974057833354
81,0.4115986486275991,0.4439194957415263,74.46666666666667,13.533333333333333,74.46666666666667,13.533333333333333,0.0,0.8462121208508809,0.3652771453062693,0.8462121208508809,0.8462121208508809,0.8989612976710002,0.9013491868972778,0.5890731652577718,0.7169078826904297,18.6,9.4,18.6,9.4,0.0,0.6642856955528259,0.6637476563453675,0.6642856955528259,0.6642856955528259,0.797777775923411,0.8203263998031616
82,0.4111750761667887,0.4439906636873881,74.46666666666667,13.533333333333333,74.46666666666667,13.533333333333333,0.0,0.8462121208508809,0.36466153860092165,0.8462121208508809,0.8462121208508809,0.8997242689132691,0.9016588409741719,0.5902002374331157,0.720729915301005,18.6,9.4,18.6,9.4,0.0,0.6642856955528259,0.6639716943105062,0.6642856955528259,0.6642856955528259,0.7984615365664164,0.8219727198282878
83,0.41083977023760476,0.44432680010795594,74.46666666666667,13.533333333333333,74.46666666666667,13.533333333333333,0.0,0.8462121208508809,0.3640176773071289,0.8462121208508809,0.8462121208508809,0.899114978313446,0.9010292132695515,0.591321055094401,0.7245685696601868,18.6,9.4,18.6,9.4,0.0,0.6642856955528259,0.6641579469045004,0.6642856955528259,0.6642856955528259,0.7976068298021952,0.8229262828826904
84,0.4103577514489492,0.44430979291598,74.46666666666667,13.533333333333333,74.46666666666667,13.533333333333333,0.0,0.8462121208508809,0.36337292194366455,0.8462121208508809,0.8462121208508809,0.8995986302693685,0.9010163187980652,0.5925467411677042,0.7285989920298258,18.6,9.4,18.6,9.4,0.0,0.6642856955528259,0.6645215352376302,0.6642856955528259,0.6642856955528259,0.7976068298021952,0.8208918849627177
85,0.40999165972073875,0.444376806418101,74.46666666666667,13.533333333333333,74.46666666666667,13.533333333333333,0.0,0.8462121208508809,0.36293624838193256,0.8462121208508809,0.8462121208508809,0.90055437485377,0.903433068593343,0.593826146920522,0.7325558543205262,18.6,9.4,18.6,9.4,0.0,0.6642856955528259,0.6651054461797078,0.6642856955528259,0.6642856955528259,0.7969230731328328,0.8201742132504781
86,0.4096574604511261,0.44423834681510926,74.46666666666667,13.533333333333333,74.46666666666667,13.533333333333333,0.0,0.8462121208508809,0.3627065141995748,0.8462121208508809,0.8462121208508809,0.8991002043088278,0.9024018367131551,0.5951262990633647,0.7364461580912273,18.533333333333335,9.466666666666667,18.533333333333335,9.466666666666667,0.0,0.6619047443072001,0.6658171812693278,0.6619047443072001,0.6619047443072001,0.7974358916282653,0.8197024742762248
87,0.4092353602250417,0.44384178320566814,74.4,13.6,74.4,13.6,0.0,0.8454545458157857,0.3624860564867655,0.8454545458157857,0.8454545458157857,0.9007627606391907,0.9033957560857137,0.5962688684463501,0.7399086793263753,18.533333333333335,9.466666666666667,18.533333333333335,9.466666666666667,0.0,0.6619047443072001,0.6663859566052754,0.6619047443072001,0.6619047443072001,0.7976068337758382,0.8181902567545573
88,0.4087708294391632,0.4433890223503113,74.4,13.6,74.4,13.6,0.0,0.8454545458157857,0.3620864351590474,0.8454545458157857,0.8454545458157857,0.9016115029652914,0.9044186075528463,0.5975488940874736,0.7436561147371928,18.533333333333335,9.466666666666667,18.533333333333335,9.466666666666667,0.0,0.6619047443072001,0.6668680866559347,0.6619047443072001,0.6619047443072001,0.7965811928113301,0.8168994148572286
89,0.4084356923898061,0.4431050459543864,74.4,13.6,74.4,13.6,0.0,0.8454545458157857,0.36175758043924966,0.8454545458157857,0.8454545458157857,0.9009700814882914,0.9041886766751607,0.5988949418067933,0.7475701769193014,18.533333333333335,9.466666666666667,18.533333333333335,9.466666666666667,0.0,0.6619047443072001,0.66750062306722,0.6619047443072001,0.6619047443072001,0.7974358956019084,0.817026682694753
90,0.4080007314682007,0.4425447324911753,74.4,13.6,74.4,13.6,0.0,0.8454545458157857,0.3614955445130666,0.8454545458157857,0.8454545458157857,0.9015767852465312,0.904646372795105,0.6000777999560039,0.7510126789410909,18.533333333333335,9.466666666666667,18.533333333333335,9.466666666666667,0.0,0.6619047443072001,0.6681896805763244,0.6619047443072001,0.6619047443072001,0.7965811967849732,0.8159316619237263
91,0.4076407571633657,0.4420763492584229,74.4,13.6,74.4,13.6,0.0,0.8454545458157857,0.3613659699757894,0.8454545458157857,0.8454545458157857,0.900589402516683,0.903853181997935,0.6012577732404073,0.7544319788614909,18.533333333333335,9.466666666666667,18.533333333333335,9.466666666666667,0.0,0.6619047443072001,0.6686616698900859,0.6619047443072001,0.6619047443072001,0.7960683782895406,0.8147190968195598
92,0.4072144150733948,0.4414905766646067,74.4,13.6,74.4,13.6,0.0,0.8454545458157857,0.3610647181669871,0.8454545458157857,0.8454545458157857,0.9031519691149393,0.9054515202840169,0.6025560180346171,0.7582189400990804,18.533333333333335,9.466666666666667,18.533333333333335,9.466666666666667,0.0,0.6619047443072001,0.6690404772758484,0.6619047443072001,0.6619047443072001,0.7969230771064758,0.814871589342753
93,0.40688112179438274,0.4411840081214905,74.4,13.6,74.4,13.6,0.0,0.8454545458157857,0.3607628266016642,0.8454545458157857,0.8454545458157857,0.9028565963109334,0.9053277492523193,0.6038920084635416,0.7621057113011678,18.533333333333335,9.466666666666667,18.533333333333335,9.466666666666667,0.0,0.6619047443072001,0.6693342407544454,0.6619047443072001,0.6619047443072001,0.7967521389325459,0.8139033516248068
94,0.40662826697031657,0.4411233146985372,74.33333333333333,13.666666666666666,74.33333333333333,13.666666666666666,0.0,0.8446969707806905,0.36038217743237816,0.8446969707806905,0.8446969707806905,0.902182404200236,0.9048227667808533,0.6050501902898152,0.7655400315920512,18.533333333333335,9.466666666666667,18.533333333333335,9.466666666666667,0.0,0.6619047443072001,0.6696349700291951,0.6619047443072001,0.6619047443072001,0.7958974440892538,0.8133966604868571
95,0.4062159836292267,0.44065786997477213,74.46666666666667,13.533333333333333,74.46666666666667,13.533333333333333,0.0,0.8462121208508809,0.36006232500076296,0.8462121208508809,0.8462121208508809,0.9024079124132792,0.9051500876744588,0.606006669998169,0.7682653109232584,18.533333333333335,9.466666666666667,18.533333333333335,9.466666666666667,0.0,0.6619047443072001,0.6700609564781189,0.6619047443072001,0.6619047443072001,0.796752142906189,0.8135296543439229
96,0.40583880146344503,0.44009225567181903,74.4,13.6,74.4,13.6,0.0,0.8454545458157857,0.3598771472771963,0.8454545458157857,0.8454545458157857,0.902701739470164,0.9053516864776612,0.6068521738052368,0.7706236640612284,18.533333333333335,9.466666666666667,18.533333333333335,9.466666666666667,0.0,0.6619047443072001,0.6705594698588053,0.6619047443072001,0.6619047443072001,0.7969230850537617,0.8136145830154419
97,0.4055977642536163,0.4397092799345652,74.4,13.6,74.4,13.6,0.0,0.8454545458157857,0.35987072587013247,0.8454545458157857,0.8454545458157857,0.9018532435099283,0.904843278725942,0.6076462904612223,0.7730149984359741,18.533333333333335,9.466666666666667,18.533333333333335,9.466666666666667,0.0,0.6619047443072001,0.6709212382634481,0.6619047443072001,0.6619047443072001,0.7976068456967672,0.8128203471501668
98,0.4051883339881897,0.439256888628006,74.4,13.6,74.4,13.6,0.0,0.8454545458157857,0.3595677057902018,0.8454545458157857,0.8454545458157857,0.9024923284848531,0.9053739428520202,0.6082922061284383,0.7752458810806274,18.533333333333335,9.466666666666667,18.533333333333335,9.466666666666667,0.0,0.6619047443072001,0.6709914644559224,0.6619047443072001,0.6619047443072001,0.7970940272013346,0.8124779899915059
99,0.40483155051867165,0.43904155095418296,74.4,13.6,74.4,13.6,0.0,0.8454545458157857,0.35918020606040957,0.8454545458157857,0.8454545458157857,0.9028038223584492,0.9059313297271728,0.609091067314148,0.7778686285018921,18.533333333333335,9.466666666666667,18.533333333333335,9.466666666666667,0.0,0.6619047443072001,0.6709799249966939,0.6619047443072001,0.6619047443072001,0.7972649653752645,0.8125125169754028
100,0.4046240568161011,0.4391984403133392,74.4,13.6,74.4,13.6,0.0,0.8454545458157857,0.35882914463678994,0.8454545458157857,0.8454545458157857,0.9014518698056538,0.9052037795384725,0.6099662820498148,0.7807159145673116,18.533333333333335,9.466666666666667,18.533333333333335,9.466666666666667,0.0,0.6619047443072001,0.6708575646082561,0.6619047443072001,0.6619047443072001,0.7974359075228373,0.8122109651565552
101,0.40423634052276614,0.4391147474447886,74.46666666666667,13.533333333333333,74.46666666666667,13.533333333333333,0.0,0.8462121208508809,0.35818341573079426,0.8462121208508809,0.8462121208508809,0.9045504768689473,0.9074007352193196,0.6108491738637288,0.7836491227149963,18.6,9.4,18.6,9.4,0.0,0.6642856955528259,0.6706911404927571,0.6642856955528259,0.6642856955528259,0.7976068496704102,0.8122337142626445
102,0.40385559797286985,0.4391192138195038,74.46666666666667,13.533333333333333,74.46666666666667,13.533333333333333,0.0,0.8462121208508809,0.35754826466242473,0.8462121208508809,0.8462121208508809,0.9034438411394755,0.9073165694872538,0.6116924166679383,0.786521319548289,18.6,9.4,18.6,9.4,0.0,0.6642856955528259,0.6705070813496907,0.6642856955528259,0.6642856955528259,0.7972649693489074,0.812826410929362
103,0.40355430245399476,0.4393671671549479,74.46666666666667,13.533333333333333,74.46666666666667,13.533333333333333,0.0,0.8462121208508809,0.3569329917430878,0.8462121208508809,0.8462121208508809,0.9033413767814636,0.9074511448542277,0.612561571598053,0.7894178430239359,18.6,9.4,18.6,9.4,0.0,0.6642856955528259,0.6704192161560059,0.6642856955528259,0.6642856955528259,0.7979487339655559,0.8120514035224915
104,0.40324756304423015,0.43958090941111244,74.46666666666667,13.533333333333333,74.46666666666667,13.533333333333333,0.0,0.8462121208508809,0.35636614163716634,0.8462121208508809,0.8462121208508809,0.9030967593193054,0.907327409585317,0.6133155783017477,0.7919773459434509,18.6,9.4,18.6,9.4,0.0,0.6642856955528259,0.6703942457834879,0.6642856955528259,0.6642856955528259,0.7969230930010478,0.8112670063972474
105,0.40286928017934165,0.43952202598253887,74.46666666666667,13.533333333333333,74.46666666666667,13.533333333333333,0.0,0.8462121208508809,0.35591267347335814,0.8462121208508809,0.8462121208508809,0.9041016777356465,0.9078856269518535,0.6140419960021972,0.7943995594978333,18.6,9.4,18.6,9.4,0.0,0.6642856955528259,0.6704463601112366,0.6642856955528259,0.6642856955528259,0.7970940311749776,0.811467174688975
106,0.4025758465131124,0.4395757019519806,74.46666666666667,13.533333333333333,74.46666666666667,13.533333333333333,0.0,0.8462121208508809,0.3555160125096639,0.8462121208508809,0.8462121208508809,0.9040668805440267,0.9073493997255961,0.6147419969240825,0.7967659195264181,18.6,9.4,18.6,9.4,0.0,0.6642856955528259,0.6703902006149292,0.6642856955528259,0.6642856955528259,0.7970940272013346,0.8109936873118083
107,0.4022704780101776,0.43962104320526124,74.46666666666667,13.533333333333333,74.46666666666667,13.533333333333333,0.0,0.8462121208508809,0.3551167945067088,0.8462121208508809,0.8462121208508809,0.9040665030479431,0.9072791775067647,0.6154554565747579,0.7991504828135173,18.666666666666668,9.333333333333334,18.666666666666668,9.333333333333334,0.0,0.6666666467984518,0.6703048865000407,0.6666666467984518,0.6666666467984518,0.7969230890274048,0.811504618326823
108,0.4019687036673228,0.43961809277534486,74.53333333333333,13.466666666666667,74.53333333333333,13.466666666666667,0.0,0.8469696958859761,0.35474019050598143,0.8469696958859761,0.8469696958859761,0.9034955581029256,0.9073984146118164,0.6161267757415771,0.8014958063761394,18.666666666666668,9.333333333333334,18.666666666666668,9.333333333333334,0.0,0.6666666467984518,0.6701908191045125,0.6666666467984518,0.6666666467984518,0.7972649733225504,0.8128721872965495
109,0.4017522156238556,0.43997934261957805,74.53333333333333,13.466666666666667,74.53333333333333,13.466666666666667,0.0,0.8469696958859761,0.3542238553365072,0.8469696958859761,0.8469696958859761,0.903270673751831,0.907844344774882,0.6169443925221761,0.8042723496754964,18.666666666666668,9.333333333333334,18.666666666666668,9.333333333333334,0.0,0.6666666467984518,0.6699609955151876,0.6666666467984518,0.6666666467984518,0.7981196721394856,0.8144103527069092
110,0.40138064821561176,0.44006741642951963,74.53333333333333,13.466666666666667,74.53333333333333,13.466666666666667,0.0,0.8469696958859761,0.35355154474576317,0.8469696958859761,0.8469696958859761,0.9043106476465861,0.9094739119211833,0.6179812153180441,0.807450540860494,18.666666666666668,9.333333333333334,18.666666666666668,9.333333333333334,0.0,0.6666666467984518,0.6699140667915344,0.6666666467984518,0.6666666467984518,0.796752150853475,0.8140499671300252
111,0.4010972023010254,0.44025899171829225,74.53333333333333,13.466666666666667,74.53333333333333,13.466666666666667,0.0,0.8469696958859761,0.35298577149709065,0.8469696958859761,0.8469696958859761,0.9043978134791056,0.9096591313680013,0.619130527973175,0.8107533891995747,18.666666666666668,9.333333333333334,18.666666666666668,9.333333333333334,0.0,0.6666666467984518,0.6701459884643555,0.6666666467984518,0.6666666467984518,0.7972649733225504,0.8134478410085042
112,0.40081623593966165,0.4400684098402659,74.53333333333333,13.466666666666667,74.53333333333333,13.466666666666667,0.0,0.8469696958859761,0.3526683847109477,0.8469696958859761,0.8469696958859761,0.9057478308677673,0.9108487923940023,0.6201915979385376,0.8136225740114847,18.733333333333334,9.266666666666667,18.733333333333334,9.266666666666667,0.0,0.6690475980440775,0.670430048306783,0.6690475980440775,0.6690475980440775,0.7964102705319722,0.8128054658571879
113,0.4005771736303965,0.4398284594217936,74.6,13.4,74.6,13.4,0.0,0.8477272709210714,0.3523409883181254,0.8477272709210714,0.8477272709210714,0.9062836766242981,0.9110497951507568,0.6213181575139364,0.8168630321820577,18.733333333333334,9.266666666666667,18.733333333333334,9.266666666666667,0.0,0.6690475980440775,0.6705569783846538,0.6690475980440775,0.6690475980440775,0.7962393323580425,0.8123602747917176
114,0.4003249824047089,0.43994774023691813,74.6,13.4,74.6,13.4,0.0,0.8477272709210714,0.3519122401873271,0.8477272709210714,0.8477272709210714,0.9048272450764974,0.9114154855410258,0.6222838441530864,0.8197486639022827,18.733333333333334,9.266666666666667,18.733333333333334,9.266666666666667,0.0,0.6690475980440775,0.6706754684448242,0.6690475980440775,0.6690475980440775,0.7962393323580425,0.8126021265983582
115,0.4000479658444723,0.43997984925905864,74.6,13.4,74.6,13.4,0.0,0.8477272709210714,0.35146663784980775,0.8477272709210714,0.8477272709210714,0.9060581207275391,0.9118418176968892,0.6232996741930644,0.822728967666626,18.733333333333334,9.266666666666667,18.733333333333334,9.266666666666667,0.0,0.6690475980440775,0.6708257516225179,0.6690475980440775,0.6690475980440775,0.7967521548271179,0.8123033881187439
116,0.39981056650479635,0.4400845189889272,74.6,13.4,74.6,13.4,0.0,0.8477272709210714,0.35100969473520915,0.8477272709210714,0.8477272709210714,0.905903140703837,0.9117241938908894,0.6242762009302775,0.8256076018015543,18.733333333333334,9.266666666666667,18.733333333333334,9.266666666666667,0.0,0.6690475980440775,0.6708763877550761,0.6690475980440775,0.6690475980440775,0.7967521548271179,0.8130363265673319
117,0.39957680106163024,0.44020235737164815,74.6,13.4,74.6,13.4,0.0,0.8477272709210714,0.3505598962306976,0.8477272709210714,0.8477272709210714,0.9059199372927348,0.9120470364888509,0.6249720176060994,0.827717645963033,18.733333333333334,9.266666666666667,18.733333333333334,9.266666666666667,0.0,0.6690475980440775,0.6708127895991007,0.6690475980440775,0.6690475980440775,0.7967521548271179,0.8129708449045817
118,0.3993560791015625,0.44026801983515423,74.6,13.4,74.6,13.4,0.0,0.8477272709210714,0.350171967347463,0.8477272709210714,0.8477272709210714,0.9055211901664734,0.910362184047699,0.6255088170369466,0.8293441653251648,18.733333333333334,9.266666666666667,18.733333333333334,9.266666666666667,0.0,0.6690475980440775,0.6708534717559814,0.6690475980440775,0.6690475980440775,0.7895726680755615,0.8059984962145488
119,0.3990654448668162,0.4401712397734324,74.6,13.4,74.6,13.4,0.0,0.8477272709210714,0.34984506368637086,0.8477272709210714,0.8477272709210714,0.9068877418835958,0.9112302343050639,0.626236867904663,0.8314298152923584,18.733333333333334,9.266666666666667,18.733333333333334,9.266666666666667,0.0,0.6690475980440775,0.6709161440531413,0.6690475980440775,0.6690475980440775,0.7897436022758484,0.8061870058377584
