Phenotype,Gender,chr15_99799994_G_A_genotypic,chr16_90095444_A_G_genotypic,chr16_84704914_G_C_genotypic,chr7_100994418_T_C_genotypic,chr6_36762641_A_G_genotypic,chr15_34410588_C_T_genotypic,chr15_99800039_C_G_genotypic,chr6_599042_T_A_genotypic,chr10_46837942_G_A_genotypic,chr1_1730265_A_G_genotypic,chr4_49061855_C_A_genotypic,chr4_51848188_A_ATTTC_genotypic,chr17_10354836_GT_G_genotypic,chr2_89159873_A_T_genotypic,chr15_99800035_A_T_genotypic,chr11_1243512_G_C_genotypic,chr17_83134770_A_G_genotypic,chr22_18370430_A_G_genotypic,chr10_5640893_G_C_genotypic,chr7_101002774_A_G_genotypic,chr5_178985715_C_A_genotypic,chr12_7814480_A_G_genotypic,chr7_28410809_C_CAGG_genotypic,chr19_50630099_C_G_genotypic,chr7_67309617_G_C_genotypic,chr20_1611697_T_C_genotypic,chr12_9311210_T_C_genotypic,chr19_54338210_T_G_genotypic,chr12_107651615_T_C_genotypic,chr9_113391620_A_G_genotypic,chr1_205009405_A_G_genotypic,chr2_31197379_A_G_genotypic,chr5_96695865_A_G_genotypic,chr2_26176345_G_A_genotypic,chr5_84048145_A_T_genotypic,chr13_32442906_T_C_genotypic,chr5_178987531_A_G_genotypic,chr15_41874302_C_T_genotypic,chr1_1522875_T_G_genotypic,chr18_11644537_A_T_genotypic,chr18_13056334_C_T_genotypic,chr19_51627084_T_C_genotypic,chr10_45759292_C_CCA_genotypic,chr9_97853784_G_C_genotypic,chr4_30220771_C_T_genotypic,chr2_130074785_T_C_genotypic,chr7_84129375_C_T_genotypic,chr15_74573068_G_A_genotypic,chr8_12185312_T_C_genotypic,chr1_11228561_G_A_genotypic,chr19_35163952_C_T_genotypic,chr17_41265692_T_C_genotypic,chr17_41464481_G_C_genotypic,chr9_135549914_C_A_genotypic,chr12_8357072_C_T_genotypic,chr19_54221883_T_C_genotypic,chr16_21730858_C_T_genotypic,chr14_105668251_AC_A_genotypic,chr6_64912570_A_G_genotypic,chr14_22634064_A_G_genotypic,chr22_28772767_T_C_genotypic,chr5_151138797_A_G_genotypic,chr12_92422749_G_C_genotypic,chr22_18369900_G_A_genotypic,chr2_91941723_T_C_genotypic,chr22_20690343_G_A_genotypic,chr6_116590870_CT_C_genotypic,chr2_169175314_C_T_genotypic,chr14_106012373_T_C_genotypic,chr15_99808271_T_C_genotypic,chr1_121374827_A_G_genotypic,chr22_50249226_A_AG_genotypic,chrX_3310612_G_C_genotypic
1,2,0,11,11,3,11,11,11,12,0,0,12,12,12,11,0,0,3,0,11,3,11,11,12,11,11,0,0,3,12,11,12,3,12,3,12,3,11,3,11,0,12,12,11,11,12,0,11,12,11,12,11,11,12,11,11,11,11,0,12,11,12,12,11,11,3,11,3,11,12,0,11,11,11
2,2,0,11,12,11,11,3,0,12,11,3,12,12,11,3,0,0,11,3,12,11,11,0,11,12,11,11,11,11,12,12,12,11,12,11,11,11,3,11,3,3,11,11,12,11,11,11,12,11,11,11,11,11,12,11,11,11,11,3,3,12,12,12,12,3,12,11,0,12,11,11,0,3,3
1,1,0,11,11,3,11,11,0,12,3,0,3,3,11,3,0,0,3,0,11,0,11,11,11,11,3,3,12,12,3,12,12,12,11,11,11,12,11,11,11,11,11,11,11,0,11,3,12,3,12,11,11,11,12,11,11,11,11,11,11,11,12,12,11,11,12,11,3,11,12,11,11,11,11
1,1,0,11,11,3,11,3,11,12,11,11,12,12,12,3,11,11,11,11,11,12,12,11,11,11,11,11,11,3,3,12,12,12,11,12,3,12,11,12,11,0,11,11,11,11,11,0,12,3,11,11,11,3,3,11,11,11,11,11,11,12,11,11,12,11,11,0,12,11,3,3,12,11,11
1,2,3,0,11,11,11,3,3,12,11,0,11,12,12,3,3,3,11,11,11,11,12,11,11,11,11,11,12,12,3,3,11,12,11,3,3,3,11,12,11,11,11,11,11,11,11,11,12,3,12,11,11,11,3,11,11,11,11,11,11,11,0,11,11,11,11,11,11,11,3,12,11,12,11
2,1,11,3,11,11,12,0,11,11,0,3,11,11,11,11,11,0,0,11,11,11,12,11,11,11,12,11,11,11,12,11,11,12,11,11,11,11,12,11,11,3,11,12,0,11,11,0,11,11,0,11,11,11,12,12,11,3,11,11,11,12,11,11,11,11,11,11,11,12,11,11,12,3,11
2,2,0,11,3,3,11,3,0,11,0,3,11,11,11,11,0,0,0,3,3,0,3,3,12,11,11,11,11,12,12,12,11,3,12,11,11,11,11,11,11,3,11,11,11,11,3,0,11,3,3,11,11,11,12,11,3,11,11,11,12,3,11,11,12,3,12,0,11,11,11,11,3,3,11
1,2,11,0,11,3,11,11,11,3,11,0,12,12,11,0,11,11,0,11,11,3,12,11,11,12,11,3,3,12,11,3,12,12,12,11,11,11,11,11,0,11,11,11,3,12,11,12,11,11,12,11,11,11,12,12,11,11,11,3,12,12,3,3,11,11,11,3,3,11,12,11,11,3,3
1,1,11,11,11,0,11,11,3,12,3,0,12,12,12,0,3,11,12,11,12,11,12,11,11,12,11,11,11,11,11,12,12,12,11,12,12,12,11,12,0,0,12,3,11,3,11,0,11,12,12,11,11,11,12,11,12,11,11,11,11,11,11,12,11,11,11,11,3,11,11,3,0,11,11
2,1,11,11,12,11,11,3,11,12,11,0,12,11,12,0,11,11,11,11,11,11,12,0,11,11,12,0,12,12,3,11,11,12,12,11,11,11,11,11,0,11,12,11,3,11,11,11,12,12,12,11,11,11,12,11,11,11,11,3,12,12,11,12,12,11,3,11,11,12,11,11,11,0,11
1,1,11,11,11,0,11,11,11,12,3,11,12,12,11,11,11,0,12,11,12,0,3,11,3,12,12,11,12,12,3,3,3,11,12,11,12,3,3,12,11,11,11,3,11,12,11,3,11,11,11,12,11,11,3,12,12,11,11,0,11,11,11,11,11,11,3,11,0,11,12,12,12,12,3
2,1,11,11,12,0,11,3,3,11,11,3,12,12,12,0,3,0,3,3,12,11,3,3,12,11,11,11,3,11,11,3,11,12,11,11,11,12,11,11,3,11,11,11,11,11,3,11,12,12,12,11,11,11,12,11,12,11,3,3,3,3,12,12,11,3,12,11,12,11,12,12,11,11,11
1,2,11,11,11,3,11,11,11,12,0,11,12,12,12,11,0,3,11,11,11,0,11,11,11,12,11,11,12,12,3,12,12,12,11,11,3,12,11,3,0,3,11,12,11,11,11,11,3,3,11,12,11,11,12,11,12,11,0,0,11,12,11,12,11,11,12,11,3,11,12,11,12,12,3
2,1,11,11,12,3,12,0,12,11,3,3,12,12,11,0,12,11,12,0,12,0,3,0,11,12,12,11,11,12,11,11,11,11,11,11,11,11,3,11,3,11,11,11,3,11,11,0,3,12,12,11,11,3,11,11,3,11,0,11,3,3,11,11,11,11,11,11,12,11,3,11,0,11,11
2,2,11,11,11,11,11,3,11,12,3,0,11,12,11,11,0,0,11,12,12,11,3,11,11,11,12,11,3,11,11,12,12,11,12,11,11,11,11,11,11,0,11,11,11,11,12,0,11,11,12,11,11,0,11,11,12,11,11,11,3,3,11,12,3,11,11,11,11,12,12,11,11,0,11
1,2,11,11,11,11,11,11,0,12,3,0,12,12,12,3,11,11,3,0,12,11,11,11,11,12,11,3,12,3,11,3,3,12,11,12,12,12,11,12,11,11,11,12,12,3,11,0,11,3,12,11,3,11,3,11,11,11,11,3,12,12,3,3,11,11,11,12,12,11,11,11,3,0,3
1,2,11,11,11,11,11,0,12,11,11,0,12,12,12,11,12,11,11,3,11,11,12,11,11,12,11,11,0,12,3,3,3,12,11,11,12,11,11,12,11,11,11,11,11,0,11,0,11,11,11,11,11,0,11,11,11,11,11,0,12,11,0,12,11,3,12,11,12,11,11,11,12,3,11
2,2,0,12,12,3,11,11,0,12,11,0,11,11,11,11,0,0,11,3,3,0,3,3,11,11,3,11,11,12,11,12,11,11,11,11,11,12,3,11,11,11,11,12,3,0,12,0,11,12,11,11,11,11,12,11,11,11,11,3,12,12,11,12,11,3,3,11,0,11,11,11,0,11,11
2,1,11,12,12,0,12,0,11,12,11,11,11,11,11,11,11,11,0,11,11,12,12,11,11,11,12,11,11,12,11,11,11,12,12,11,12,11,12,11,3,3,11,11,3,11,11,11,12,11,12,11,11,11,3,11,12,11,11,0,3,12,11,11,11,11,3,11,11,11,11,11,11,11,11
1,2,3,3,11,11,11,11,3,3,11,11,3,3,12,0,3,0,12,11,11,11,12,11,11,12,11,11,12,11,3,12,11,11,12,11,12,11,11,11,11,11,3,12,0,3,11,0,12,12,12,11,12,11,12,11,11,11,11,11,3,11,0,11,11,11,11,11,12,11,12,11,3,3,11
2,2,0,3,11,11,12,0,0,11,11,0,11,11,11,0,0,0,0,3,12,11,0,11,12,11,12,11,12,11,3,11,11,11,11,11,11,11,11,11,3,3,11,11,3,0,12,0,12,12,12,11,11,11,11,11,12,11,11,3,12,12,11,11,11,11,3,11,11,11,11,11,11,11,11
1,2,3,3,11,0,11,11,3,12,11,11,12,12,12,0,3,0,0,11,11,11,12,11,12,11,11,11,12,3,12,12,3,11,12,11,12,11,11,12,3,11,11,11,12,11,3,0,11,12,0,11,11,11,11,11,11,11,11,11,11,11,12,12,11,11,12,11,11,11,3,12,11,0,3
1,1,3,11,11,11,11,11,3,12,11,3,11,11,12,0,3,0,11,0,11,11,12,11,11,12,11,3,11,12,12,3,11,3,11,11,12,12,12,12,11,0,3,11,3,0,11,3,11,12,12,12,12,11,12,0,12,11,11,11,11,3,11,12,11,11,12,11,12,11,12,11,11,0,11
2,1,0,0,11,11,12,0,0,12,11,0,12,12,11,0,0,11,11,3,12,11,3,11,11,11,11,3,11,12,11,11,11,11,12,11,11,11,12,11,0,0,11,11,11,11,11,0,11,11,3,11,11,3,11,11,12,11,11,11,12,12,11,11,3,11,11,11,11,11,3,11,12,3,11
2,2,0,11,12,11,11,11,0,12,11,3,11,11,11,11,0,11,11,0,12,11,12,11,11,11,12,11,11,11,11,3,12,12,11,11,11,11,3,11,0,0,12,11,11,11,12,11,3,3,3,11,11,11,12,11,3,11,12,0,12,12,11,11,11,11,12,11,12,12,12,11,11,11,11
2,2,11,3,12,11,11,0,11,11,11,3,12,12,11,3,11,11,11,0,12,11,0,0,11,11,11,11,0,11,11,12,3,11,12,11,11,11,12,12,0,0,12,12,12,11,11,0,3,11,0,11,11,0,11,11,11,11,11,11,12,12,12,11,12,11,12,11,12,12,12,0,11,0,11
1,1,0,11,11,11,11,11,0,3,11,0,12,12,3,0,0,3,12,11,11,12,3,11,12,11,11,11,11,12,3,11,11,12,12,11,11,11,12,3,11,11,11,12,11,11,11,11,11,12,11,11,11,11,3,11,12,11,11,12,11,11,11,12,11,11,11,12,11,11,3,11,3,3,3
1,1,0,11,11,11,11,3,0,12,11,11,3,3,12,0,0,0,11,3,12,11,12,12,11,12,11,3,0,11,3,3,12,12,11,11,3,11,11,12,0,0,12,12,11,11,11,3,12,12,12,11,11,0,3,12,12,11,11,11,12,12,3,11,11,11,11,11,11,11,12,3,0,11,11
1,2,0,12,12,3,11,0,11,11,11,0,3,3,11,0,11,0,11,3,12,0,0,11,12,12,11,11,11,3,12,12,12,12,11,12,11,12,11,12,11,0,11,11,11,12,12,3,11,11,11,11,11,11,3,12,11,11,11,0,11,12,12,11,11,11,11,11,12,11,12,3,11,3,3
2,2,11,11,11,11,12,3,11,11,11,0,11,11,11,11,11,11,11,3,12,11,12,11,11,11,12,11,11,12,12,11,11,12,12,11,12,12,12,11,11,3,11,11,3,12,11,11,12,12,0,11,11,11,11,11,3,0,11,3,12,12,0,11,12,11,0,11,11,11,11,11,0,11,11
2,1,11,3,11,11,12,11,11,12,11,3,11,11,11,0,11,0,0,11,12,11,12,11,11,11,11,11,12,11,11,11,11,12,12,11,11,12,12,12,3,11,11,11,3,11,11,0,11,3,11,11,11,11,11,11,11,11,11,3,3,3,12,12,3,11,12,11,12,11,11,11,11,12,3
1,1,12,11,11,11,11,0,0,12,3,11,11,11,12,11,0,11,3,11,11,11,12,11,12,11,11,11,3,12,12,11,12,3,11,12,12,12,12,11,0,11,12,11,3,11,11,3,11,3,12,11,11,11,12,12,12,11,11,11,12,11,11,12,11,11,12,3,12,11,12,3,11,11,3
1,2,0,11,11,0,11,11,0,12,11,11,11,11,12,11,0,0,11,0,12,11,11,0,11,12,11,11,0,12,12,12,12,11,11,11,11,12,11,12,0,11,11,11,3,11,11,0,11,3,12,11,11,11,12,12,11,11,11,0,3,12,12,3,11,11,12,11,12,11,3,11,12,12,11
1,1,11,11,11,3,11,11,11,3,0,11,3,3,11,0,11,0,3,11,12,12,11,11,11,12,11,11,11,3,12,12,12,12,11,11,11,3,12,11,0,11,11,11,11,11,12,3,11,12,11,11,12,11,12,11,11,11,11,11,12,12,12,12,11,11,12,11,0,11,12,11,12,11,11
2,1,11,3,11,0,11,0,11,12,11,0,12,12,11,11,11,11,11,11,12,11,0,3,11,12,11,3,0,11,12,3,12,11,3,11,12,11,12,11,0,11,11,11,3,11,3,11,12,12,12,11,11,11,12,11,12,11,3,0,12,12,11,11,11,11,3,11,11,11,11,11,11,3,11
2,1,11,3,12,11,12,11,11,11,0,3,11,11,11,11,11,0,11,3,3,0,12,11,11,11,12,0,11,11,12,12,11,11,12,11,11,11,3,12,12,11,11,12,3,11,11,12,3,12,0,11,11,0,12,11,3,11,0,11,3,12,11,11,11,11,12,11,11,12,11,11,11,11,11
2,2,11,3,12,11,11,3,11,11,11,11,12,12,11,11,11,11,0,3,12,11,12,11,11,12,3,3,0,11,3,12,3,12,11,11,3,11,11,11,3,0,11,11,11,3,11,0,12,12,11,11,11,11,3,11,12,11,0,11,12,3,11,11,11,3,3,12,12,12,12,11,11,11,0
2,2,11,3,12,0,12,0,11,11,11,11,11,11,11,11,11,11,11,3,3,0,12,11,11,11,3,11,11,11,11,11,11,11,12,11,11,11,12,3,3,3,11,11,0,11,12,3,12,11,3,11,11,3,12,11,12,3,11,3,12,12,11,11,11,11,11,11,12,11,12,11,0,11,11
2,1,11,0,12,0,11,3,11,11,11,0,11,11,12,0,11,11,0,0,12,11,3,3,11,11,12,3,11,11,3,11,11,11,11,11,12,11,12,12,0,0,11,11,3,11,11,0,11,11,12,11,11,11,12,11,11,11,0,0,12,12,12,11,11,11,3,11,12,12,11,11,11,11,11
2,1,0,3,12,11,3,3,11,11,11,0,12,12,11,11,11,0,11,3,12,11,12,0,11,11,11,11,11,11,12,12,3,12,3,11,11,11,3,11,3,3,11,11,11,12,12,11,12,11,12,11,11,11,11,12,12,11,11,0,12,3,11,11,12,3,12,11,11,11,11,3,11,11,11
1,1,0,0,11,3,12,11,0,12,11,11,12,12,12,3,0,0,3,11,12,3,11,11,12,11,11,3,11,11,12,12,3,12,11,11,11,11,11,11,0,12,12,11,12,11,11,0,11,3,11,12,11,11,11,11,11,11,11,12,12,12,3,12,12,11,11,0,12,11,11,11,11,0,11
1,1,11,12,11,3,11,3,3,12,11,11,12,12,11,3,3,3,12,11,11,0,12,11,11,12,11,3,12,12,3,3,12,12,11,11,11,12,11,12,0,11,3,11,11,12,11,11,11,3,0,11,11,0,11,12,11,11,11,11,3,11,11,12,11,11,11,11,12,11,12,3,12,3,11
2,1,0,11,11,11,3,3,0,12,11,11,11,11,11,11,0,11,11,0,3,11,3,11,11,11,12,3,11,12,11,11,11,11,11,11,11,11,12,3,11,3,11,11,3,0,12,3,12,11,12,11,11,3,11,11,12,3,11,11,11,12,11,11,12,11,12,11,0,11,11,3,0,12,11
2,1,11,3,3,11,12,11,0,11,11,0,11,11,11,0,11,11,11,11,11,11,12,11,11,11,3,11,3,12,11,3,12,11,12,12,11,11,11,11,0,3,11,11,11,11,3,3,12,12,3,11,11,11,12,12,3,11,3,3,3,12,11,11,12,11,3,11,11,11,12,11,12,11,11
2,1,0,11,11,11,11,3,0,12,0,0,11,11,11,0,0,0,0,3,12,11,12,0,11,11,12,11,11,12,12,11,12,12,3,11,12,12,11,11,0,0,11,11,12,11,12,11,12,12,12,11,11,3,12,11,12,11,3,3,3,11,11,12,12,11,12,0,12,11,12,11,11,12,11
1,2,3,11,11,11,11,3,3,3,11,0,3,3,3,3,3,3,3,3,11,11,11,11,3,11,11,11,3,12,12,12,12,3,11,11,3,3,11,12,11,11,12,12,11,11,11,0,11,3,11,11,12,11,12,3,11,11,11,11,11,11,11,12,11,11,11,11,12,11,3,12,11,12,11
1,1,0,11,11,11,11,0,0,12,3,3,12,12,12,0,11,3,3,0,11,12,12,11,11,11,11,3,3,3,3,12,3,3,11,11,11,11,11,12,0,11,11,12,3,0,11,3,11,11,12,11,11,11,12,12,12,11,11,11,11,11,0,12,11,0,12,11,12,11,3,11,0,3,11
1,1,11,11,12,11,11,0,11,3,11,11,12,12,11,3,11,11,11,3,11,11,11,11,12,12,11,3,3,11,3,11,11,12,12,11,12,12,12,12,3,11,12,12,11,11,11,0,12,3,12,11,11,11,12,3,3,11,11,11,12,11,3,12,11,11,11,3,11,11,12,11,12,0,3
2,2,11,11,11,11,12,3,0,12,11,3,11,11,12,11,11,0,0,0,12,11,3,0,11,11,11,11,11,11,12,12,11,11,3,11,12,11,12,11,11,11,12,11,11,11,3,0,12,11,3,11,11,0,11,11,11,11,11,0,3,12,11,11,12,11,12,11,0,11,3,11,11,12,11
2,1,11,3,12,11,11,3,3,11,11,0,12,12,11,0,3,0,12,11,12,11,12,11,11,11,11,11,11,11,12,11,12,11,12,11,11,12,11,11,3,0,11,11,0,11,11,0,12,11,12,11,11,11,11,11,12,3,11,11,11,12,0,3,12,0,11,11,12,12,11,11,11,3,11
2,2,0,3,11,11,11,0,0,12,11,0,11,11,3,11,0,3,11,0,12,11,12,11,11,11,11,11,11,12,12,3,12,12,3,11,12,12,12,12,11,0,11,11,3,12,11,0,12,11,3,11,11,3,11,12,11,3,0,11,12,11,11,11,3,11,3,11,12,11,12,11,11,0,3
1,2,12,11,11,11,11,11,3,12,11,0,12,12,11,11,0,11,0,11,11,11,12,0,12,11,12,11,11,12,12,3,12,11,11,12,12,12,11,3,0,11,11,11,11,11,11,11,12,3,0,11,11,11,3,11,11,11,11,11,12,12,11,3,12,11,3,3,11,11,12,3,11,3,3
2,2,0,11,12,3,11,11,0,11,11,0,12,12,11,11,0,11,11,3,12,0,12,11,11,11,3,11,0,11,11,11,11,11,12,11,11,11,12,11,11,11,11,11,11,11,11,0,11,11,12,11,11,3,11,11,11,11,11,3,3,12,11,12,12,11,12,11,11,12,11,11,12,12,11
1,1,0,11,11,0,11,11,0,11,0,0,12,12,12,0,0,3,3,11,11,11,11,11,12,11,12,11,11,11,12,12,12,12,12,11,3,11,12,11,11,0,12,12,11,12,11,0,11,11,3,11,12,11,3,12,12,11,0,0,3,12,11,11,11,11,11,11,11,11,12,11,0,0,3
2,1,11,11,12,11,12,11,11,11,0,3,12,12,11,11,11,11,11,3,11,11,3,0,11,11,12,11,11,3,12,11,11,12,11,11,12,12,12,12,0,11,11,11,3,11,12,11,12,11,3,11,11,3,12,11,12,11,11,3,3,3,11,12,12,11,12,11,11,11,11,11,11,0,11
2,1,11,3,11,11,11,0,11,11,0,0,11,11,11,0,11,11,0,11,12,12,12,12,11,11,12,11,3,12,3,11,11,12,3,11,11,12,12,12,11,0,12,12,11,11,12,11,3,12,3,11,11,11,3,11,3,11,11,11,12,11,12,11,12,11,3,0,12,12,11,11,11,11,11
1,1,11,3,11,3,11,0,11,11,11,0,12,12,12,0,11,11,11,0,3,3,3,11,11,12,11,11,12,11,12,12,3,12,12,3,12,3,11,3,11,11,11,12,12,11,11,0,12,3,12,12,11,3,12,12,11,11,11,0,11,11,11,11,11,11,11,11,3,11,3,3,0,3,11
1,1,3,11,11,3,11,0,3,11,3,0,11,11,12,11,3,3,3,11,11,0,12,11,12,11,12,3,3,3,3,3,12,3,12,11,12,12,12,3,11,11,3,3,11,3,11,3,11,3,11,11,11,11,3,12,11,0,11,11,12,12,0,11,11,11,12,11,3,11,12,0,11,3,3
1,2,11,11,11,3,12,3,11,3,3,11,11,11,12,3,11,11,11,0,11,0,11,11,11,11,11,3,3,12,12,12,12,3,11,12,11,11,12,11,11,11,11,11,11,3,11,12,11,3,12,11,11,11,11,11,11,11,11,11,11,11,11,3,12,11,11,0,12,11,12,11,3,3,3
2,1,11,11,11,11,11,3,11,12,11,11,11,12,11,11,11,0,11,11,11,11,12,11,11,11,12,11,11,12,11,11,11,11,3,11,11,11,11,11,11,11,11,11,11,0,12,0,3,12,12,11,11,11,11,11,3,11,11,3,11,11,12,11,11,11,12,0,12,11,12,11,11,0,3
2,2,0,3,12,0,3,3,11,11,11,12,11,11,11,0,11,11,12,11,11,11,12,3,11,11,3,11,0,11,11,11,12,12,12,11,11,11,12,11,0,11,11,11,12,11,3,0,11,11,12,11,11,3,11,11,3,11,11,11,12,12,0,12,11,0,11,11,11,11,11,3,11,11,11
1,2,0,3,11,3,11,0,0,3,0,0,12,12,12,3,0,3,3,0,11,11,12,11,12,11,12,3,0,12,12,11,12,3,11,11,11,11,11,3,0,0,12,11,11,11,11,0,12,3,0,12,11,11,3,11,11,11,11,11,11,11,3,12,11,11,11,3,3,11,12,11,3,3,11
1,2,0,11,11,11,11,0,0,12,11,11,12,12,12,0,0,0,3,0,12,11,11,0,3,12,11,3,3,12,3,3,3,12,11,11,12,12,11,11,11,3,12,3,11,3,12,3,12,11,11,11,11,11,12,12,11,11,11,11,11,12,0,12,11,11,11,11,11,12,12,11,12,0,11
2,2,11,3,11,11,12,3,11,12,11,0,11,11,11,0,11,0,3,0,11,11,12,0,12,11,11,11,0,11,12,11,12,3,11,11,11,11,12,11,0,0,12,11,3,11,11,0,11,3,12,11,11,0,11,11,11,3,11,0,11,11,12,11,12,11,11,11,11,12,0,11,11,0,11
2,2,0,0,12,0,11,11,0,11,11,0,11,11,11,0,0,11,11,3,3,11,3,0,11,11,12,11,11,11,11,12,11,12,11,11,11,11,12,11,0,3,11,11,12,11,3,11,12,3,0,11,11,11,12,11,12,11,11,11,12,11,0,11,11,3,3,11,11,11,12,11,11,11,0
2,1,11,3,11,3,12,3,11,12,0,0,11,11,11,0,11,0,11,11,12,11,3,0,11,11,12,3,12,11,11,11,11,12,12,11,12,12,12,12,0,3,11,11,11,11,11,11,12,11,12,11,11,11,12,11,12,11,3,11,12,12,11,12,11,11,12,11,12,11,11,11,11,12,11
2,1,11,3,12,0,3,0,11,11,0,11,12,12,12,11,11,11,0,0,12,11,3,11,11,11,11,11,11,11,12,12,11,12,11,11,11,12,12,12,0,11,11,11,0,11,11,12,12,12,3,11,11,11,12,11,11,11,11,3,11,12,11,11,11,11,12,0,12,12,12,11,11,12,3
2,1,0,3,11,11,11,3,0,11,11,11,11,11,11,3,0,11,0,3,12,11,11,11,11,11,12,11,11,12,11,12,12,11,12,11,11,12,12,11,11,11,11,11,11,11,11,0,12,3,3,11,11,11,11,11,3,11,11,11,3,12,11,11,11,3,11,11,11,11,12,11,12,12,11
1,2,0,3,11,3,11,3,0,3,3,0,12,12,11,0,0,11,0,0,11,3,12,11,12,3,11,3,3,11,11,12,12,3,11,11,11,11,12,11,11,3,12,11,11,11,11,11,11,12,11,12,12,11,12,11,12,11,11,11,12,12,11,3,11,11,11,11,12,11,12,11,11,3,11
2,1,11,3,11,0,11,0,11,12,11,11,12,12,12,11,0,3,0,0,12,12,12,0,11,11,12,11,11,11,12,12,3,11,12,11,11,11,11,11,3,0,11,12,3,11,11,11,12,11,11,11,11,3,11,11,11,11,11,11,12,12,11,11,12,11,3,11,12,11,3,11,11,11,11
1,1,3,11,11,3,11,11,3,11,3,0,12,12,11,0,3,11,11,11,11,3,11,11,11,12,3,11,11,12,11,12,11,12,11,11,11,3,11,11,3,11,11,3,11,3,11,11,11,12,11,3,3,11,12,11,12,11,11,3,12,11,3,11,12,11,12,11,12,11,11,0,12,12,3
1,1,0,11,11,3,11,11,0,3,3,11,12,12,12,11,0,3,11,11,12,0,11,0,12,11,11,3,3,12,12,3,3,3,11,11,3,12,11,12,11,0,3,11,0,11,11,3,11,12,12,11,11,11,12,12,11,11,11,11,11,12,12,11,12,11,12,11,3,11,3,11,12,3,3
