Phenotype,Gender,chr7_151086824_A_G_genotypic,chr6_29631325_G_A_genotypic,chr7_151086821_C_CG_genotypic,chr7_151086830_T_G_genotypic
2,1,11,11,11,11
1,1,0,11,0,0
1,1,3,12,3,3
2,1,0,12,0,0
2,1,11,11,11,11
1,1,0,11,0,0
2,2,11,12,11,11
2,1,11,3,11,11
2,1,0,12,0,0
1,1,3,11,3,3
2,2,11,12,11,11
1,2,3,11,3,3
1,1,3,11,3,3
1,1,3,11,3,3
1,1,3,11,3,3
1,1,3,11,3,3
1,2,11,11,11,11
2,1,11,12,11,11
2,1,0,12,0,0
2,1,0,11,3,3
1,1,11,11,11,11
1,2,0,11,0,0
2,1,11,12,11,11
1,2,3,11,3,3
1,1,0,11,0,0
2,1,11,12,11,11
1,1,0,11,0,0
2,1,11,12,11,11
2,1,11,12,11,11
2,1,11,11,11,11
2,2,11,12,11,11
2,1,11,12,11,11
2,2,11,12,11,11
1,1,11,11,11,11
1,1,3,11,3,3
2,1,11,11,11,11
2,1,11,12,11,11
1,1,11,11,11,11
2,1,11,12,11,11
2,1,0,12,0,0
2,1,11,12,11,11
1,1,11,11,11,11
2,1,11,12,11,0
1,2,3,11,3,3
1,1,0,11,0,0
1,1,11,11,11,11
1,1,11,11,11,11
2,2,3,11,3,3
1,1,11,12,11,11
2,1,11,3,11,11
2,2,11,12,11,11
1,1,3,11,3,3
2,2,11,12,11,11
2,1,11,12,11,11
2,1,11,3,11,11
2,2,11,12,11,11
2,1,11,12,11,11
1,1,3,11,3,3
1,1,11,11,11,11
1,1,11,11,11,11
1,1,11,11,11,11
2,2,11,12,11,11
2,2,3,11,3,3
2,2,11,11,11,11
2,2,11,12,11,11
2,1,11,12,11,11
1,2,3,11,3,3
1,1,0,11,0,0
1,1,11,12,11,11
1,1,3,11,3,3
2,1,11,12,11,11
2,1,3,12,3,3
2,1,11,12,11,11
1,1,11,11,11,11
2,1,3,11,3,3
2,1,11,12,11,11
2,2,11,12,11,11
2,1,11,12,11,11
1,1,11,11,11,11
1,1,11,11,11,11
1,1,0,11,0,0
1,1,11,11,11,11
2,1,11,11,11,11
2,1,11,12,11,11
2,2,11,12,11,11
1,1,0,11,0,0
2,1,11,12,11,11
1,1,11,12,11,11
1,1,11,12,11,11
2,1,11,12,11,11
1,1,3,11,3,3
2,1,11,12,11,11
1,1,0,11,0,0
2,2,11,12,11,11
2,1,11,11,11,11
2,1,11,12,11,11
2,1,11,12,11,11
2,2,11,12,11,11
1,1,0,11,0,0
1,1,3,11,3,3
1,1,3,11,3,3
2,1,3,11,3,3
1,1,3,11,3,3
2,1,11,12,11,11
2,1,11,12,11,11
2,1,11,12,11,11
1,1,3,11,3,3
1,1,11,11,11,11
1,1,11,11,11,11
1,1,3,12,3,3
